\begin{thebibliography}{1}

\bibitem{pintools}
Sion Berkowits.
\newblock Pin - a dynamic binary instrumentation tool, June 2012.

\bibitem{dineroIV}
Jan Edler and Mark~D. Hill.
\newblock {\em Dinero IV Trace-Driven Uniprocessor Cache Simulator}.
\newblock 2 1999.

\bibitem{hennessy2011computer}
J.L. Hennessy and D.A. Patterson.
\newblock {\em Computer Architecture: A Quantitative Approach}.
\newblock The Morgan Kaufmann Series in Computer Architecture and Design.
  Elsevier Science, 2011.

\end{thebibliography}
