\relax 
\@writefile{toc}{\contentsline {section}{\numberline {I}Introduction}{1}}
\@writefile{toc}{\contentsline {subsection}{\numberline {\unhbox \voidb@x \hbox {I-A}}A Brief Background on Caches}{1}}
\citation{dineroIV}
\citation{pintools}
\@writefile{toc}{\contentsline {subsection}{\numberline {\unhbox \voidb@x \hbox {I-B}}Focus}{2}}
\@writefile{toc}{\contentsline {subsection}{\numberline {\unhbox \voidb@x \hbox {I-C}}Benchmarks}{2}}
\@writefile{toc}{\contentsline {subsection}{\numberline {\unhbox \voidb@x \hbox {I-D}}Building Memory Trace Files}{2}}
\@writefile{toc}{\contentsline {section}{\numberline {II}Simulation Results}{3}}
\@writefile{toc}{\contentsline {subsection}{\numberline {\unhbox \voidb@x \hbox {II-A}}L1 Data Caches}{3}}
\@writefile{lof}{\contentsline {figure}{\numberline {1}{\ignorespaces Simulation Results for L1 cache of size 32768 bits and Associativty of 1}}{3}}
\newlabel{fig:1}{{1}{3}}
\@writefile{lof}{\contentsline {figure}{\numberline {2}{\ignorespaces Simulation Results for L1 cache of size 32768 bits and Associativty of 8}}{3}}
\newlabel{fig:2}{{2}{3}}
\@writefile{lof}{\contentsline {figure}{\numberline {3}{\ignorespaces Simulation Results for L1 cache of size 2097152 bits and Associativty of 1}}{3}}
\newlabel{fig:3}{{3}{3}}
\citation{hennessy2011computer}
\@writefile{lof}{\contentsline {figure}{\numberline {4}{\ignorespaces Simulation Results for L1 cache of size 32768 bits for benchmark 401. A new format is presented to make improvements more obvious}}{4}}
\newlabel{fig:4}{{4}{4}}
\@writefile{toc}{\contentsline {subsection}{\numberline {\unhbox \voidb@x \hbox {II-B}}Metric for Multilevel Cache Miss Rate Analysis}{4}}
\@writefile{lot}{\contentsline {table}{\numberline {I}{\ignorespaces Local Miss Rate Example}}{4}}
\newlabel{tab:1}{{I}{4}}
\@writefile{lot}{\contentsline {table}{\numberline {II}{\ignorespaces Global Miss Rate Example}}{4}}
\newlabel{tab:2}{{II}{4}}
\@writefile{toc}{\contentsline {subsection}{\numberline {\unhbox \voidb@x \hbox {II-C}}L1, L2 Data Caches}{5}}
\@writefile{lof}{\contentsline {figure}{\numberline {5}{\ignorespaces Cache with L1 = 4 KB and L2 = 256 KB }}{5}}
\newlabel{fig:5}{{5}{5}}
\@writefile{lof}{\contentsline {figure}{\numberline {6}{\ignorespaces Cache with L1 = 16 KB and L2 = 256 KB }}{5}}
\newlabel{fig:6}{{6}{5}}
\@writefile{lof}{\contentsline {figure}{\numberline {7}{\ignorespaces Cache with L1 = 16 KB and L2 = 512 KB }}{5}}
\newlabel{fig:7}{{7}{5}}
\@writefile{toc}{\contentsline {subsection}{\numberline {\unhbox \voidb@x \hbox {II-D}}L1, L2, L3 Data Caches}{6}}
\@writefile{lof}{\contentsline {figure}{\numberline {8}{\ignorespaces Cache with L1 = 4 KB, L2 = 256 KB and L3 = 1 MB}}{6}}
\newlabel{fig:8}{{8}{6}}
\@writefile{lof}{\contentsline {figure}{\numberline {9}{\ignorespaces Cache with L1 = 256 KB, L2 = 512 KB and L3 = 2 MB}}{6}}
\newlabel{fig:9}{{9}{6}}
\@writefile{lof}{\contentsline {figure}{\numberline {10}{\ignorespaces Cache with L1 = 4 KB, L2 = 256 KB and L3 = 1 MB}}{6}}
\newlabel{fig:10}{{10}{6}}
\@writefile{lof}{\contentsline {figure}{\numberline {11}{\ignorespaces Cache with L1 = 256 KB, L2 = 512 KB and L3 = 2 MB}}{6}}
\newlabel{fig:11}{{11}{6}}
\@writefile{lof}{\contentsline {figure}{\numberline {12}{\ignorespaces Cache with L1 = 4 KB, L2 = 256 KB and L3 = 1 MB}}{6}}
\newlabel{fig:12}{{12}{6}}
\@writefile{lof}{\contentsline {figure}{\numberline {13}{\ignorespaces Cache with L1 = 256 KB, L2 = 512 KB and L3 = 2 MB}}{7}}
\newlabel{fig:13}{{13}{7}}
\bibstyle{plain}
\bibdata{581Report}
\bibcite{pintools}{1}
\bibcite{dineroIV}{2}
\bibcite{hennessy2011computer}{3}
\@writefile{toc}{\contentsline {section}{References}{8}}
