simIndex,l1_I_size,l2_I_size,l3_I_size,l1_D_size,l2_D_size,l3_D_size,l1_I_Bsize,l2_I_Bsize,l3_I_Bsize,l1_D_Bsize,l2_D_Bsize,l3_D_Bsize,l1_I_Assoc,l2_I_Assoc,l3_I_Assoc,l1_D_Assoc,l2_D_Assoc,l3_D_Assoc,l1_I_Repl,l2_I_Repl,l3_I_Repl,l1_D_Repl,l2_D_Repl,l3_D_Repl,l1_I_Fetch,l2_I_Fetch,l3_I_Fetch,l1_D_Fetch,l2_D_Fetch,l3_D_Fetch,l1_D_WAlloc,l2_D_WAlloc,l3_D_WAlloc,l1_D_WBack,l2_D_WBack,l3_D_WBack,l1_I_Demand_Fetches,l2_I_Demand_Fetches,l3_I_Demand_Fetches,l1_D_Demand_Fetches,l2_D_Demand_Fetches,l3_D_Demand_Fetches,l1_I_Demand_Misses,l2_I_Demand_Misses,l3_I_Demand_Misses,l1_D_Demand_Misses,l2_D_Demand_Misses,l3_D_Demand_Misses,l1_I_Demand_Miss_Rate,l2_I_Demand_Miss_Rate,l3_I_Demand_Miss_Rate,l1_D_Demand_Miss_Rate,l2_D_Demand_Miss_Rate,l3_D_Demand_Miss_Rate,l1_I_Bytes_From_Mem,l2_I_Bytes_From_Mem,l3_I_Bytes_From_Mem,l1_D_Bytes_From_Mem,l2_D_Bytes_From_Mem,l3_D_Bytes_From_Mem,l1_I_Bytes_To_Mem,l2_I_Bytes_To_Mem,l3_I_Bytes_To_Mem,l1_D_Bytes_To_Mem,l2_D_Bytes_To_Mem,l3_D_Bytes_To_Mem,l1_I_Total_Bytes,l2_I_Total_Bytes,l3_I_Total_Bytes,l1_D_Total_Bytes,l2_D_Total_Bytes,l3_D_Total_Bytes,specbenchmark
5883,131072,2097152,-1,131072,2097152,-1,8,8,-1,8,8,-1,1,1,x,1,1,x,l,l,x,l,l,x,d,d,x,d,d,x,a,a,x,a,a,x,6451228,4102,-1,3548772,4227989,-1,4102,4101,-1,2534435,2534606,-1,0.0006,0.9998,-1,0.7142,0.5995,-1,32816,32808,-1,20275480,20273352,-1,0,0,-1,13548432,13547808,-1,32816,32808,-1,33823912,33821160,-1,401Out
5925,131072,2097152,-1,131072,2097152,-1,16,16,-1,16,16,-1,1,1,x,1,1,x,l,l,x,l,l,x,d,d,x,d,d,x,a,a,x,a,a,x,6451228,2194,-1,3548772,2976290,-1,2194,2193,-1,1699215,1699236,-1,0.0003,0.9995,-1,0.4788,0.5709,-1,35104,35088,-1,27187440,27183568,-1,0,0,-1,20433200,20432096,-1,35104,35088,-1,47620640,47615664,-1,401Out
5967,131072,2097152,-1,131072,2097152,-1,32,32,-1,32,32,-1,1,1,x,1,1,x,l,l,x,l,l,x,d,d,x,d,d,x,a,a,x,a,a,x,6451228,1238,-1,3548772,2348879,-1,1238,1236,-1,1280102,1280068,-1,0.0002,0.9984,-1,0.3607,0.545,-1,39616,39552,-1,40963264,40956928,-1,0,0,-1,34200864,34199168,-1,39616,39552,-1,75164128,75156096,-1,401Out
6009,131072,2097152,-1,131072,2097152,-1,64,64,-1,64,64,-1,1,1,x,1,1,x,l,l,x,l,l,x,d,d,x,d,d,x,a,a,x,a,a,x,6451228,720,-1,3548772,2034995,-1,720,718,-1,1070443,1070359,-1,0.0001,0.9972,-1,0.3016,0.526,-1,46080,45952,-1,68508352,68496064,-1,0,0,-1,61731328,61728448,-1,46080,45952,-1,130239680,130224512,-1,401Out
6051,131072,2097152,-1,131072,2097152,-1,128,128,-1,128,128,-1,1,1,x,1,1,x,l,l,x,l,l,x,d,d,x,d,d,x,a,a,x,a,a,x,6451228,437,-1,3548772,1877933,-1,437,435,-1,965519,965399,-1,0.0001,0.9954,-1,0.2721,0.5141,-1,55936,55680,-1,123586432,123561600,-1,0,0,-1,116788992,116782848,-1,55936,55680,-1,240375424,240344448,-1,401Out
6093,131072,2097152,-1,131072,2097152,-1,256,256,-1,256,256,-1,1,1,x,1,1,x,l,l,x,l,l,x,d,d,x,d,d,x,a,a,x,a,a,x,6451228,278,-1,3548772,1801616,-1,278,274,-1,915275,913297,-1,0,0.9856,-1,0.2579,0.5069,-1,71168,70144,-1,234310400,233754624,-1,0,0,-1,226903296,226890496,-1,71168,70144,-1,461213696,460645120,-1,401Out
6135,131072,2097152,-1,131072,2097152,-1,512,512,-1,512,512,-1,1,1,x,1,1,x,l,l,x,l,l,x,d,d,x,d,d,x,a,a,x,a,a,x,6451228,192,-1,3548772,1766965,-1,192,185,-1,893644,887918,-1,0,0.9635,-1,0.2518,0.5025,-1,98304,94720,-1,457545728,454367232,-1,0,0,-1,447140352,447115264,-1,98304,94720,-1,904686080,901482496,-1,401Out
6177,131072,2097152,-1,131072,2097152,-1,8,8,-1,8,8,-1,2,2,x,2,2,x,l,l,x,l,l,x,d,d,x,d,d,x,a,a,x,a,a,x,6451228,4101,-1,3548772,4227592,-1,4101,4101,-1,2534158,2534029,-1,0.0006,1,-1,0.7141,0.5994,-1,32808,32808,-1,20273264,20272232,-1,0,0,-1,13547472,13547336,-1,32808,32808,-1,33820736,33819568,-1,401Out
6219,131072,2097152,-1,131072,2097152,-1,16,16,-1,16,16,-1,2,2,x,2,2,x,l,l,x,l,l,x,d,d,x,d,d,x,a,a,x,a,a,x,6451228,2193,-1,3548772,2975996,-1,2193,2193,-1,1699008,1698850,-1,0.0003,1,-1,0.4788,0.5709,-1,35088,35088,-1,27184128,27181584,-1,0,0,-1,20431808,20431472,-1,35088,35088,-1,47615936,47613056,-1,401Out
6261,131072,2097152,-1,131072,2097152,-1,32,32,-1,32,32,-1,2,2,x,2,2,x,l,l,x,l,l,x,d,d,x,d,d,x,a,a,x,a,a,x,6451228,1236,-1,3548772,2348655,-1,1236,1236,-1,1279943,1279797,-1,0.0002,1,-1,0.3607,0.5449,-1,39552,39552,-1,40958176,40953472,-1,0,0,-1,34198784,34198272,-1,39552,39552,-1,75156960,75151744,-1,401Out
6303,131072,2097152,-1,131072,2097152,-1,64,64,-1,64,64,-1,2,2,x,2,2,x,l,l,x,l,l,x,d,d,x,d,d,x,a,a,x,a,a,x,6451228,718,-1,3548772,2034775,-1,718,718,-1,1070275,1070148,-1,0.0001,1,-1,0.3016,0.5259,-1,45952,45952,-1,68497600,68489408,-1,0,0,-1,61728000,61726912,-1,45952,45952,-1,130225600,130216320,-1,401Out
6345,131072,2097152,-1,131072,2097152,-1,128,128,-1,128,128,-1,2,2,x,2,2,x,l,l,x,l,l,x,d,d,x,d,d,x,a,a,x,a,a,x,6451228,435,-1,3548772,1877721,-1,435,435,-1,965354,965246,-1,0.0001,1,-1,0.272,0.5141,-1,55680,55680,-1,123565312,123551360,-1,0,0,-1,116782976,116780288,-1,55680,55680,-1,240348288,240331648,-1,401Out
6387,131072,2097152,-1,131072,2097152,-1,256,256,-1,256,256,-1,2,2,x,2,2,x,l,l,x,l,l,x,d,d,x,d,d,x,a,a,x,a,a,x,6451228,273,-1,3548772,1799158,-1,273,273,-1,912860,912768,-1,0,1,-1,0.2572,0.5073,-1,69888,69888,-1,233692160,233668352,-1,0,0,-1,226892288,226886400,-1,69888,69888,-1,460584448,460554752,-1,401Out
6429,131072,2097152,-1,131072,2097152,-1,512,512,-1,512,512,-1,2,2,x,2,2,x,l,l,x,l,l,x,d,d,x,d,d,x,a,a,x,a,a,x,6451228,185,-1,3548772,1759897,-1,185,184,-1,886639,886524,-1,0,0.9946,-1,0.2498,0.5037,-1,94720,94208,-1,453959168,453899776,-1,0,0,-1,447108096,447095808,-1,94720,94208,-1,901067264,900995584,-1,401Out
6471,131072,2097152,-1,131072,2097152,-1,8,8,-1,8,8,-1,4,4,x,4,4,x,l,l,x,l,l,x,d,d,x,d,d,x,a,a,x,a,a,x,6451228,4101,-1,3548772,4227523,-1,4101,4101,-1,2534096,2534029,-1,0.0006,1,-1,0.7141,0.5994,-1,32808,32808,-1,20272768,20272232,-1,0,0,-1,13547416,13547336,-1,32808,32808,-1,33820184,33819568,-1,401Out
6513,131072,2097152,-1,131072,2097152,-1,16,16,-1,16,16,-1,4,4,x,4,4,x,l,l,x,l,l,x,d,d,x,d,d,x,a,a,x,a,a,x,6451228,2193,-1,3548772,2975946,-1,2193,2193,-1,1698966,1698849,-1,0.0003,1,-1,0.4787,0.5709,-1,35088,35088,-1,27183456,27181584,-1,0,0,-1,20431680,20431472,-1,35088,35088,-1,47615136,47613056,-1,401Out
6555,131072,2097152,-1,131072,2097152,-1,32,32,-1,32,32,-1,4,4,x,4,4,x,l,l,x,l,l,x,d,d,x,d,d,x,a,a,x,a,a,x,6451228,1236,-1,3548772,2348604,-1,1236,1236,-1,1279898,1279796,-1,0.0002,1,-1,0.3607,0.5449,-1,39552,39552,-1,40956736,40953472,-1,0,0,-1,34198592,34198272,-1,39552,39552,-1,75155328,75151744,-1,401Out
6597,131072,2097152,-1,131072,2097152,-1,64,64,-1,64,64,-1,4,4,x,4,4,x,l,l,x,l,l,x,d,d,x,d,d,x,a,a,x,a,a,x,6451228,718,-1,3548772,2034716,-1,718,718,-1,1070225,1070146,-1,0.0001,1,-1,0.3016,0.5259,-1,45952,45952,-1,68494400,68489344,-1,0,0,-1,61727424,61726912,-1,45952,45952,-1,130221824,130216256,-1,401Out
6639,131072,2097152,-1,131072,2097152,-1,128,128,-1,128,128,-1,4,4,x,4,4,x,l,l,x,l,l,x,d,d,x,d,d,x,a,a,x,a,a,x,6451228,435,-1,3548772,1877660,-1,435,435,-1,965307,965244,-1,0.0001,1,-1,0.272,0.5141,-1,55680,55680,-1,123559296,123551232,-1,0,0,-1,116781184,116780288,-1,55680,55680,-1,240340480,240331520,-1,401Out
6681,131072,2097152,-1,131072,2097152,-1,256,256,-1,256,256,-1,4,4,x,4,4,x,l,l,x,l,l,x,d,d,x,d,d,x,a,a,x,a,a,x,6451228,273,-1,3548772,1799091,-1,273,273,-1,912809,912767,-1,0,1,-1,0.2572,0.5073,-1,69888,69888,-1,233679104,233668096,-1,0,0,-1,226888192,226886144,-1,69888,69888,-1,460567296,460554240,-1,401Out
6723,131072,2097152,-1,131072,2097152,-1,512,512,-1,512,512,-1,4,4,x,4,4,x,l,l,x,l,l,x,d,d,x,d,d,x,a,a,x,a,a,x,6451228,184,-1,3548772,1759801,-1,184,184,-1,886560,886523,-1,0,1,-1,0.2498,0.5038,-1,94208,94208,-1,453918720,453899264,-1,0,0,-1,447099392,447095296,-1,94208,94208,-1,901018112,900994560,-1,401Out
6765,131072,2097152,-1,131072,2097152,-1,8,8,-1,8,8,-1,8,8,x,8,8,x,l,l,x,l,l,x,d,d,x,d,d,x,a,a,x,a,a,x,6451228,4101,-1,3548772,4227466,-1,4101,4101,-1,2534046,2534029,-1,0.0006,1,-1,0.7141,0.5994,-1,32808,32808,-1,20272368,20272232,-1,0,0,-1,13547360,13547336,-1,32808,32808,-1,33819728,33819568,-1,401Out
6807,131072,2097152,-1,131072,2097152,-1,16,16,-1,16,16,-1,8,8,x,8,8,x,l,l,x,l,l,x,d,d,x,d,d,x,a,a,x,a,a,x,6451228,2193,-1,3548772,2975889,-1,2193,2193,-1,1698919,1698849,-1,0.0003,1,-1,0.4787,0.5709,-1,35088,35088,-1,27182704,27181584,-1,0,0,-1,20431520,20431472,-1,35088,35088,-1,47614224,47613056,-1,401Out
6849,131072,2097152,-1,131072,2097152,-1,32,32,-1,32,32,-1,8,8,x,8,8,x,l,l,x,l,l,x,d,d,x,d,d,x,a,a,x,a,a,x,6451228,1236,-1,3548772,2348558,-1,1236,1236,-1,1279859,1279796,-1,0.0002,1,-1,0.3606,0.5449,-1,39552,39552,-1,40955488,40953472,-1,0,0,-1,34198368,34198272,-1,39552,39552,-1,75153856,75151744,-1,401Out
6891,131072,2097152,-1,131072,2097152,-1,64,64,-1,64,64,-1,8,8,x,8,8,x,l,l,x,l,l,x,d,d,x,d,d,x,a,a,x,a,a,x,6451228,718,-1,3548772,2034680,-1,718,718,-1,1070194,1070146,-1,0.0001,1,-1,0.3016,0.526,-1,45952,45952,-1,68492416,68489344,-1,0,0,-1,61727104,61726912,-1,45952,45952,-1,130219520,130216256,-1,401Out
6933,131072,2097152,-1,131072,2097152,-1,128,128,-1,128,128,-1,8,8,x,8,8,x,l,l,x,l,l,x,d,d,x,d,d,x,a,a,x,a,a,x,6451228,435,-1,3548772,1877624,-1,435,435,-1,965275,965244,-1,0.0001,1,-1,0.272,0.5141,-1,55680,55680,-1,123555200,123551232,-1,0,0,-1,116780672,116780288,-1,55680,55680,-1,240335872,240331520,-1,401Out
6975,131072,2097152,-1,131072,2097152,-1,256,256,-1,256,256,-1,8,8,x,8,8,x,l,l,x,l,l,x,d,d,x,d,d,x,a,a,x,a,a,x,6451228,273,-1,3548772,1799066,-1,273,273,-1,912788,912767,-1,0,1,-1,0.2572,0.5074,-1,69888,69888,-1,233673728,233668096,-1,0,0,-1,226887168,226886144,-1,69888,69888,-1,460560896,460554240,-1,401Out
7017,131072,2097152,-1,131072,2097152,-1,512,512,-1,512,512,-1,8,8,x,8,8,x,l,l,x,l,l,x,d,d,x,d,d,x,a,a,x,a,a,x,6451228,184,-1,3548772,1759787,-1,184,184,-1,886549,886523,-1,0,1,-1,0.2498,0.5038,-1,94208,94208,-1,453913088,453899264,-1,0,0,-1,447097856,447095296,-1,94208,94208,-1,901010944,900994560,-1,401Out
7059,131072,2097152,-1,131072,2097152,-1,8,8,-1,8,8,-1,1,1,x,1,1,x,l,l,x,l,l,x,d,d,x,d,d,x,a,a,x,a,a,x,7790192,13718,-1,2209808,114739,-1,13718,9589,-1,63888,68726,-1,0.0018,0.699,-1,0.0289,0.599,-1,109744,76712,-1,511104,490856,-1,0,0,-1,406808,400744,-1,109744,76712,-1,917912,891600,-1,403gcc
7101,131072,2097152,-1,131072,2097152,-1,16,16,-1,16,16,-1,1,1,x,1,1,x,l,l,x,l,l,x,d,d,x,d,d,x,a,a,x,a,a,x,7790192,7808,-1,2209808,66751,-1,7808,5214,-1,38180,39600,-1,0.001,0.6678,-1,0.0173,0.5932,-1,124928,83424,-1,610880,564592,-1,0,0,-1,457136,445760,-1,124928,83424,-1,1068016,1010352,-1,403gcc
7143,131072,2097152,-1,131072,2097152,-1,32,32,-1,32,32,-1,1,1,x,1,1,x,l,l,x,l,l,x,d,d,x,d,d,x,a,a,x,a,a,x,7790192,4753,-1,2209808,36228,-1,4753,2958,-1,21408,20282,-1,0.0006,0.6223,-1,0.0097,0.5598,-1,152096,94656,-1,685056,580320,-1,0,0,-1,474240,452512,-1,152096,94656,-1,1159296,1032832,-1,403gcc
7185,131072,2097152,-1,131072,2097152,-1,64,64,-1,64,64,-1,1,1,x,1,1,x,l,l,x,l,l,x,d,d,x,d,d,x,a,a,x,a,a,x,7790192,3809,-1,2209808,20804,-1,3809,1717,-1,12815,10489,-1,0.0005,0.4508,-1,0.0058,0.5042,-1,243776,109888,-1,820160,602112,-1,0,0,-1,511296,461696,-1,243776,109888,-1,1331456,1063808,-1,403gcc
7227,131072,2097152,-1,131072,2097152,-1,128,128,-1,128,128,-1,1,1,x,1,1,x,l,l,x,l,l,x,d,d,x,d,d,x,a,a,x,a,a,x,7790192,4433,-1,2209808,14327,-1,4433,1046,-1,9504,5500,-1,0.0006,0.236,-1,0.0043,0.3839,-1,567424,133888,-1,1216512,632832,-1,0,0,-1,617344,475264,-1,567424,133888,-1,1833856,1108096,-1,403gcc
7269,131072,2097152,-1,131072,2097152,-1,256,256,-1,256,256,-1,1,1,x,1,1,x,l,l,x,l,l,x,d,d,x,d,d,x,a,a,x,a,a,x,7790192,6312,-1,2209808,19283,-1,6312,660,-1,14998,2964,-1,0.0008,0.1046,-1,0.0068,0.1537,-1,1615872,168960,-1,3839488,683008,-1,0,0,-1,1096960,498944,-1,1615872,168960,-1,4936448,1181952,-1,403gcc
7311,131072,2097152,-1,131072,2097152,-1,512,512,-1,512,512,-1,1,1,x,1,1,x,l,l,x,l,l,x,d,d,x,d,d,x,a,a,x,a,a,x,7790192,7829,-1,2209808,21480,-1,7829,437,-1,16564,1733,-1,0.001,0.0558,-1,0.0075,0.0807,-1,4008448,223744,-1,8480768,781312,-1,0,0,-1,2516992,560128,-1,4008448,223744,-1,10997760,1341440,-1,403gcc
7353,131072,2097152,-1,131072,2097152,-1,8,8,-1,8,8,-1,2,2,x,2,2,x,l,l,x,l,l,x,d,d,x,d,d,x,a,a,x,a,a,x,7790192,9584,-1,2209808,112694,-1,9584,9578,-1,62297,61275,-1,0.0012,0.9994,-1,0.0282,0.5437,-1,76672,76624,-1,498376,490112,-1,0,0,-1,403176,399592,-1,76672,76624,-1,901552,889704,-1,403gcc
7395,131072,2097152,-1,131072,2097152,-1,16,16,-1,16,16,-1,2,2,x,2,2,x,l,l,x,l,l,x,d,d,x,d,d,x,a,a,x,a,a,x,7790192,5213,-1,2209808,64034,-1,5213,5208,-1,35971,35199,-1,0.0007,0.999,-1,0.0163,0.5497,-1,83408,83328,-1,575536,562960,-1,0,0,-1,449008,443504,-1,83408,83328,-1,1024544,1006464,-1,403gcc
7437,131072,2097152,-1,131072,2097152,-1,32,32,-1,32,32,-1,2,2,x,2,2,x,l,l,x,l,l,x,d,d,x,d,d,x,a,a,x,a,a,x,7790192,2964,-1,2209808,32908,-1,2964,2954,-1,18639,18069,-1,0.0004,0.9966,-1,0.0084,0.5491,-1,94848,94528,-1,596448,577888,-1,0,0,-1,456608,449664,-1,94848,94528,-1,1053056,1027552,-1,403gcc
7479,131072,2097152,-1,131072,2097152,-1,64,64,-1,64,64,-1,2,2,x,2,2,x,l,l,x,l,l,x,d,d,x,d,d,x,a,a,x,a,a,x,7790192,1775,-1,2209808,17122,-1,1775,1715,-1,9814,9338,-1,0.0002,0.9662,-1,0.0044,0.5454,-1,113600,109760,-1,628096,597184,-1,0,0,-1,467712,457664,-1,113600,109760,-1,1095808,1054848,-1,403gcc
7521,131072,2097152,-1,131072,2097152,-1,128,128,-1,128,128,-1,2,2,x,2,2,x,l,l,x,l,l,x,d,d,x,d,d,x,a,a,x,a,a,x,7790192,2381,-1,2209808,9368,-1,2381,1044,-1,5568,4871,-1,0.0003,0.4385,-1,0.0025,0.52,-1,304768,133632,-1,712704,622976,-1,0,0,-1,486400,468096,-1,304768,133632,-1,1199104,1091072,-1,403gcc
7563,131072,2097152,-1,131072,2097152,-1,256,256,-1,256,256,-1,2,2,x,2,2,x,l,l,x,l,l,x,d,d,x,d,d,x,a,a,x,a,a,x,7790192,2282,-1,2209808,7138,-1,2282,659,-1,5017,2580,-1,0.0003,0.2888,-1,0.0023,0.3614,-1,584192,168704,-1,1284352,660224,-1,0,0,-1,542976,483840,-1,584192,168704,-1,1827328,1144064,-1,403gcc
7605,131072,2097152,-1,131072,2097152,-1,512,512,-1,512,512,-1,2,2,x,2,2,x,l,l,x,l,l,x,d,d,x,d,d,x,a,a,x,a,a,x,7790192,3388,-1,2209808,7695,-1,3388,436,-1,6017,1403,-1,0.0004,0.1287,-1,0.0027,0.1823,-1,1734656,223232,-1,3080704,717824,-1,0,0,-1,859136,509952,-1,1734656,223232,-1,3939840,1227776,-1,403gcc
7647,131072,2097152,-1,131072,2097152,-1,8,8,-1,8,8,-1,4,4,x,4,4,x,l,l,x,l,l,x,d,d,x,d,d,x,a,a,x,a,a,x,7790192,9578,-1,2209808,112473,-1,9578,9578,-1,62133,61263,-1,0.0012,1,-1,0.0281,0.5447,-1,76624,76624,-1,497064,490104,-1,0,0,-1,402720,399592,-1,76624,76624,-1,899784,889696,-1,403gcc
7689,131072,2097152,-1,131072,2097152,-1,16,16,-1,16,16,-1,4,4,x,4,4,x,l,l,x,l,l,x,d,d,x,d,d,x,a,a,x,a,a,x,7790192,5208,-1,2209808,63887,-1,5208,5208,-1,35858,35185,-1,0.0007,1,-1,0.0162,0.5507,-1,83328,83328,-1,573728,562960,-1,0,0,-1,448464,443504,-1,83328,83328,-1,1022192,1006464,-1,403gcc
7731,131072,2097152,-1,131072,2097152,-1,32,32,-1,32,32,-1,4,4,x,4,4,x,l,l,x,l,l,x,d,d,x,d,d,x,a,a,x,a,a,x,7790192,2954,-1,2209808,32730,-1,2954,2954,-1,18497,18059,-1,0.0004,1,-1,0.0084,0.5518,-1,94528,94528,-1,591904,577888,-1,0,0,-1,455456,449664,-1,94528,94528,-1,1047360,1027552,-1,403gcc
7773,131072,2097152,-1,131072,2097152,-1,64,64,-1,64,64,-1,4,4,x,4,4,x,l,l,x,l,l,x,d,d,x,d,d,x,a,a,x,a,a,x,7790192,1715,-1,2209808,16908,-1,1715,1715,-1,9640,9331,-1,0.0002,1,-1,0.0044,0.5519,-1,109760,109760,-1,616960,597184,-1,0,0,-1,465152,457664,-1,109760,109760,-1,1082112,1054848,-1,403gcc
7815,131072,2097152,-1,131072,2097152,-1,128,128,-1,128,128,-1,4,4,x,4,4,x,l,l,x,l,l,x,d,d,x,d,d,x,a,a,x,a,a,x,7790192,1046,-1,2209808,8840,-1,1046,1044,-1,5106,4867,-1,0.0001,0.9981,-1,0.0023,0.5506,-1,133888,133632,-1,653568,622976,-1,0,0,-1,477952,468096,-1,133888,133632,-1,1131520,1091072,-1,403gcc
7857,131072,2097152,-1,131072,2097152,-1,256,256,-1,256,256,-1,4,4,x,4,4,x,l,l,x,l,l,x,d,d,x,d,d,x,a,a,x,a,a,x,7790192,664,-1,2209808,4753,-1,664,659,-1,2801,2579,-1,0.0001,0.9925,-1,0.0013,0.5426,-1,169984,168704,-1,717056,660224,-1,0,0,-1,499712,483840,-1,169984,168704,-1,1216768,1144064,-1,403gcc
7899,131072,2097152,-1,131072,2097152,-1,512,512,-1,512,512,-1,4,4,x,4,4,x,l,l,x,l,l,x,d,d,x,d,d,x,a,a,x,a,a,x,7790192,447,-1,2209808,2691,-1,447,436,-1,1632,1402,-1,0.0001,0.9754,-1,0.0007,0.521,-1,228864,223232,-1,835584,717824,-1,0,0,-1,542208,509440,-1,228864,223232,-1,1377792,1227264,-1,403gcc
7941,131072,2097152,-1,131072,2097152,-1,8,8,-1,8,8,-1,8,8,x,8,8,x,l,l,x,l,l,x,d,d,x,d,d,x,a,a,x,a,a,x,7790192,9578,-1,2209808,112349,-1,9578,9578,-1,62021,61263,-1,0.0012,1,-1,0.0281,0.5453,-1,76624,76624,-1,496168,490104,-1,0,0,-1,402624,399592,-1,76624,76624,-1,898792,889696,-1,403gcc
7983,131072,2097152,-1,131072,2097152,-1,16,16,-1,16,16,-1,8,8,x,8,8,x,l,l,x,l,l,x,d,d,x,d,d,x,a,a,x,a,a,x,7790192,5208,-1,2209808,63784,-1,5208,5208,-1,35766,35185,-1,0.0007,1,-1,0.0162,0.5516,-1,83328,83328,-1,572256,562960,-1,0,0,-1,448288,443504,-1,83328,83328,-1,1020544,1006464,-1,403gcc
8025,131072,2097152,-1,131072,2097152,-1,32,32,-1,32,32,-1,8,8,x,8,8,x,l,l,x,l,l,x,d,d,x,d,d,x,a,a,x,a,a,x,7790192,2954,-1,2209808,32656,-1,2954,2954,-1,18432,18059,-1,0.0004,1,-1,0.0083,0.553,-1,94528,94528,-1,589824,577888,-1,0,0,-1,455168,449664,-1,94528,94528,-1,1044992,1027552,-1,403gcc
8067,131072,2097152,-1,131072,2097152,-1,64,64,-1,64,64,-1,8,8,x,8,8,x,l,l,x,l,l,x,d,d,x,d,d,x,a,a,x,a,a,x,7790192,1715,-1,2209808,16850,-1,1715,1715,-1,9591,9331,-1,0.0002,1,-1,0.0043,0.5538,-1,109760,109760,-1,613824,597184,-1,0,0,-1,464576,457664,-1,109760,109760,-1,1078400,1054848,-1,403gcc
8109,131072,2097152,-1,131072,2097152,-1,128,128,-1,128,128,-1,8,8,x,8,8,x,l,l,x,l,l,x,d,d,x,d,d,x,a,a,x,a,a,x,7790192,1044,-1,2209808,8781,-1,1044,1044,-1,5055,4867,-1,0.0001,1,-1,0.0023,0.5543,-1,133632,133632,-1,647040,622976,-1,0,0,-1,476928,468096,-1,133632,133632,-1,1123968,1091072,-1,403gcc
8151,131072,2097152,-1,131072,2097152,-1,256,256,-1,256,256,-1,8,8,x,8,8,x,l,l,x,l,l,x,d,d,x,d,d,x,a,a,x,a,a,x,7790192,660,-1,2209808,4683,-1,660,659,-1,2738,2579,-1,0.0001,0.9985,-1,0.0012,0.5507,-1,168960,168704,-1,700928,660224,-1,0,0,-1,497920,483840,-1,168960,168704,-1,1198848,1144064,-1,403gcc
8193,131072,2097152,-1,131072,2097152,-1,512,512,-1,512,512,-1,8,8,x,8,8,x,l,l,x,l,l,x,d,d,x,d,d,x,a,a,x,a,a,x,7790192,441,-1,2209808,2593,-1,441,436,-1,1549,1402,-1,0.0001,0.9887,-1,0.0007,0.5407,-1,225792,223232,-1,793088,717824,-1,0,0,-1,534528,509440,-1,225792,223232,-1,1327616,1227264,-1,403gcc
8235,131072,2097152,-1,131072,2097152,-1,8,8,-1,8,8,-1,1,1,x,1,1,x,l,l,x,l,l,x,d,d,x,d,d,x,a,a,x,a,a,x,6495832,7017,-1,3504168,3636367,-1,7017,6442,-1,1825762,2257847,-1,0.0011,0.9181,-1,0.521,0.6209,-1,56136,51536,-1,14606096,14552752,-1,0,0,-1,14484840,14457584,-1,56136,51536,-1,29090936,29010336,-1,410bwaves
8277,131072,2097152,-1,131072,2097152,-1,16,16,-1,16,16,-1,1,1,x,1,1,x,l,l,x,l,l,x,d,d,x,d,d,x,a,a,x,a,a,x,6495832,3849,-1,3504168,2250133,-1,3849,3482,-1,1130471,1132949,-1,0.0006,0.9047,-1,0.3226,0.5035,-1,61584,55712,-1,18087536,14619232,-1,0,0,-1,17914592,14502368,-1,61584,55712,-1,36002128,29121600,-1,410bwaves
8319,131072,2097152,-1,131072,2097152,-1,32,32,-1,32,32,-1,1,1,x,1,1,x,l,l,x,l,l,x,d,d,x,d,d,x,a,a,x,a,a,x,6495832,2259,-1,3504168,1551549,-1,2259,1986,-1,779027,566965,-1,0.0003,0.8792,-1,0.2223,0.3654,-1,72288,63552,-1,24928864,14635744,-1,0,0,-1,24720704,14511136,-1,72288,63552,-1,49649568,29146880,-1,410bwaves
8361,131072,2097152,-1,131072,2097152,-1,64,64,-1,64,64,-1,1,1,x,1,1,x,l,l,x,l,l,x,d,d,x,d,d,x,a,a,x,a,a,x,6495832,1382,-1,3504168,1204356,-1,1382,1163,-1,604505,283919,-1,0.0002,0.8415,-1,0.1725,0.2357,-1,88448,74432,-1,38688320,14661888,-1,0,0,-1,38390464,14528128,-1,88448,74432,-1,77078784,29190016,-1,410bwaves
8403,131072,2097152,-1,131072,2097152,-1,128,128,-1,128,128,-1,1,1,x,1,1,x,l,l,x,l,l,x,d,d,x,d,d,x,a,a,x,a,a,x,6495832,982,-1,3504168,1032924,-1,982,717,-1,518310,142425,-1,0.0002,0.7301,-1,0.1479,0.1379,-1,125696,91776,-1,66343680,14702720,-1,0,0,-1,65870592,14569856,-1,125696,91776,-1,132214272,29272576,-1,410bwaves
8445,131072,2097152,-1,131072,2097152,-1,256,256,-1,256,256,-1,1,1,x,1,1,x,l,l,x,l,l,x,d,d,x,d,d,x,a,a,x,a,a,x,6495832,703,-1,3504168,953618,-1,703,446,-1,478534,71915,-1,0.0001,0.6344,-1,0.1366,0.0754,-1,179968,114176,-1,122504704,14791680,-1,0,0,-1,121621504,14701824,-1,179968,114176,-1,244126208,29493504,-1,410bwaves
8487,131072,2097152,-1,131072,2097152,-1,512,512,-1,512,512,-1,1,1,x,1,1,x,l,l,x,l,l,x,d,d,x,d,d,x,a,a,x,a,a,x,6495832,610,-1,3504168,925181,-1,610,290,-1,464363,37145,-1,0.0001,0.4754,-1,0.1325,0.0401,-1,312320,148480,-1,237753856,15026688,-1,0,0,-1,235938816,15168512,-1,312320,148480,-1,473692672,30195200,-1,410bwaves
8529,131072,2097152,-1,131072,2097152,-1,8,8,-1,8,8,-1,2,2,x,2,2,x,l,l,x,l,l,x,d,d,x,d,d,x,a,a,x,a,a,x,6495832,6446,-1,3504168,3631571,-1,6446,6442,-1,1822612,1824955,-1,0.001,0.9994,-1,0.5201,0.5025,-1,51568,51536,-1,14580896,14549440,-1,0,0,-1,14471672,14454464,-1,51568,51536,-1,29052568,29003904,-1,410bwaves
8571,131072,2097152,-1,131072,2097152,-1,16,16,-1,16,16,-1,2,2,x,2,2,x,l,l,x,l,l,x,d,d,x,d,d,x,a,a,x,a,a,x,6495832,3484,-1,3504168,2457036,-1,3484,3482,-1,1233230,916512,-1,0.0005,0.9994,-1,0.3519,0.373,-1,55744,55712,-1,19731680,14613904,-1,0,0,-1,19580896,14487984,-1,55744,55712,-1,39312576,29101888,-1,410bwaves
8613,131072,2097152,-1,131072,2097152,-1,32,32,-1,32,32,-1,2,2,x,2,2,x,l,l,x,l,l,x,d,d,x,d,d,x,a,a,x,a,a,x,6495832,1989,-1,3504168,1864221,-1,1989,1986,-1,934788,458691,-1,0.0003,0.9985,-1,0.2668,0.246,-1,63648,63552,-1,29913216,14627744,-1,0,0,-1,29741856,14493440,-1,63648,63552,-1,59655072,29121184,-1,410bwaves
8655,131072,2097152,-1,131072,2097152,-1,64,64,-1,64,64,-1,2,2,x,2,2,x,l,l,x,l,l,x,d,d,x,d,d,x,a,a,x,a,a,x,6495832,1165,-1,3504168,1568753,-1,1165,1163,-1,786096,229601,-1,0.0002,0.9983,-1,0.2243,0.1464,-1,74560,74432,-1,50310144,14643904,-1,0,0,-1,50090048,14498816,-1,74560,74432,-1,100400192,29142720,-1,410bwaves
8697,131072,2097152,-1,131072,2097152,-1,128,128,-1,128,128,-1,2,2,x,2,2,x,l,l,x,l,l,x,d,d,x,d,d,x,a,a,x,a,a,x,6495832,723,-1,3504168,1422186,-1,723,717,-1,712299,114964,-1,0.0001,0.9917,-1,0.2033,0.0808,-1,92544,91776,-1,91174272,14664576,-1,0,0,-1,90865536,14504064,-1,92544,91776,-1,182039808,29168640,-1,410bwaves
8739,131072,2097152,-1,131072,2097152,-1,256,256,-1,256,256,-1,2,2,x,2,2,x,l,l,x,l,l,x,d,d,x,d,d,x,a,a,x,a,a,x,6495832,452,-1,3504168,1352123,-1,452,446,-1,677049,57596,-1,0.0001,0.9867,-1,0.1932,0.0426,-1,115712,114176,-1,173324544,14693120,-1,0,0,-1,172818944,14510592,-1,115712,114176,-1,346143488,29203712,-1,410bwaves
8781,131072,2097152,-1,131072,2097152,-1,512,512,-1,512,512,-1,2,2,x,2,2,x,l,l,x,l,l,x,d,d,x,d,d,x,a,a,x,a,a,x,6495832,302,-1,3504168,1322973,-1,302,290,-1,662361,28878,-1,0,0.9603,-1,0.189,0.0218,-1,154624,148480,-1,339128832,14733312,-1,0,0,-1,338233344,14522880,-1,154624,148480,-1,677362176,29256192,-1,410bwaves
8823,131072,2097152,-1,131072,2097152,-1,8,8,-1,8,8,-1,4,4,x,4,4,x,l,l,x,l,l,x,d,d,x,d,d,x,a,a,x,a,a,x,6495832,6442,-1,3504168,3631051,-1,6442,6442,-1,1822256,1818642,-1,0.001,1,-1,0.52,0.5009,-1,51536,51536,-1,14578048,14549136,-1,0,0,-1,14470360,14454192,-1,51536,51536,-1,29048408,29003328,-1,410bwaves
8865,131072,2097152,-1,131072,2097152,-1,16,16,-1,16,16,-1,4,4,x,4,4,x,l,l,x,l,l,x,d,d,x,d,d,x,a,a,x,a,a,x,6495832,3482,-1,3504168,2878679,-1,3482,3482,-1,1443969,913342,-1,0.0005,1,-1,0.4121,0.3173,-1,55712,55712,-1,23103504,14613472,-1,0,0,-1,22955360,14487632,-1,55712,55712,-1,46058864,29101104,-1,410bwaves
8907,131072,2097152,-1,131072,2097152,-1,32,32,-1,32,32,-1,4,4,x,4,4,x,l,l,x,l,l,x,d,d,x,d,d,x,a,a,x,a,a,x,6495832,1986,-1,3504168,2496559,-1,1986,1986,-1,1250898,457100,-1,0.0003,1,-1,0.357,0.1831,-1,63552,63552,-1,40028736,14627200,-1,0,0,-1,39861152,14492992,-1,63552,63552,-1,79889888,29120192,-1,410bwaves
8949,131072,2097152,-1,131072,2097152,-1,64,64,-1,64,64,-1,4,4,x,4,4,x,l,l,x,l,l,x,d,d,x,d,d,x,a,a,x,a,a,x,6495832,1163,-1,3504168,2305929,-1,1163,1163,-1,1154626,228797,-1,0.0002,1,-1,0.3295,0.0992,-1,74432,74432,-1,73896064,14643008,-1,0,0,-1,73683392,14498048,-1,74432,74432,-1,147579456,29141056,-1,410bwaves
8991,131072,2097152,-1,131072,2097152,-1,128,128,-1,128,128,-1,4,4,x,4,4,x,l,l,x,l,l,x,d,d,x,d,d,x,a,a,x,a,a,x,6495832,717,-1,3504168,2210896,-1,717,717,-1,1106609,114553,-1,0.0001,1,-1,0.3158,0.0518,-1,91776,91776,-1,141645952,14662784,-1,0,0,-1,141348736,14502656,-1,91776,91776,-1,282994688,29165440,-1,410bwaves
9033,131072,2097152,-1,131072,2097152,-1,256,256,-1,256,256,-1,4,4,x,4,4,x,l,l,x,l,l,x,d,d,x,d,d,x,a,a,x,a,a,x,6495832,446,-1,3504168,2164868,-1,446,446,-1,1083359,57381,-1,0.0001,1,-1,0.3092,0.0265,-1,114176,114176,-1,277339904,14689536,-1,0,0,-1,276866304,14508032,-1,114176,114176,-1,554206208,29197568,-1,410bwaves
9075,131072,2097152,-1,131072,2097152,-1,512,512,-1,512,512,-1,4,4,x,4,4,x,l,l,x,l,l,x,d,d,x,d,d,x,a,a,x,a,a,x,6495832,290,-1,3504168,2144612,-1,290,290,-1,1073106,28763,-1,0,1,-1,0.3062,0.0134,-1,148480,148480,-1,549430272,14726656,-1,0,0,-1,548611072,14517760,-1,148480,148480,-1,1098041344,29244416,-1,410bwaves
9117,131072,2097152,-1,131072,2097152,-1,8,8,-1,8,8,-1,8,8,x,8,8,x,l,l,x,l,l,x,d,d,x,d,d,x,a,a,x,a,a,x,6495832,6442,-1,3504168,3629323,-1,6442,6442,-1,1821289,1818682,-1,0.001,1,-1,0.5197,0.5011,-1,51536,51536,-1,14570312,14549136,-1,0,0,-1,14464272,14454360,-1,51536,51536,-1,29034584,29003496,-1,410bwaves
9159,131072,2097152,-1,131072,2097152,-1,16,16,-1,16,16,-1,8,8,x,8,8,x,l,l,x,l,l,x,d,d,x,d,d,x,a,a,x,a,a,x,6495832,3482,-1,3504168,1821373,-1,3482,3482,-1,915046,913367,-1,0.0005,1,-1,0.2611,0.5015,-1,55712,55712,-1,14640736,14613472,-1,0,0,-1,14501232,14487952,-1,55712,55712,-1,29141968,29101424,-1,410bwaves
9201,131072,2097152,-1,131072,2097152,-1,32,32,-1,32,32,-1,8,8,x,8,8,x,l,l,x,l,l,x,d,d,x,d,d,x,a,a,x,a,a,x,6495832,1986,-1,3504168,912559,-1,1986,1986,-1,458553,457117,-1,0.0003,1,-1,0.1309,0.5009,-1,63552,63552,-1,14673696,14627200,-1,0,0,-1,14528192,14493376,-1,63552,63552,-1,29201888,29120576,-1,410bwaves
9243,131072,2097152,-1,131072,2097152,-1,64,64,-1,64,64,-1,8,8,x,8,8,x,l,l,x,l,l,x,d,d,x,d,d,x,a,a,x,a,a,x,6495832,1163,-1,3504168,458853,-1,1163,1163,-1,230746,228813,-1,0.0002,1,-1,0.0658,0.4987,-1,74432,74432,-1,14767744,14643008,-1,0,0,-1,14598848,14498880,-1,74432,74432,-1,29366592,29141888,-1,410bwaves
9285,131072,2097152,-1,131072,2097152,-1,128,128,-1,128,128,-1,8,8,x,8,8,x,l,l,x,l,l,x,d,d,x,d,d,x,a,a,x,a,a,x,6495832,717,-1,3504168,235069,-1,717,717,-1,118272,114562,-1,0.0001,1,-1,0.0338,0.4874,-1,91776,91776,-1,15138816,14662784,-1,0,0,-1,14950016,14503552,-1,91776,91776,-1,30088832,29166336,-1,410bwaves
9327,131072,2097152,-1,131072,2097152,-1,256,256,-1,256,256,-1,8,8,x,8,8,x,l,l,x,l,l,x,d,d,x,d,d,x,a,a,x,a,a,x,6495832,446,-1,3504168,129930,-1,446,446,-1,65504,57392,-1,0.0001,1,-1,0.0187,0.4417,-1,114176,114176,-1,16769024,14691328,-1,0,0,-1,16493056,14509056,-1,114176,114176,-1,33262080,29200384,-1,410bwaves
9369,131072,2097152,-1,131072,2097152,-1,512,512,-1,512,512,-1,8,8,x,8,8,x,l,l,x,l,l,x,d,d,x,d,d,x,a,a,x,a,a,x,6495832,290,-1,3504168,92416,-1,290,290,-1,46631,28772,-1,0,1,-1,0.0133,0.3113,-1,148480,148480,-1,23875072,14730240,-1,0,0,-1,23441920,14518784,-1,148480,148480,-1,47316992,29249024,-1,410bwaves
9411,131072,2097152,-1,131072,2097152,-1,8,8,-1,8,8,-1,1,1,x,1,1,x,l,l,x,l,l,x,d,d,x,d,d,x,a,a,x,a,a,x,7495681,11133,-1,2504319,204274,-1,11133,10702,-1,120384,91895,-1,0.0015,0.9613,-1,0.0481,0.4499,-1,89064,85616,-1,963072,730744,-1,0,0,-1,671120,484216,-1,89064,85616,-1,1634192,1214960,-1,450soplex
9453,131072,2097152,-1,131072,2097152,-1,16,16,-1,16,16,-1,1,1,x,1,1,x,l,l,x,l,l,x,d,d,x,d,d,x,a,a,x,a,a,x,7495681,6120,-1,2504319,147145,-1,6120,5777,-1,85064,58959,-1,0.0008,0.944,-1,0.034,0.4007,-1,97920,92432,-1,1361024,937856,-1,0,0,-1,993296,640608,-1,97920,92432,-1,2354320,1578464,-1,450soplex
9495,131072,2097152,-1,131072,2097152,-1,32,32,-1,32,32,-1,1,1,x,1,1,x,l,l,x,l,l,x,d,d,x,d,d,x,a,a,x,a,a,x,7495681,3624,-1,2504319,77905,-1,3624,3296,-1,45802,30952,-1,0.0005,0.9095,-1,0.0183,0.3973,-1,115968,105472,-1,1465664,982432,-1,0,0,-1,1027296,652704,-1,115968,105472,-1,2492960,1635136,-1,450soplex
9537,131072,2097152,-1,131072,2097152,-1,64,64,-1,64,64,-1,1,1,x,1,1,x,l,l,x,l,l,x,d,d,x,d,d,x,a,a,x,a,a,x,7495681,2298,-1,2504319,42396,-1,2298,1962,-1,25581,16450,-1,0.0003,0.8538,-1,0.0102,0.388,-1,147072,125568,-1,1637184,1041152,-1,0,0,-1,1076160,662656,-1,147072,125568,-1,2713344,1703808,-1,450soplex
9579,131072,2097152,-1,131072,2097152,-1,128,128,-1,128,128,-1,1,1,x,1,1,x,l,l,x,l,l,x,d,d,x,d,d,x,a,a,x,a,a,x,7495681,9158,-1,2504319,24503,-1,9158,1229,-1,15355,8919,-1,0.0012,0.1342,-1,0.0061,0.364,-1,1172224,157312,-1,1965440,1123584,-1,0,0,-1,1170944,674944,-1,1172224,157312,-1,3136384,1798528,-1,450soplex
9621,131072,2097152,-1,131072,2097152,-1,256,256,-1,256,256,-1,1,1,x,1,1,x,l,l,x,l,l,x,d,d,x,d,d,x,a,a,x,a,a,x,7495681,8764,-1,2504319,16031,-1,8764,813,-1,10577,4982,-1,0.0012,0.0928,-1,0.0042,0.3108,-1,2243584,208128,-1,2707712,1247488,-1,0,0,-1,1396224,695552,-1,2243584,208128,-1,4103936,1943040,-1,450soplex
9663,131072,2097152,-1,131072,2097152,-1,512,512,-1,512,512,-1,1,1,x,1,1,x,l,l,x,l,l,x,d,d,x,d,d,x,a,a,x,a,a,x,7495681,12411,-1,2504319,15683,-1,12411,549,-1,11693,3046,-1,0.0017,0.0442,-1,0.0047,0.1942,-1,6354432,281088,-1,5986816,1505792,-1,0,0,-1,2042880,738304,-1,6354432,281088,-1,8029696,2244096,-1,450soplex
9705,131072,2097152,-1,131072,2097152,-1,8,8,-1,8,8,-1,2,2,x,2,2,x,l,l,x,l,l,x,d,d,x,d,d,x,a,a,x,a,a,x,7495681,10604,-1,2504319,205345,-1,10604,10566,-1,120309,90857,-1,0.0014,0.9964,-1,0.048,0.4425,-1,84832,84528,-1,962472,726712,-1,0,0,-1,680288,482808,-1,84832,84528,-1,1642760,1209520,-1,450soplex
9747,131072,2097152,-1,131072,2097152,-1,16,16,-1,16,16,-1,2,2,x,2,2,x,l,l,x,l,l,x,d,d,x,d,d,x,a,a,x,a,a,x,7495681,5728,-1,2504319,146665,-1,5728,5700,-1,84197,57999,-1,0.0008,0.9951,-1,0.0336,0.3955,-1,91648,91200,-1,1347152,927744,-1,0,0,-1,999488,636640,-1,91648,91200,-1,2346640,1564384,-1,450soplex
9789,131072,2097152,-1,131072,2097152,-1,32,32,-1,32,32,-1,2,2,x,2,2,x,l,l,x,l,l,x,d,d,x,d,d,x,a,a,x,a,a,x,7495681,3278,-1,2504319,76750,-1,3278,3253,-1,44666,30151,-1,0.0004,0.9924,-1,0.0178,0.3928,-1,104896,104096,-1,1429312,964288,-1,0,0,-1,1026688,646688,-1,104896,104096,-1,2456000,1610976,-1,450soplex
9831,131072,2097152,-1,131072,2097152,-1,64,64,-1,64,64,-1,2,2,x,2,2,x,l,l,x,l,l,x,d,d,x,d,d,x,a,a,x,a,a,x,7495681,1970,-1,2504319,40740,-1,1970,1935,-1,24207,15770,-1,0.0003,0.9822,-1,0.0097,0.3871,-1,126080,123840,-1,1549248,1008384,-1,0,0,-1,1058112,653696,-1,126080,123840,-1,2607360,1662080,-1,450soplex
9873,131072,2097152,-1,131072,2097152,-1,128,128,-1,128,128,-1,2,2,x,2,2,x,l,l,x,l,l,x,d,d,x,d,d,x,a,a,x,a,a,x,7495681,1272,-1,2504319,22255,-1,1272,1212,-1,13611,8297,-1,0.0002,0.9528,-1,0.0054,0.3728,-1,162816,155136,-1,1742208,1060608,-1,0,0,-1,1106432,661248,-1,162816,155136,-1,2848640,1721856,-1,450soplex
9915,131072,2097152,-1,131072,2097152,-1,256,256,-1,256,256,-1,2,2,x,2,2,x,l,l,x,l,l,x,d,d,x,d,d,x,a,a,x,a,a,x,7495681,871,-1,2504319,12801,-1,871,796,-1,8121,4394,-1,0.0001,0.9139,-1,0.0032,0.3433,-1,222976,203776,-1,2078976,1122048,-1,0,0,-1,1198080,672256,-1,222976,203776,-1,3277056,1794304,-1,450soplex
9957,131072,2097152,-1,131072,2097152,-1,512,512,-1,512,512,-1,2,2,x,2,2,x,l,l,x,l,l,x,d,d,x,d,d,x,a,a,x,a,a,x,7495681,618,-1,2504319,8296,-1,618,533,-1,5565,2363,-1,0.0001,0.8625,-1,0.0022,0.2848,-1,316416,272896,-1,2849280,1204736,-1,0,0,-1,1398272,686080,-1,316416,272896,-1,4247552,1890816,-1,450soplex
9999,131072,2097152,-1,131072,2097152,-1,8,8,-1,8,8,-1,4,4,x,4,4,x,l,l,x,l,l,x,d,d,x,d,d,x,a,a,x,a,a,x,7495681,10569,-1,2504319,210229,-1,10569,10566,-1,123054,90798,-1,0.0014,0.9997,-1,0.0491,0.4319,-1,84552,84528,-1,984432,726384,-1,0,0,-1,697400,482744,-1,84552,84528,-1,1681832,1209128,-1,450soplex
10041,131072,2097152,-1,131072,2097152,-1,16,16,-1,16,16,-1,4,4,x,4,4,x,l,l,x,l,l,x,d,d,x,d,d,x,a,a,x,a,a,x,7495681,5703,-1,2504319,150327,-1,5703,5700,-1,85923,57908,-1,0.0008,0.9995,-1,0.0343,0.3852,-1,91248,91200,-1,1374768,926528,-1,0,0,-1,1030464,636368,-1,91248,91200,-1,2405232,1562896,-1,450soplex
10083,131072,2097152,-1,131072,2097152,-1,32,32,-1,32,32,-1,4,4,x,4,4,x,l,l,x,l,l,x,d,d,x,d,d,x,a,a,x,a,a,x,7495681,3258,-1,2504319,77996,-1,3258,3253,-1,45164,30049,-1,0.0004,0.9985,-1,0.018,0.3853,-1,104256,104096,-1,1445248,961568,-1,0,0,-1,1050624,646048,-1,104256,104096,-1,2495872,1607616,-1,450soplex
10125,131072,2097152,-1,131072,2097152,-1,64,64,-1,64,64,-1,4,4,x,4,4,x,l,l,x,l,l,x,d,d,x,d,d,x,a,a,x,a,a,x,7495681,1949,-1,2504319,41043,-1,1949,1935,-1,24238,15660,-1,0.0003,0.9928,-1,0.0097,0.3816,-1,124736,123840,-1,1551232,1002240,-1,0,0,-1,1075520,652288,-1,124736,123840,-1,2626752,1654528,-1,450soplex
10167,131072,2097152,-1,131072,2097152,-1,128,128,-1,128,128,-1,4,4,x,4,4,x,l,l,x,l,l,x,d,d,x,d,d,x,a,a,x,a,a,x,7495681,1234,-1,2504319,22080,-1,1234,1212,-1,13388,8190,-1,0.0002,0.9822,-1,0.0053,0.3709,-1,157952,155136,-1,1713664,1048320,-1,0,0,-1,1112576,658560,-1,157952,155136,-1,2826240,1706880,-1,450soplex
10209,131072,2097152,-1,131072,2097152,-1,256,256,-1,256,256,-1,4,4,x,4,4,x,l,l,x,l,l,x,d,d,x,d,d,x,a,a,x,a,a,x,7495681,833,-1,2504319,12304,-1,833,796,-1,7707,4289,-1,0.0001,0.9556,-1,0.0031,0.3486,-1,213248,203776,-1,1972992,1097984,-1,0,0,-1,1176832,667904,-1,213248,203776,-1,3149824,1765888,-1,450soplex
10251,131072,2097152,-1,131072,2097152,-1,512,512,-1,512,512,-1,4,4,x,4,4,x,l,l,x,l,l,x,d,d,x,d,d,x,a,a,x,a,a,x,7495681,587,-1,2504319,7319,-1,587,533,-1,4783,2249,-1,0.0001,0.908,-1,0.0019,0.3073,-1,300544,272896,-1,2448896,1151488,-1,0,0,-1,1298432,680960,-1,300544,272896,-1,3747328,1832448,-1,450soplex
10293,131072,2097152,-1,131072,2097152,-1,8,8,-1,8,8,-1,8,8,x,8,8,x,l,l,x,l,l,x,d,d,x,d,d,x,a,a,x,a,a,x,7495681,10566,-1,2504319,213867,-1,10566,10566,-1,125905,90797,-1,0.0014,1,-1,0.0503,0.4245,-1,84528,84528,-1,1007240,726376,-1,0,0,-1,703696,482744,-1,84528,84528,-1,1710936,1209120,-1,450soplex
10335,131072,2097152,-1,131072,2097152,-1,16,16,-1,16,16,-1,8,8,x,8,8,x,l,l,x,l,l,x,d,d,x,d,d,x,a,a,x,a,a,x,7495681,5700,-1,2504319,152167,-1,5700,5700,-1,87167,57905,-1,0.0008,1,-1,0.0348,0.3805,-1,91200,91200,-1,1394672,926480,-1,0,0,-1,1040000,636368,-1,91200,91200,-1,2434672,1562848,-1,450soplex
10377,131072,2097152,-1,131072,2097152,-1,32,32,-1,32,32,-1,8,8,x,8,8,x,l,l,x,l,l,x,d,d,x,d,d,x,a,a,x,a,a,x,7495681,3253,-1,2504319,78640,-1,3253,3253,-1,45598,30044,-1,0.0004,1,-1,0.0182,0.382,-1,104096,104096,-1,1459136,961408,-1,0,0,-1,1057344,646048,-1,104096,104096,-1,2516480,1607456,-1,450soplex
10419,131072,2097152,-1,131072,2097152,-1,64,64,-1,64,64,-1,8,8,x,8,8,x,l,l,x,l,l,x,d,d,x,d,d,x,a,a,x,a,a,x,7495681,1937,-1,2504319,41110,-1,1937,1935,-1,24289,15651,-1,0.0003,0.999,-1,0.0097,0.3807,-1,123968,123840,-1,1554496,1001664,-1,0,0,-1,1076544,652288,-1,123968,123840,-1,2631040,1653952,-1,450soplex
10461,131072,2097152,-1,131072,2097152,-1,128,128,-1,128,128,-1,8,8,x,8,8,x,l,l,x,l,l,x,d,d,x,d,d,x,a,a,x,a,a,x,7495681,1219,-1,2504319,21912,-1,1219,1212,-1,13272,8181,-1,0.0002,0.9943,-1,0.0053,0.3734,-1,156032,155136,-1,1698816,1047168,-1,0,0,-1,1105920,658560,-1,156032,155136,-1,2804736,1705728,-1,450soplex
10503,131072,2097152,-1,131072,2097152,-1,256,256,-1,256,256,-1,8,8,x,8,8,x,l,l,x,l,l,x,d,d,x,d,d,x,a,a,x,a,a,x,7495681,814,-1,2504319,12081,-1,814,796,-1,7550,4278,-1,0.0001,0.9779,-1,0.003,0.3541,-1,208384,203776,-1,1932800,1095168,-1,0,0,-1,1159936,667904,-1,208384,203776,-1,3092736,1763072,-1,450soplex
10545,131072,2097152,-1,131072,2097152,-1,512,512,-1,512,512,-1,8,8,x,8,8,x,l,l,x,l,l,x,d,d,x,d,d,x,a,a,x,a,a,x,7495681,577,-1,2504319,7092,-1,577,533,-1,4607,2240,-1,0.0001,0.9237,-1,0.0018,0.3158,-1,295424,272896,-1,2358784,1146880,-1,0,0,-1,1272320,680448,-1,295424,272896,-1,3631104,1827328,-1,450soplex
10587,131072,2097152,-1,131072,2097152,-1,8,8,-1,8,8,-1,1,1,x,1,1,x,l,l,x,l,l,x,d,d,x,d,d,x,a,a,x,a,a,x,8163668,4269,-1,1836332,906059,-1,4269,4269,-1,458432,457778,-1,0.0005,1,-1,0.2496,0.5052,-1,34152,34152,-1,3667456,3661664,-1,0,0,-1,3581016,3579120,-1,34152,34152,-1,7248472,7240784,-1,462libquantum
10629,131072,2097152,-1,131072,2097152,-1,16,16,-1,16,16,-1,1,1,x,1,1,x,l,l,x,l,l,x,d,d,x,d,d,x,a,a,x,a,a,x,8163668,2287,-1,1836332,455595,-1,2287,2287,-1,231436,230704,-1,0.0003,1,-1,0.126,0.5064,-1,36592,36592,-1,3702976,3690528,-1,0,0,-1,3586544,3582352,-1,36592,36592,-1,7289520,7272880,-1,462libquantum
10671,131072,2097152,-1,131072,2097152,-1,32,32,-1,32,32,-1,1,1,x,1,1,x,l,l,x,l,l,x,d,d,x,d,d,x,a,a,x,a,a,x,8163668,1293,-1,1836332,229022,-1,1293,1293,-1,116584,115685,-1,0.0002,1,-1,0.0635,0.5051,-1,41376,41376,-1,3730688,3700640,-1,0,0,-1,3598016,3587008,-1,41376,41376,-1,7328704,7287648,-1,462libquantum
10713,131072,2097152,-1,131072,2097152,-1,64,64,-1,64,64,-1,1,1,x,1,1,x,l,l,x,l,l,x,d,d,x,d,d,x,a,a,x,a,a,x,8163668,755,-1,1836332,116113,-1,755,755,-1,59429,58094,-1,0.0001,1,-1,0.0324,0.5003,-1,48320,48320,-1,3803456,3715200,-1,0,0,-1,3627776,3592320,-1,48320,48320,-1,7431232,7307520,-1,462libquantum
10755,131072,2097152,-1,131072,2097152,-1,128,128,-1,128,128,-1,1,1,x,1,1,x,l,l,x,l,l,x,d,d,x,d,d,x,a,a,x,a,a,x,8163668,459,-1,1836332,60519,-1,459,458,-1,31417,29262,-1,0.0001,0.9978,-1,0.0171,0.4835,-1,58752,58624,-1,4021376,3736576,-1,0,0,-1,3725056,3601408,-1,58752,58624,-1,7746432,7337984,-1,462libquantum
10797,131072,2097152,-1,131072,2097152,-1,256,256,-1,256,256,-1,1,1,x,1,1,x,l,l,x,l,l,x,d,d,x,d,d,x,a,a,x,a,a,x,8163668,291,-1,1836332,34856,-1,291,289,-1,18887,14901,-1,0,0.9931,-1,0.0103,0.4275,-1,74496,73984,-1,4835072,3780864,-1,0,0,-1,4088064,3629312,-1,74496,73984,-1,8923136,7410176,-1,462libquantum
10839,131072,2097152,-1,131072,2097152,-1,512,512,-1,512,512,-1,1,1,x,1,1,x,l,l,x,l,l,x,d,d,x,d,d,x,a,a,x,a,a,x,8163668,198,-1,1836332,26247,-1,198,194,-1,15362,7903,-1,0,0.9798,-1,0.0084,0.3011,-1,101376,99328,-1,7865344,3914240,-1,0,0,-1,5573120,3732480,-1,101376,99328,-1,13438464,7646720,-1,462libquantum
10881,131072,2097152,-1,131072,2097152,-1,8,8,-1,8,8,-1,2,2,x,2,2,x,l,l,x,l,l,x,d,d,x,d,d,x,a,a,x,a,a,x,8163668,4269,-1,1836332,905254,-1,4269,4269,-1,457851,457703,-1,0.0005,1,-1,0.2493,0.5056,-1,34152,34152,-1,3662808,3661520,-1,0,0,-1,3579224,3579104,-1,34152,34152,-1,7242032,7240624,-1,462libquantum
10923,131072,2097152,-1,131072,2097152,-1,16,16,-1,16,16,-1,2,2,x,2,2,x,l,l,x,l,l,x,d,d,x,d,d,x,a,a,x,a,a,x,8163668,2287,-1,1836332,454710,-1,2287,2287,-1,230805,230644,-1,0.0003,1,-1,0.1257,0.5072,-1,36592,36592,-1,3692880,3690144,-1,0,0,-1,3582480,3582256,-1,36592,36592,-1,7275360,7272400,-1,462libquantum
10965,131072,2097152,-1,131072,2097152,-1,32,32,-1,32,32,-1,2,2,x,2,2,x,l,l,x,l,l,x,d,d,x,d,d,x,a,a,x,a,a,x,8163668,1293,-1,1836332,227867,-1,1293,1293,-1,115771,115618,-1,0.0002,1,-1,0.063,0.5074,-1,41376,41376,-1,3704672,3699616,-1,0,0,-1,3587072,3586560,-1,41376,41376,-1,7291744,7286176,-1,462libquantum
11007,131072,2097152,-1,131072,2097152,-1,64,64,-1,64,64,-1,2,2,x,2,2,x,l,l,x,l,l,x,d,d,x,d,d,x,a,a,x,a,a,x,8163668,755,-1,1836332,114239,-1,755,755,-1,58125,57988,-1,0.0001,1,-1,0.0317,0.5076,-1,48320,48320,-1,3720000,3710848,-1,0,0,-1,3591296,3590528,-1,48320,48320,-1,7311296,7301376,-1,462libquantum
11049,131072,2097152,-1,131072,2097152,-1,128,128,-1,128,128,-1,2,2,x,2,2,x,l,l,x,l,l,x,d,d,x,d,d,x,a,a,x,a,a,x,8163668,458,-1,1836332,57330,-1,458,458,-1,29235,29102,-1,0.0001,1,-1,0.0159,0.5076,-1,58624,58624,-1,3742080,3724544,-1,0,0,-1,3596160,3593600,-1,58624,58624,-1,7338240,7318144,-1,462libquantum
11091,131072,2097152,-1,131072,2097152,-1,256,256,-1,256,256,-1,2,2,x,2,2,x,l,l,x,l,l,x,d,d,x,d,d,x,a,a,x,a,a,x,8163668,289,-1,1836332,28856,-1,289,287,-1,14780,14645,-1,0,0.9931,-1,0.008,0.5075,-1,73984,73472,-1,3783680,3748352,-1,0,0,-1,3603456,3597312,-1,73984,73472,-1,7387136,7345664,-1,462libquantum
11133,131072,2097152,-1,131072,2097152,-1,512,512,-1,512,512,-1,2,2,x,2,2,x,l,l,x,l,l,x,d,d,x,d,d,x,a,a,x,a,a,x,8163668,194,-1,1836332,14729,-1,194,192,-1,7626,7401,-1,0,0.9897,-1,0.0042,0.5025,-1,99328,98304,-1,3904512,3786752,-1,0,0,-1,3636736,3604992,-1,99328,98304,-1,7541248,7391744,-1,462libquantum
11175,131072,2097152,-1,131072,2097152,-1,8,8,-1,8,8,-1,4,4,x,4,4,x,l,l,x,l,l,x,d,d,x,d,d,x,a,a,x,a,a,x,8163668,4269,-1,1836332,905131,-1,4269,4269,-1,457743,457691,-1,0.0005,1,-1,0.2493,0.5057,-1,34152,34152,-1,3661944,3661520,-1,0,0,-1,3579104,3579104,-1,34152,34152,-1,7241048,7240624,-1,462libquantum
11217,131072,2097152,-1,131072,2097152,-1,16,16,-1,16,16,-1,4,4,x,4,4,x,l,l,x,l,l,x,d,d,x,d,d,x,a,a,x,a,a,x,8163668,2287,-1,1836332,454612,-1,2287,2287,-1,230721,230634,-1,0.0003,1,-1,0.1256,0.5073,-1,36592,36592,-1,3691536,3690128,-1,0,0,-1,3582256,3582256,-1,36592,36592,-1,7273792,7272384,-1,462libquantum
11259,131072,2097152,-1,131072,2097152,-1,32,32,-1,32,32,-1,4,4,x,4,4,x,l,l,x,l,l,x,d,d,x,d,d,x,a,a,x,a,a,x,8163668,1293,-1,1836332,227782,-1,1293,1293,-1,115701,115613,-1,0.0002,1,-1,0.063,0.5076,-1,41376,41376,-1,3702432,3699584,-1,0,0,-1,3586592,3586560,-1,41376,41376,-1,7289024,7286144,-1,462libquantum
11301,131072,2097152,-1,131072,2097152,-1,64,64,-1,64,64,-1,4,4,x,4,4,x,l,l,x,l,l,x,d,d,x,d,d,x,a,a,x,a,a,x,8163668,755,-1,1836332,114162,-1,755,755,-1,58059,57978,-1,0.0001,1,-1,0.0316,0.5079,-1,48320,48320,-1,3715776,3710528,-1,0,0,-1,3590592,3590400,-1,48320,48320,-1,7306368,7300928,-1,462libquantum
11343,131072,2097152,-1,131072,2097152,-1,128,128,-1,128,128,-1,4,4,x,4,4,x,l,l,x,l,l,x,d,d,x,d,d,x,a,a,x,a,a,x,8163668,458,-1,1836332,57240,-1,458,458,-1,29158,29088,-1,0.0001,1,-1,0.0159,0.5082,-1,58624,58624,-1,3732224,3723136,-1,0,0,-1,3594496,3593472,-1,58624,58624,-1,7326720,7316608,-1,462libquantum
11385,131072,2097152,-1,131072,2097152,-1,256,256,-1,256,256,-1,4,4,x,4,4,x,l,l,x,l,l,x,d,d,x,d,d,x,a,a,x,a,a,x,8163668,287,-1,1836332,28747,-1,287,287,-1,14684,14606,-1,0,1,-1,0.008,0.5081,-1,73472,73472,-1,3759104,3738880,-1,0,0,-1,3600128,3597056,-1,73472,73472,-1,7359232,7335936,-1,462libquantum
11427,131072,2097152,-1,131072,2097152,-1,512,512,-1,512,512,-1,4,4,x,4,4,x,l,l,x,l,l,x,d,d,x,d,d,x,a,a,x,a,a,x,8163668,192,-1,1836332,14512,-1,192,192,-1,7463,7347,-1,0,1,-1,0.0041,0.5063,-1,98304,98304,-1,3821056,3761152,-1,0,0,-1,3609088,3602432,-1,98304,98304,-1,7430144,7363584,-1,462libquantum
11469,131072,2097152,-1,131072,2097152,-1,8,8,-1,8,8,-1,8,8,x,8,8,x,l,l,x,l,l,x,d,d,x,d,d,x,a,a,x,a,a,x,8163668,4269,-1,1836332,905098,-1,4269,4269,-1,457710,457691,-1,0.0005,1,-1,0.2493,0.5057,-1,34152,34152,-1,3661680,3661520,-1,0,0,-1,3579104,3579104,-1,34152,34152,-1,7240784,7240624,-1,462libquantum
11511,131072,2097152,-1,131072,2097152,-1,16,16,-1,16,16,-1,8,8,x,8,8,x,l,l,x,l,l,x,d,d,x,d,d,x,a,a,x,a,a,x,8163668,2287,-1,1836332,454599,-1,2287,2287,-1,230708,230634,-1,0.0003,1,-1,0.1256,0.5073,-1,36592,36592,-1,3691328,3690128,-1,0,0,-1,3582256,3582256,-1,36592,36592,-1,7273584,7272384,-1,462libquantum
11553,131072,2097152,-1,131072,2097152,-1,32,32,-1,32,32,-1,8,8,x,8,8,x,l,l,x,l,l,x,d,d,x,d,d,x,a,a,x,a,a,x,8163668,1293,-1,1836332,227761,-1,1293,1293,-1,115679,115613,-1,0.0002,1,-1,0.063,0.5076,-1,41376,41376,-1,3701728,3699584,-1,0,0,-1,3586624,3586560,-1,41376,41376,-1,7288352,7286144,-1,462libquantum
11595,131072,2097152,-1,131072,2097152,-1,64,64,-1,64,64,-1,8,8,x,8,8,x,l,l,x,l,l,x,d,d,x,d,d,x,a,a,x,a,a,x,8163668,755,-1,1836332,114140,-1,755,755,-1,58037,57978,-1,0.0001,1,-1,0.0316,0.508,-1,48320,48320,-1,3714368,3710528,-1,0,0,-1,3590592,3590400,-1,48320,48320,-1,7304960,7300928,-1,462libquantum
11637,131072,2097152,-1,131072,2097152,-1,128,128,-1,128,128,-1,8,8,x,8,8,x,l,l,x,l,l,x,d,d,x,d,d,x,a,a,x,a,a,x,8163668,458,-1,1836332,57217,-1,458,458,-1,29136,29088,-1,0.0001,1,-1,0.0159,0.5084,-1,58624,58624,-1,3729408,3723136,-1,0,0,-1,3594368,3593472,-1,58624,58624,-1,7323776,7316608,-1,462libquantum
11679,131072,2097152,-1,131072,2097152,-1,256,256,-1,256,256,-1,8,8,x,8,8,x,l,l,x,l,l,x,d,d,x,d,d,x,a,a,x,a,a,x,8163668,287,-1,1836332,28720,-1,287,287,-1,14654,14606,-1,0,1,-1,0.008,0.5086,-1,73472,73472,-1,3751424,3738880,-1,0,0,-1,3600896,3597056,-1,73472,73472,-1,7352320,7335936,-1,462libquantum
11721,131072,2097152,-1,131072,2097152,-1,512,512,-1,512,512,-1,8,8,x,8,8,x,l,l,x,l,l,x,d,d,x,d,d,x,a,a,x,a,a,x,8163668,192,-1,1836332,14444,-1,192,192,-1,7395,7347,-1,0,1,-1,0.004,0.5087,-1,98304,98304,-1,3786240,3761152,-1,0,0,-1,3609088,3602432,-1,98304,98304,-1,7395328,7363584,-1,462libquantum
11763,131072,2097152,-1,131072,2097152,-1,8,8,-1,8,8,-1,1,1,x,1,1,x,l,l,x,l,l,x,d,d,x,d,d,x,a,a,x,a,a,x,7301736,19022,-1,2698264,357349,-1,19022,14314,-1,188270,175137,-1,0.0026,0.7525,-1,0.0698,0.4901,-1,152176,114512,-1,1506160,1382560,-1,0,0,-1,1352632,1260848,-1,152176,114512,-1,2858792,2643408,-1,464h264ref
11805,131072,2097152,-1,131072,2097152,-1,16,16,-1,16,16,-1,1,1,x,1,1,x,l,l,x,l,l,x,d,d,x,d,d,x,a,a,x,a,a,x,7301736,10214,-1,2698264,280114,-1,10214,7652,-1,145888,133869,-1,0.0014,0.7492,-1,0.0541,0.4779,-1,163424,122432,-1,2334208,2111184,-1,0,0,-1,2147616,1974208,-1,163424,122432,-1,4481824,4085392,-1,464h264ref
11847,131072,2097152,-1,131072,2097152,-1,32,32,-1,32,32,-1,1,1,x,1,1,x,l,l,x,l,l,x,d,d,x,d,d,x,a,a,x,a,a,x,7301736,5818,-1,2698264,146576,-1,5818,4264,-1,77118,69374,-1,0.0008,0.7329,-1,0.0286,0.4733,-1,186176,136448,-1,2467776,2180160,-1,0,0,-1,2222656,2029024,-1,186176,136448,-1,4690432,4209184,-1,464h264ref
11889,131072,2097152,-1,131072,2097152,-1,64,64,-1,64,64,-1,1,1,x,1,1,x,l,l,x,l,l,x,d,d,x,d,d,x,a,a,x,a,a,x,7301736,3438,-1,2698264,79658,-1,3438,2464,-1,42573,36792,-1,0.0005,0.7167,-1,0.0158,0.4619,-1,220032,157696,-1,2724672,2298048,-1,0,0,-1,2373440,2127488,-1,220032,157696,-1,5098112,4425536,-1,464h264ref
11931,131072,2097152,-1,131072,2097152,-1,128,128,-1,128,128,-1,1,1,x,1,1,x,l,l,x,l,l,x,d,d,x,d,d,x,a,a,x,a,a,x,7301736,2097,-1,2698264,49347,-1,2097,1467,-1,27709,20288,-1,0.0003,0.6996,-1,0.0103,0.4111,-1,268416,187776,-1,3546752,2509568,-1,0,0,-1,2769664,2316544,-1,268416,187776,-1,6316416,4826112,-1,464h264ref
11973,131072,2097152,-1,131072,2097152,-1,256,256,-1,256,256,-1,1,1,x,1,1,x,l,l,x,l,l,x,d,d,x,d,d,x,a,a,x,a,a,x,7301736,1391,-1,2698264,34645,-1,1391,890,-1,20475,12917,-1,0.0002,0.6398,-1,0.0076,0.3728,-1,356096,227840,-1,5241600,2953984,-1,0,0,-1,3627520,2719232,-1,356096,227840,-1,8869120,5673216,-1,464h264ref
12015,131072,2097152,-1,131072,2097152,-1,512,512,-1,512,512,-1,1,1,x,1,1,x,l,l,x,l,l,x,d,d,x,d,d,x,a,a,x,a,a,x,7301736,1391,-1,2698264,33047,-1,1391,563,-1,21003,9147,-1,0.0002,0.4047,-1,0.0078,0.2768,-1,712192,288256,-1,10753536,3772928,-1,0,0,-1,6166528,3485184,-1,712192,288256,-1,16920064,7258112,-1,464h264ref
12057,131072,2097152,-1,131072,2097152,-1,8,8,-1,8,8,-1,2,2,x,2,2,x,l,l,x,l,l,x,d,d,x,d,d,x,a,a,x,a,a,x,7301736,15202,-1,2698264,346188,-1,15202,14310,-1,181720,172449,-1,0.0021,0.9413,-1,0.0673,0.4981,-1,121616,114480,-1,1453760,1378744,-1,0,0,-1,1315744,1257664,-1,121616,114480,-1,2769504,2636408,-1,464h264ref
12099,131072,2097152,-1,131072,2097152,-1,16,16,-1,16,16,-1,2,2,x,2,2,x,l,l,x,l,l,x,d,d,x,d,d,x,a,a,x,a,a,x,7301736,8183,-1,2698264,270305,-1,8183,7649,-1,140185,131388,-1,0.0011,0.9347,-1,0.052,0.4861,-1,130928,122384,-1,2242960,2102048,-1,0,0,-1,2081920,1966912,-1,130928,122384,-1,4324880,4068960,-1,464h264ref
12141,131072,2097152,-1,131072,2097152,-1,32,32,-1,32,32,-1,2,2,x,2,2,x,l,l,x,l,l,x,d,d,x,d,d,x,a,a,x,a,a,x,7301736,4625,-1,2698264,140277,-1,4625,4261,-1,73125,67650,-1,0.0006,0.9213,-1,0.0271,0.4823,-1,148000,136352,-1,2340000,2164352,-1,0,0,-1,2148864,2017344,-1,148000,136352,-1,4488864,4181696,-1,464h264ref
12183,131072,2097152,-1,131072,2097152,-1,64,64,-1,64,64,-1,2,2,x,2,2,x,l,l,x,l,l,x,d,d,x,d,d,x,a,a,x,a,a,x,7301736,2749,-1,2698264,74293,-1,2749,2462,-1,38935,35432,-1,0.0004,0.8956,-1,0.0144,0.4769,-1,175936,157568,-1,2491840,2267008,-1,0,0,-1,2262912,2104576,-1,175936,157568,-1,4754752,4371584,-1,464h264ref
12225,131072,2097152,-1,131072,2097152,-1,128,128,-1,128,128,-1,2,2,x,2,2,x,l,l,x,l,l,x,d,d,x,d,d,x,a,a,x,a,a,x,7301736,1675,-1,2698264,41081,-1,1675,1464,-1,21694,19186,-1,0.0002,0.874,-1,0.008,0.467,-1,214400,187392,-1,2776832,2454144,-1,0,0,-1,2481536,2273536,-1,214400,187392,-1,5258368,4727680,-1,464h264ref
12267,131072,2097152,-1,131072,2097152,-1,256,256,-1,256,256,-1,2,2,x,2,2,x,l,l,x,l,l,x,d,d,x,d,d,x,a,a,x,a,a,x,7301736,1039,-1,2698264,24662,-1,1039,888,-1,13215,11064,-1,0.0001,0.8547,-1,0.0049,0.4486,-1,265984,227328,-1,3383040,2829568,-1,0,0,-1,2930432,2622208,-1,265984,227328,-1,6313472,5451776,-1,464h264ref
12309,131072,2097152,-1,131072,2097152,-1,512,512,-1,512,512,-1,2,2,x,2,2,x,l,l,x,l,l,x,d,d,x,d,d,x,a,a,x,a,a,x,7301736,691,-1,2698264,16167,-1,691,562,-1,8775,7059,-1,0.0001,0.8133,-1,0.0033,0.4366,-1,353792,287744,-1,4492800,3585536,-1,0,0,-1,3784704,3338240,-1,353792,287744,-1,8277504,6923776,-1,464h264ref
12351,131072,2097152,-1,131072,2097152,-1,8,8,-1,8,8,-1,4,4,x,4,4,x,l,l,x,l,l,x,d,d,x,d,d,x,a,a,x,a,a,x,7301736,14327,-1,2698264,348694,-1,14327,14310,-1,182903,172143,-1,0.002,0.9988,-1,0.0678,0.4937,-1,114616,114480,-1,1463224,1377144,-1,0,0,-1,1326328,1256440,-1,114616,114480,-1,2789552,2633584,-1,464h264ref
12393,131072,2097152,-1,131072,2097152,-1,16,16,-1,16,16,-1,4,4,x,4,4,x,l,l,x,l,l,x,d,d,x,d,d,x,a,a,x,a,a,x,7301736,7662,-1,2698264,271845,-1,7662,7649,-1,140916,131186,-1,0.001,0.9983,-1,0.0522,0.4826,-1,122592,122384,-1,2254656,2098976,-1,0,0,-1,2094864,1964496,-1,122592,122384,-1,4349520,4063472,-1,464h264ref
12435,131072,2097152,-1,131072,2097152,-1,32,32,-1,32,32,-1,4,4,x,4,4,x,l,l,x,l,l,x,d,d,x,d,d,x,a,a,x,a,a,x,7301736,4278,-1,2698264,140532,-1,4278,4261,-1,73181,67528,-1,0.0006,0.996,-1,0.0271,0.4805,-1,136896,136352,-1,2341792,2160896,-1,0,0,-1,2155232,2014880,-1,136896,136352,-1,4497024,4175776,-1,464h264ref
12477,131072,2097152,-1,131072,2097152,-1,64,64,-1,64,64,-1,4,4,x,4,4,x,l,l,x,l,l,x,d,d,x,d,d,x,a,a,x,a,a,x,7301736,2479,-1,2698264,74129,-1,2479,2462,-1,38754,35363,-1,0.0003,0.9931,-1,0.0144,0.477,-1,158656,157568,-1,2480256,2263232,-1,0,0,-1,2264000,2102336,-1,158656,157568,-1,4744256,4365568,-1,464h264ref
12519,131072,2097152,-1,131072,2097152,-1,128,128,-1,128,128,-1,4,4,x,4,4,x,l,l,x,l,l,x,d,d,x,d,d,x,a,a,x,a,a,x,7301736,1487,-1,2698264,40716,-1,1487,1464,-1,21386,19145,-1,0.0002,0.9845,-1,0.0079,0.4702,-1,190336,187392,-1,2737408,2450432,-1,0,0,-1,2474240,2271872,-1,190336,187392,-1,5211648,4722304,-1,464h264ref
12561,131072,2097152,-1,131072,2097152,-1,256,256,-1,256,256,-1,4,4,x,4,4,x,l,l,x,l,l,x,d,d,x,d,d,x,a,a,x,a,a,x,7301736,915,-1,2698264,24104,-1,915,888,-1,12766,10992,-1,0.0001,0.9705,-1,0.0047,0.456,-1,234240,227328,-1,3268096,2813184,-1,0,0,-1,2902528,2611200,-1,234240,227328,-1,6170624,5424384,-1,464h264ref
12603,131072,2097152,-1,131072,2097152,-1,512,512,-1,512,512,-1,4,4,x,4,4,x,l,l,x,l,l,x,d,d,x,d,d,x,a,a,x,a,a,x,7301736,613,-1,2698264,15510,-1,613,562,-1,8276,6980,-1,0.0001,0.9168,-1,0.0031,0.45,-1,313856,287744,-1,4237312,3571200,-1,0,0,-1,3703808,3328000,-1,313856,287744,-1,7941120,6899200,-1,464h264ref
12645,131072,2097152,-1,131072,2097152,-1,8,8,-1,8,8,-1,8,8,x,8,8,x,l,l,x,l,l,x,d,d,x,d,d,x,a,a,x,a,a,x,7301736,14310,-1,2698264,349857,-1,14310,14310,-1,183457,172120,-1,0.002,1,-1,0.068,0.492,-1,114480,114480,-1,1467656,1376960,-1,0,0,-1,1331200,1256400,-1,114480,114480,-1,2798856,2633360,-1,464h264ref
12687,131072,2097152,-1,131072,2097152,-1,16,16,-1,16,16,-1,8,8,x,8,8,x,l,l,x,l,l,x,d,d,x,d,d,x,a,a,x,a,a,x,7301736,7649,-1,2698264,272629,-1,7649,7649,-1,141236,131144,-1,0.001,1,-1,0.0523,0.481,-1,122384,122384,-1,2259776,2098304,-1,0,0,-1,2102288,1964320,-1,122384,122384,-1,4362064,4062624,-1,464h264ref
12729,131072,2097152,-1,131072,2097152,-1,32,32,-1,32,32,-1,8,8,x,8,8,x,l,l,x,l,l,x,d,d,x,d,d,x,a,a,x,a,a,x,7301736,4261,-1,2698264,140814,-1,4261,4261,-1,73274,67494,-1,0.0006,1,-1,0.0272,0.4793,-1,136352,136352,-1,2344768,2159808,-1,0,0,-1,2161280,2014656,-1,136352,136352,-1,4506048,4174464,-1,464h264ref
12771,131072,2097152,-1,131072,2097152,-1,64,64,-1,64,64,-1,8,8,x,8,8,x,l,l,x,l,l,x,d,d,x,d,d,x,a,a,x,a,a,x,7301736,2462,-1,2698264,74171,-1,2462,2462,-1,38738,35341,-1,0.0003,1,-1,0.0144,0.4765,-1,157568,157568,-1,2479232,2261824,-1,0,0,-1,2267712,2102144,-1,157568,157568,-1,4746944,4363968,-1,464h264ref
12813,131072,2097152,-1,131072,2097152,-1,128,128,-1,128,128,-1,8,8,x,8,8,x,l,l,x,l,l,x,d,d,x,d,d,x,a,a,x,a,a,x,7301736,1469,-1,2698264,40527,-1,1469,1464,-1,21240,19151,-1,0.0002,0.9966,-1,0.0079,0.4725,-1,188032,187392,-1,2718720,2451328,-1,0,0,-1,2468736,2274304,-1,188032,187392,-1,5187456,4725632,-1,464h264ref
12855,131072,2097152,-1,131072,2097152,-1,256,256,-1,256,256,-1,8,8,x,8,8,x,l,l,x,l,l,x,d,d,x,d,d,x,a,a,x,a,a,x,7301736,904,-1,2698264,23718,-1,904,888,-1,12504,11028,-1,0.0001,0.9823,-1,0.0046,0.465,-1,231424,227328,-1,3201024,2822656,-1,0,0,-1,2870784,2621184,-1,231424,227328,-1,6071808,5443840,-1,464h264ref
12897,131072,2097152,-1,131072,2097152,-1,512,512,-1,512,512,-1,8,8,x,8,8,x,l,l,x,l,l,x,d,d,x,d,d,x,a,a,x,a,a,x,7301736,610,-1,2698264,15239,-1,610,562,-1,8092,6995,-1,0.0001,0.9213,-1,0.003,0.459,-1,312320,287744,-1,4143104,3579392,-1,0,0,-1,3659264,3342336,-1,312320,287744,-1,7802368,6921728,-1,464h264ref
12939,131072,2097152,-1,131072,2097152,-1,8,8,-1,8,8,-1,1,1,x,1,1,x,l,l,x,l,l,x,d,d,x,d,d,x,a,a,x,a,a,x,6837979,4488,-1,3162021,6216101,-1,4488,4446,-1,3113269,3115015,-1,0.0007,0.9906,-1,0.9846,0.5011,-1,35904,35568,-1,24906152,24904408,-1,0,0,-1,24822656,24822136,-1,35904,35568,-1,49728808,49726544,-1,470lbm
12981,131072,2097152,-1,131072,2097152,-1,16,16,-1,16,16,-1,1,1,x,1,1,x,l,l,x,l,l,x,d,d,x,d,d,x,a,a,x,a,a,x,6837979,2422,-1,3162021,3110201,-1,2422,2398,-1,1558556,1559156,-1,0.0004,0.9901,-1,0.4929,0.5013,-1,38752,38368,-1,24936896,24933024,-1,0,0,-1,24826320,24825296,-1,38752,38368,-1,49763216,49758320,-1,470lbm
13023,131072,2097152,-1,131072,2097152,-1,32,32,-1,32,32,-1,1,1,x,1,1,x,l,l,x,l,l,x,d,d,x,d,d,x,a,a,x,a,a,x,6837979,1377,-1,3162021,1555678,-1,1377,1362,-1,779696,779912,-1,0.0002,0.9891,-1,0.2466,0.5013,-1,44064,43584,-1,24950272,24942784,-1,0,0,-1,24831424,24829632,-1,44064,43584,-1,49781696,49772416,-1,470lbm
13065,131072,2097152,-1,131072,2097152,-1,64,64,-1,64,64,-1,1,1,x,1,1,x,l,l,x,l,l,x,d,d,x,d,d,x,a,a,x,a,a,x,6837979,818,-1,3162021,778289,-1,818,807,-1,390191,390142,-1,0.0001,0.9866,-1,0.1234,0.5013,-1,52352,51648,-1,24972224,24955648,-1,0,0,-1,24838272,24833664,-1,52352,51648,-1,49810496,49789312,-1,470lbm
13107,131072,2097152,-1,131072,2097152,-1,128,128,-1,128,128,-1,1,1,x,1,1,x,l,l,x,l,l,x,d,d,x,d,d,x,a,a,x,a,a,x,6837979,507,-1,3162021,389443,-1,507,494,-1,195331,195177,-1,0.0001,0.9744,-1,0.0618,0.5012,-1,64896,63232,-1,25002368,24970880,-1,0,0,-1,24846336,24837248,-1,64896,63232,-1,49848704,49808128,-1,470lbm
13149,131072,2097152,-1,131072,2097152,-1,256,256,-1,256,256,-1,1,1,x,1,1,x,l,l,x,l,l,x,d,d,x,d,d,x,a,a,x,a,a,x,6837979,322,-1,3162021,194965,-1,322,311,-1,97859,97662,-1,0,0.9658,-1,0.0309,0.5009,-1,82432,79616,-1,25051904,24989696,-1,0,0,-1,24859136,24841472,-1,82432,79616,-1,49911040,49831168,-1,470lbm
13191,131072,2097152,-1,131072,2097152,-1,512,512,-1,512,512,-1,1,1,x,1,1,x,l,l,x,l,l,x,d,d,x,d,d,x,a,a,x,a,a,x,6837979,217,-1,3162021,97814,-1,217,208,-1,49179,48894,-1,0,0.9585,-1,0.0156,0.4999,-1,111104,106496,-1,25179648,25021440,-1,0,0,-1,24901120,24847872,-1,111104,106496,-1,50080768,49869312,-1,470lbm
13233,131072,2097152,-1,131072,2097152,-1,8,8,-1,8,8,-1,2,2,x,2,2,x,l,l,x,l,l,x,d,d,x,d,d,x,a,a,x,a,a,x,6837979,4446,-1,3162021,6215880,-1,4446,4446,-1,3113102,3113048,-1,0.0007,1,-1,0.9845,0.5008,-1,35568,35568,-1,24904816,24904384,-1,0,0,-1,24822224,24822136,-1,35568,35568,-1,49727040,49726520,-1,470lbm
13275,131072,2097152,-1,131072,2097152,-1,16,16,-1,16,16,-1,2,2,x,2,2,x,l,l,x,l,l,x,d,d,x,d,d,x,a,a,x,a,a,x,6837979,2398,-1,3162021,3109969,-1,2398,2398,-1,1558380,1558308,-1,0.0004,1,-1,0.4928,0.5011,-1,38368,38368,-1,24934080,24932928,-1,0,0,-1,24825424,24825248,-1,38368,38368,-1,49759504,49758176,-1,470lbm
13317,131072,2097152,-1,131072,2097152,-1,32,32,-1,32,32,-1,2,2,x,2,2,x,l,l,x,l,l,x,d,d,x,d,d,x,a,a,x,a,a,x,6837979,1362,-1,3162021,1555477,-1,1362,1362,-1,779541,779454,-1,0.0002,1,-1,0.2465,0.5011,-1,43584,43584,-1,24945312,24942528,-1,0,0,-1,24829952,24829504,-1,43584,43584,-1,49775264,49772032,-1,470lbm
13359,131072,2097152,-1,131072,2097152,-1,64,64,-1,64,64,-1,2,2,x,2,2,x,l,l,x,l,l,x,d,d,x,d,d,x,a,a,x,a,a,x,6837979,807,-1,3162021,778033,-1,807,807,-1,389996,389898,-1,0.0001,1,-1,0.1233,0.5011,-1,51648,51648,-1,24959744,24953472,-1,0,0,-1,24834368,24833344,-1,51648,51648,-1,49794112,49786816,-1,470lbm
13401,131072,2097152,-1,131072,2097152,-1,128,128,-1,128,128,-1,2,2,x,2,2,x,l,l,x,l,l,x,d,d,x,d,d,x,a,a,x,a,a,x,6837979,494,-1,3162021,389194,-1,494,494,-1,195140,195049,-1,0.0001,1,-1,0.0617,0.5012,-1,63232,63232,-1,24977920,24966272,-1,0,0,-1,24838912,24836480,-1,63232,63232,-1,49816832,49802752,-1,470lbm
13443,131072,2097152,-1,131072,2097152,-1,256,256,-1,256,256,-1,2,2,x,2,2,x,l,l,x,l,l,x,d,d,x,d,d,x,a,a,x,a,a,x,6837979,311,-1,3162021,194730,-1,311,311,-1,97675,97586,-1,0,1,-1,0.0309,0.5011,-1,79616,79616,-1,25004800,24982016,-1,0,0,-1,24846080,24839936,-1,79616,79616,-1,49850880,49821952,-1,470lbm
13485,131072,2097152,-1,131072,2097152,-1,512,512,-1,512,512,-1,2,2,x,2,2,x,l,l,x,l,l,x,d,d,x,d,d,x,a,a,x,a,a,x,6837979,209,-1,3162021,97475,-1,209,208,-1,48925,48837,-1,0,0.9952,-1,0.0155,0.501,-1,107008,106496,-1,25049600,25004544,-1,0,0,-1,24857600,24845312,-1,107008,106496,-1,49907200,49849856,-1,470lbm
13527,131072,2097152,-1,131072,2097152,-1,8,8,-1,8,8,-1,4,4,x,4,4,x,l,l,x,l,l,x,d,d,x,d,d,x,a,a,x,a,a,x,6837979,4446,-1,3162021,6215863,-1,4446,4446,-1,3113095,3113048,-1,0.0007,1,-1,0.9845,0.5008,-1,35568,35568,-1,24904760,24904384,-1,0,0,-1,24822144,24822136,-1,35568,35568,-1,49726904,49726520,-1,470lbm
13569,131072,2097152,-1,131072,2097152,-1,16,16,-1,16,16,-1,4,4,x,4,4,x,l,l,x,l,l,x,d,d,x,d,d,x,a,a,x,a,a,x,6837979,2398,-1,3162021,3109943,-1,2398,2398,-1,1558363,1558308,-1,0.0004,1,-1,0.4928,0.5011,-1,38368,38368,-1,24933808,24932928,-1,0,0,-1,24825280,24825248,-1,38368,38368,-1,49759088,49758176,-1,470lbm
13611,131072,2097152,-1,131072,2097152,-1,32,32,-1,32,32,-1,4,4,x,4,4,x,l,l,x,l,l,x,d,d,x,d,d,x,a,a,x,a,a,x,6837979,1362,-1,3162021,1555428,-1,1362,1362,-1,779504,779454,-1,0.0002,1,-1,0.2465,0.5011,-1,43584,43584,-1,24944128,24942528,-1,0,0,-1,24829568,24829504,-1,43584,43584,-1,49773696,49772032,-1,470lbm
13653,131072,2097152,-1,131072,2097152,-1,64,64,-1,64,64,-1,4,4,x,4,4,x,l,l,x,l,l,x,d,d,x,d,d,x,a,a,x,a,a,x,6837979,807,-1,3162021,777977,-1,807,807,-1,389950,389898,-1,0.0001,1,-1,0.1233,0.5012,-1,51648,51648,-1,24956800,24953472,-1,0,0,-1,24833728,24833344,-1,51648,51648,-1,49790528,49786816,-1,470lbm
13695,131072,2097152,-1,131072,2097152,-1,128,128,-1,128,128,-1,4,4,x,4,4,x,l,l,x,l,l,x,d,d,x,d,d,x,a,a,x,a,a,x,6837979,494,-1,3162021,389136,-1,494,494,-1,195094,195049,-1,0.0001,1,-1,0.0617,0.5012,-1,63232,63232,-1,24972032,24966272,-1,0,0,-1,24837376,24836480,-1,63232,63232,-1,49809408,49802752,-1,470lbm
13737,131072,2097152,-1,131072,2097152,-1,256,256,-1,256,256,-1,4,4,x,4,4,x,l,l,x,l,l,x,d,d,x,d,d,x,a,a,x,a,a,x,6837979,311,-1,3162021,194679,-1,311,311,-1,97636,97586,-1,0,1,-1,0.0309,0.5013,-1,79616,79616,-1,24994816,24982016,-1,0,0,-1,24843008,24839936,-1,79616,79616,-1,49837824,49821952,-1,470lbm
13779,131072,2097152,-1,131072,2097152,-1,512,512,-1,512,512,-1,4,4,x,4,4,x,l,l,x,l,l,x,d,d,x,d,d,x,a,a,x,a,a,x,6837979,208,-1,3162021,97432,-1,208,208,-1,48890,48837,-1,0,1,-1,0.0155,0.5012,-1,106496,106496,-1,25031680,25004544,-1,0,0,-1,24853504,24845312,-1,106496,106496,-1,49885184,49849856,-1,470lbm
13821,131072,2097152,-1,131072,2097152,-1,8,8,-1,8,8,-1,8,8,x,8,8,x,l,l,x,l,l,x,d,d,x,d,d,x,a,a,x,a,a,x,6837979,4446,-1,3162021,6215835,-1,4446,4446,-1,3113068,3113048,-1,0.0007,1,-1,0.9845,0.5008,-1,35568,35568,-1,24904544,24904384,-1,0,0,-1,24822136,24822136,-1,35568,35568,-1,49726680,49726520,-1,470lbm
13863,131072,2097152,-1,131072,2097152,-1,16,16,-1,16,16,-1,8,8,x,8,8,x,l,l,x,l,l,x,d,d,x,d,d,x,a,a,x,a,a,x,6837979,2398,-1,3162021,3109949,-1,2398,2398,-1,1558371,1558308,-1,0.0004,1,-1,0.4928,0.5011,-1,38368,38368,-1,24933936,24932928,-1,0,0,-1,24825248,24825248,-1,38368,38368,-1,49759184,49758176,-1,470lbm
13905,131072,2097152,-1,131072,2097152,-1,32,32,-1,32,32,-1,8,8,x,8,8,x,l,l,x,l,l,x,d,d,x,d,d,x,a,a,x,a,a,x,6837979,1362,-1,3162021,1555428,-1,1362,1362,-1,779506,779454,-1,0.0002,1,-1,0.2465,0.5011,-1,43584,43584,-1,24944192,24942528,-1,0,0,-1,24829504,24829504,-1,43584,43584,-1,49773696,49772032,-1,470lbm
13947,131072,2097152,-1,131072,2097152,-1,64,64,-1,64,64,-1,8,8,x,8,8,x,l,l,x,l,l,x,d,d,x,d,d,x,a,a,x,a,a,x,6837979,807,-1,3162021,777960,-1,807,807,-1,389939,389898,-1,0.0001,1,-1,0.1233,0.5012,-1,51648,51648,-1,24956096,24953472,-1,0,0,-1,24833344,24833344,-1,51648,51648,-1,49789440,49786816,-1,470lbm
13989,131072,2097152,-1,131072,2097152,-1,128,128,-1,128,128,-1,8,8,x,8,8,x,l,l,x,l,l,x,d,d,x,d,d,x,a,a,x,a,a,x,6837979,494,-1,3162021,389121,-1,494,494,-1,195085,195049,-1,0.0001,1,-1,0.0617,0.5013,-1,63232,63232,-1,24970880,24966272,-1,0,0,-1,24836608,24836480,-1,63232,63232,-1,49807488,49802752,-1,470lbm
14031,131072,2097152,-1,131072,2097152,-1,256,256,-1,256,256,-1,8,8,x,8,8,x,l,l,x,l,l,x,d,d,x,d,d,x,a,a,x,a,a,x,6837979,311,-1,3162021,194654,-1,311,311,-1,97619,97586,-1,0,1,-1,0.0309,0.5013,-1,79616,79616,-1,24990464,24982016,-1,0,0,-1,24840960,24839936,-1,79616,79616,-1,49831424,49821952,-1,470lbm
14073,131072,2097152,-1,131072,2097152,-1,512,512,-1,512,512,-1,8,8,x,8,8,x,l,l,x,l,l,x,d,d,x,d,d,x,a,a,x,a,a,x,6837979,208,-1,3162021,97418,-1,208,208,-1,48880,48837,-1,0,1,-1,0.0155,0.5013,-1,106496,106496,-1,25026560,25004544,-1,0,0,-1,24851456,24845312,-1,106496,106496,-1,49878016,49849856,-1,470lbm
14115,131072,2097152,-1,131072,2097152,-1,8,8,-1,8,8,-1,1,1,x,1,1,x,l,l,x,l,l,x,d,d,x,d,d,x,a,a,x,a,a,x,7129127,7557,-1,2870873,3467735,-1,7557,7461,-1,1775745,1777044,-1,0.0011,0.9873,-1,0.6185,0.5125,-1,60456,59688,-1,14205960,14188496,-1,0,0,-1,13535920,13533440,-1,60456,59688,-1,27741880,27721936,-1,473astar
14157,131072,2097152,-1,131072,2097152,-1,16,16,-1,16,16,-1,1,1,x,1,1,x,l,l,x,l,l,x,d,d,x,d,d,x,a,a,x,a,a,x,7129127,4078,-1,2870873,3316294,-1,4078,4012,-1,1681021,1681026,-1,0.0006,0.9838,-1,0.5855,0.5069,-1,65248,64192,-1,26896336,26859712,-1,0,0,-1,26164368,26157936,-1,65248,64192,-1,53060704,53017648,-1,473astar
14199,131072,2097152,-1,131072,2097152,-1,32,32,-1,32,32,-1,1,1,x,1,1,x,l,l,x,l,l,x,d,d,x,d,d,x,a,a,x,a,a,x,7129127,2340,-1,2870873,1665109,-1,2340,2290,-1,844866,843736,-1,0.0003,0.9786,-1,0.2943,0.5067,-1,74880,73280,-1,27035712,26962176,-1,0,0,-1,26247776,26233536,-1,74880,73280,-1,53283488,53195712,-1,473astar
14241,131072,2097152,-1,131072,2097152,-1,64,64,-1,64,64,-1,1,1,x,1,1,x,l,l,x,l,l,x,d,d,x,d,d,x,a,a,x,a,a,x,7129127,1400,-1,2870873,839240,-1,1400,1359,-1,426588,424721,-1,0.0002,0.9707,-1,0.1486,0.5061,-1,89600,86976,-1,27301632,27142208,-1,0,0,-1,26409728,26373248,-1,89600,86976,-1,53711360,53515456,-1,473astar
14283,131072,2097152,-1,131072,2097152,-1,128,128,-1,128,128,-1,1,1,x,1,1,x,l,l,x,l,l,x,d,d,x,d,d,x,a,a,x,a,a,x,7129127,901,-1,2870873,426577,-1,901,862,-1,217586,215065,-1,0.0001,0.9567,-1,0.0758,0.5042,-1,115328,110336,-1,27851008,27475968,-1,0,0,-1,26750848,26652544,-1,115328,110336,-1,54601856,54128512,-1,473astar
14325,131072,2097152,-1,131072,2097152,-1,256,256,-1,256,256,-1,1,1,x,1,1,x,l,l,x,l,l,x,d,d,x,d,d,x,a,a,x,a,a,x,7129127,607,-1,2870873,221594,-1,607,563,-1,114003,110297,-1,0.0001,0.9275,-1,0.0397,0.4977,-1,155392,144128,-1,29184768,28134912,-1,0,0,-1,27543296,27232256,-1,155392,144128,-1,56728064,55367168,-1,473astar
14367,131072,2097152,-1,131072,2097152,-1,512,512,-1,512,512,-1,1,1,x,1,1,x,l,l,x,l,l,x,d,d,x,d,d,x,a,a,x,a,a,x,7129127,441,-1,2870873,124627,-1,441,371,-1,65976,58336,-1,0.0001,0.8413,-1,0.023,0.4681,-1,225792,189952,-1,33779712,29569024,-1,0,0,-1,30029312,28485632,-1,225792,189952,-1,63809024,58054656,-1,473astar
14409,131072,2097152,-1,131072,2097152,-1,8,8,-1,8,8,-1,2,2,x,2,2,x,l,l,x,l,l,x,d,d,x,d,d,x,a,a,x,a,a,x,7129127,7460,-1,2870873,3466662,-1,7460,7460,-1,1774872,1773487,-1,0.001,1,-1,0.6182,0.5116,-1,59680,59680,-1,14198976,14187880,-1,0,0,-1,13534320,13532608,-1,59680,59680,-1,27733296,27720488,-1,473astar
14451,131072,2097152,-1,131072,2097152,-1,16,16,-1,16,16,-1,2,2,x,2,2,x,l,l,x,l,l,x,d,d,x,d,d,x,a,a,x,a,a,x,7129127,4010,-1,2870873,3315012,-1,4010,4010,-1,1680010,1678623,-1,0.0006,1,-1,0.5852,0.5064,-1,64160,64160,-1,26880160,26857968,-1,0,0,-1,26160032,26156784,-1,64160,64160,-1,53040192,53014752,-1,473astar
14493,131072,2097152,-1,131072,2097152,-1,32,32,-1,32,32,-1,2,2,x,2,2,x,l,l,x,l,l,x,d,d,x,d,d,x,a,a,x,a,a,x,7129127,2288,-1,2870873,1663631,-1,2288,2288,-1,843715,842431,-1,0.0003,1,-1,0.2939,0.5064,-1,73216,73216,-1,26998880,26957792,-1,0,0,-1,26237312,26231520,-1,73216,73216,-1,53236192,53189312,-1,473astar
14535,131072,2097152,-1,131072,2097152,-1,64,64,-1,64,64,-1,2,2,x,2,2,x,l,l,x,l,l,x,d,d,x,d,d,x,a,a,x,a,a,x,7129127,1357,-1,2870873,837253,-1,1357,1357,-1,425090,423891,-1,0.0002,1,-1,0.1481,0.5063,-1,86848,86848,-1,27205760,27129024,-1,0,0,-1,26378432,26368192,-1,86848,86848,-1,53584192,53497216,-1,473astar
14577,131072,2097152,-1,131072,2097152,-1,128,128,-1,128,128,-1,2,2,x,2,2,x,l,l,x,l,l,x,d,d,x,d,d,x,a,a,x,a,a,x,7129127,871,-1,2870873,423736,-1,871,860,-1,215501,214366,-1,0.0001,0.9874,-1,0.0751,0.5059,-1,111488,110080,-1,27584128,27438720,-1,0,0,-1,26654080,26635392,-1,111488,110080,-1,54238208,54074112,-1,473astar
14619,131072,2097152,-1,131072,2097152,-1,256,256,-1,256,256,-1,2,2,x,2,2,x,l,l,x,l,l,x,d,d,x,d,d,x,a,a,x,a,a,x,7129127,576,-1,2870873,216744,-1,576,561,-1,110494,109430,-1,0.0001,0.974,-1,0.0385,0.5049,-1,147456,143616,-1,28286464,28013824,-1,0,0,-1,27200000,27166720,-1,147456,143616,-1,55486464,55180544,-1,473astar
14661,131072,2097152,-1,131072,2097152,-1,512,512,-1,512,512,-1,2,2,x,2,2,x,l,l,x,l,l,x,d,d,x,d,d,x,a,a,x,a,a,x,7129127,387,-1,2870873,113245,-1,387,369,-1,57990,56881,-1,0.0001,0.9535,-1,0.0202,0.5023,-1,198144,188928,-1,29690880,29122560,-1,0,0,-1,28290560,28223488,-1,198144,188928,-1,57981440,57346048,-1,473astar
14703,131072,2097152,-1,131072,2097152,-1,8,8,-1,8,8,-1,4,4,x,4,4,x,l,l,x,l,l,x,d,d,x,d,d,x,a,a,x,a,a,x,7129127,7461,-1,2870873,3466609,-1,7461,7460,-1,1774770,1773477,-1,0.001,0.9999,-1,0.6182,0.5116,-1,59688,59680,-1,14198160,14187816,-1,0,0,-1,13534712,13532608,-1,59688,59680,-1,27732872,27720424,-1,473astar
14745,131072,2097152,-1,131072,2097152,-1,16,16,-1,16,16,-1,4,4,x,4,4,x,l,l,x,l,l,x,d,d,x,d,d,x,a,a,x,a,a,x,7129127,4011,-1,2870873,3314913,-1,4011,4010,-1,1679874,1678609,-1,0.0006,0.9998,-1,0.5851,0.5064,-1,64176,64160,-1,26877984,26857744,-1,0,0,-1,26160624,26156784,-1,64176,64160,-1,53038608,53014528,-1,473astar
14787,131072,2097152,-1,131072,2097152,-1,32,32,-1,32,32,-1,4,4,x,4,4,x,l,l,x,l,l,x,d,d,x,d,d,x,a,a,x,a,a,x,7129127,2289,-1,2870873,1663473,-1,2289,2288,-1,843548,842408,-1,0.0003,0.9996,-1,0.2938,0.5064,-1,73248,73216,-1,26993536,26957056,-1,0,0,-1,26237600,26231520,-1,73248,73216,-1,53231136,53188576,-1,473astar
14829,131072,2097152,-1,131072,2097152,-1,64,64,-1,64,64,-1,4,4,x,4,4,x,l,l,x,l,l,x,d,d,x,d,d,x,a,a,x,a,a,x,7129127,1358,-1,2870873,837070,-1,1358,1357,-1,424919,423862,-1,0.0002,0.9993,-1,0.148,0.5064,-1,86912,86848,-1,27194816,27127168,-1,0,0,-1,26377664,26368192,-1,86912,86848,-1,53572480,53495360,-1,473astar
14871,131072,2097152,-1,131072,2097152,-1,128,128,-1,128,128,-1,4,4,x,4,4,x,l,l,x,l,l,x,d,d,x,d,d,x,a,a,x,a,a,x,7129127,861,-1,2870873,423479,-1,861,860,-1,215275,214329,-1,0.0001,0.9988,-1,0.075,0.5061,-1,110208,110080,-1,27555200,27434112,-1,0,0,-1,26650112,26635392,-1,110208,110080,-1,54205312,54069504,-1,473astar
14913,131072,2097152,-1,131072,2097152,-1,256,256,-1,256,256,-1,4,4,x,4,4,x,l,l,x,l,l,x,d,d,x,d,d,x,a,a,x,a,a,x,7129127,562,-1,2870873,216501,-1,562,561,-1,110289,109394,-1,0.0001,0.9982,-1,0.0384,0.5053,-1,143872,143616,-1,28233984,28004864,-1,0,0,-1,27190272,27166720,-1,143872,143616,-1,55424256,55171584,-1,473astar
14955,131072,2097152,-1,131072,2097152,-1,512,512,-1,512,512,-1,4,4,x,4,4,x,l,l,x,l,l,x,d,d,x,d,d,x,a,a,x,a,a,x,7129127,374,-1,2870873,112916,-1,374,369,-1,57721,56844,-1,0.0001,0.9866,-1,0.0201,0.5034,-1,191488,188928,-1,29553152,29104128,-1,0,0,-1,28259840,28223488,-1,191488,188928,-1,57812992,57327616,-1,473astar
14997,131072,2097152,-1,131072,2097152,-1,8,8,-1,8,8,-1,8,8,x,8,8,x,l,l,x,l,l,x,d,d,x,d,d,x,a,a,x,a,a,x,7129127,7460,-1,2870873,3466663,-1,7460,7460,-1,1774769,1773477,-1,0.001,1,-1,0.6182,0.5116,-1,59680,59680,-1,14198152,14187816,-1,0,0,-1,13535152,13532608,-1,59680,59680,-1,27733304,27720424,-1,473astar
15039,131072,2097152,-1,131072,2097152,-1,16,16,-1,16,16,-1,8,8,x,8,8,x,l,l,x,l,l,x,d,d,x,d,d,x,a,a,x,a,a,x,7129127,4010,-1,2870873,3314806,-1,4010,4010,-1,1679772,1678609,-1,0.0006,1,-1,0.5851,0.5064,-1,64160,64160,-1,26876352,26857744,-1,0,0,-1,26160544,26156784,-1,64160,64160,-1,53036896,53014528,-1,473astar
15081,131072,2097152,-1,131072,2097152,-1,32,32,-1,32,32,-1,8,8,x,8,8,x,l,l,x,l,l,x,d,d,x,d,d,x,a,a,x,a,a,x,7129127,2288,-1,2870873,1663295,-1,2288,2288,-1,843384,842408,-1,0.0003,1,-1,0.2938,0.5065,-1,73216,73216,-1,26988288,26957056,-1,0,0,-1,26237152,26231520,-1,73216,73216,-1,53225440,53188576,-1,473astar
15123,131072,2097152,-1,131072,2097152,-1,64,64,-1,64,64,-1,8,8,x,8,8,x,l,l,x,l,l,x,d,d,x,d,d,x,a,a,x,a,a,x,7129127,1357,-1,2870873,836849,-1,1357,1357,-1,424720,423862,-1,0.0002,1,-1,0.1479,0.5065,-1,86848,86848,-1,27182080,27127168,-1,0,0,-1,26376256,26368192,-1,86848,86848,-1,53558336,53495360,-1,473astar
15165,131072,2097152,-1,131072,2097152,-1,128,128,-1,128,128,-1,8,8,x,8,8,x,l,l,x,l,l,x,d,d,x,d,d,x,a,a,x,a,a,x,7129127,860,-1,2870873,423286,-1,860,860,-1,215105,214329,-1,0.0001,1,-1,0.0749,0.5063,-1,110080,110080,-1,27533440,27434112,-1,0,0,-1,26647168,26635392,-1,110080,110080,-1,54180608,54069504,-1,473astar
15207,131072,2097152,-1,131072,2097152,-1,256,256,-1,256,256,-1,8,8,x,8,8,x,l,l,x,l,l,x,d,d,x,d,d,x,a,a,x,a,a,x,7129127,561,-1,2870873,216342,-1,561,561,-1,110147,109394,-1,0.0001,1,-1,0.0384,0.5057,-1,143616,143616,-1,28197632,28004864,-1,0,0,-1,27185920,27166720,-1,143616,143616,-1,55383552,55171584,-1,473astar
15249,131072,2097152,-1,131072,2097152,-1,512,512,-1,512,512,-1,8,8,x,8,8,x,l,l,x,l,l,x,d,d,x,d,d,x,a,a,x,a,a,x,7129127,371,-1,2870873,112780,-1,371,369,-1,57597,56844,-1,0.0001,0.9946,-1,0.0201,0.504,-1,189952,188928,-1,29489664,29104128,-1,0,0,-1,28253696,28223488,-1,189952,188928,-1,57743360,57327616,-1,473astar
15291,131072,2097152,-1,131072,2097152,-1,8,8,-1,8,8,-1,1,1,x,1,1,x,l,l,x,l,l,x,d,d,x,d,d,x,a,a,x,a,a,x,8021445,13357,-1,1978555,1226955,-1,13357,12157,-1,621650,620828,-1,0.0017,0.9102,-1,0.3142,0.506,-1,106856,97256,-1,4973200,4913080,-1,0,0,-1,4842440,4804576,-1,106856,97256,-1,9815640,9717656,-1,481wrf
15333,131072,2097152,-1,131072,2097152,-1,16,16,-1,16,16,-1,1,1,x,1,1,x,l,l,x,l,l,x,d,d,x,d,d,x,a,a,x,a,a,x,8021445,7244,-1,1978555,621077,-1,7244,6487,-1,316038,315313,-1,0.0009,0.8955,-1,0.1597,0.5077,-1,115904,103792,-1,5056608,4966464,-1,0,0,-1,4880624,4830000,-1,115904,103792,-1,9937232,9796464,-1,481wrf
15375,131072,2097152,-1,131072,2097152,-1,32,32,-1,32,32,-1,1,1,x,1,1,x,l,l,x,l,l,x,d,d,x,d,d,x,a,a,x,a,a,x,8021445,4176,-1,1978555,313406,-1,4176,3541,-1,159927,158153,-1,0.0005,0.8479,-1,0.0808,0.5046,-1,133632,113312,-1,5117664,4984416,-1,0,0,-1,4911328,4837824,-1,133632,113312,-1,10028992,9822240,-1,481wrf
15417,131072,2097152,-1,131072,2097152,-1,64,64,-1,64,64,-1,1,1,x,1,1,x,l,l,x,l,l,x,d,d,x,d,d,x,a,a,x,a,a,x,8021445,2444,-1,1978555,159220,-1,2444,1977,-1,81728,79475,-1,0.0003,0.8089,-1,0.0413,0.4992,-1,156416,126528,-1,5230592,5013248,-1,0,0,-1,4959488,4847488,-1,156416,126528,-1,10190080,9860736,-1,481wrf
15459,131072,2097152,-1,131072,2097152,-1,128,128,-1,128,128,-1,1,1,x,1,1,x,l,l,x,l,l,x,d,d,x,d,d,x,a,a,x,a,a,x,8021445,2570,-1,1978555,82690,-1,2570,1148,-1,43140,40379,-1,0.0003,0.4467,-1,0.0218,0.4883,-1,328960,146944,-1,5521920,5091712,-1,0,0,-1,5062400,4867840,-1,328960,146944,-1,10584320,9959552,-1,481wrf
15501,131072,2097152,-1,131072,2097152,-1,256,256,-1,256,256,-1,1,1,x,1,1,x,l,l,x,l,l,x,d,d,x,d,d,x,a,a,x,a,a,x,8021445,2149,-1,1978555,44628,-1,2149,678,-1,24044,21216,-1,0.0003,0.3155,-1,0.0122,0.4754,-1,550144,173568,-1,6155264,5334784,-1,0,0,-1,5269504,4905472,-1,550144,173568,-1,11424768,10240256,-1,481wrf
15543,131072,2097152,-1,131072,2097152,-1,512,512,-1,512,512,-1,1,1,x,1,1,x,l,l,x,l,l,x,d,d,x,d,d,x,a,a,x,a,a,x,8021445,2882,-1,1978555,26289,-1,2882,419,-1,14982,11364,-1,0.0004,0.1454,-1,0.0076,0.4323,-1,1475584,214528,-1,7670784,5682176,-1,0,0,-1,5789184,4966912,-1,1475584,214528,-1,13459968,10649088,-1,481wrf
15585,131072,2097152,-1,131072,2097152,-1,8,8,-1,8,8,-1,2,2,x,2,2,x,l,l,x,l,l,x,d,d,x,d,d,x,a,a,x,a,a,x,8021445,12142,-1,1978555,1216733,-1,12142,12137,-1,615688,613928,-1,0.0015,0.9996,-1,0.3112,0.5046,-1,97136,97096,-1,4925504,4911360,-1,0,0,-1,4808360,4803584,-1,97136,97096,-1,9733864,9714944,-1,481wrf
15627,131072,2097152,-1,131072,2097152,-1,16,16,-1,16,16,-1,2,2,x,2,2,x,l,l,x,l,l,x,d,d,x,d,d,x,a,a,x,a,a,x,8021445,6480,-1,1978555,613720,-1,6480,6475,-1,311545,310194,-1,0.0008,0.9992,-1,0.1575,0.5054,-1,103680,103600,-1,4984720,4962944,-1,0,0,-1,4834800,4828048,-1,103680,103600,-1,9819520,9790992,-1,481wrf
15669,131072,2097152,-1,131072,2097152,-1,32,32,-1,32,32,-1,2,2,x,2,2,x,l,l,x,l,l,x,d,d,x,d,d,x,a,a,x,a,a,x,8021445,3537,-1,1978555,308000,-1,3537,3534,-1,156590,155576,-1,0.0004,0.9992,-1,0.0791,0.5051,-1,113184,113088,-1,5010880,4978112,-1,0,0,-1,4845120,4834528,-1,113184,113088,-1,9856000,9812640,-1,481wrf
15711,131072,2097152,-1,131072,2097152,-1,64,64,-1,64,64,-1,2,2,x,2,2,x,l,l,x,l,l,x,d,d,x,d,d,x,a,a,x,a,a,x,8021445,1974,-1,1978555,154837,-1,1974,1971,-1,78938,78053,-1,0.0002,0.9985,-1,0.0399,0.5041,-1,126336,126144,-1,5052032,4994816,-1,0,0,-1,4857536,4839616,-1,126336,126144,-1,9909568,9834432,-1,481wrf
15753,131072,2097152,-1,131072,2097152,-1,128,128,-1,128,128,-1,2,2,x,2,2,x,l,l,x,l,l,x,d,d,x,d,d,x,a,a,x,a,a,x,8021445,1150,-1,1978555,78075,-1,1150,1143,-1,39991,39205,-1,0.0001,0.9939,-1,0.0202,0.5021,-1,147200,146304,-1,5118848,5017216,-1,0,0,-1,4874752,4844544,-1,147200,146304,-1,9993600,9861760,-1,481wrf
15795,131072,2097152,-1,131072,2097152,-1,256,256,-1,256,256,-1,2,2,x,2,2,x,l,l,x,l,l,x,d,d,x,d,d,x,a,a,x,a,a,x,8021445,682,-1,1978555,39689,-1,682,674,-1,20507,19715,-1,0.0001,0.9883,-1,0.0104,0.4967,-1,174592,172544,-1,5249792,5046272,-1,0,0,-1,4910592,4849152,-1,174592,172544,-1,10160384,9895424,-1,481wrf
15837,131072,2097152,-1,131072,2097152,-1,512,512,-1,512,512,-1,2,2,x,2,2,x,l,l,x,l,l,x,d,d,x,d,d,x,a,a,x,a,a,x,8021445,431,-1,1978555,20641,-1,431,415,-1,10868,9935,-1,0.0001,0.9629,-1,0.0055,0.4813,-1,220672,212480,-1,5564416,5085696,-1,0,0,-1,5003776,4857856,-1,220672,212480,-1,10568192,9943552,-1,481wrf
15879,131072,2097152,-1,131072,2097152,-1,8,8,-1,8,8,-1,4,4,x,4,4,x,l,l,x,l,l,x,d,d,x,d,d,x,a,a,x,a,a,x,8021445,12137,-1,1978555,1215425,-1,12137,12137,-1,614662,613920,-1,0.0015,1,-1,0.3107,0.5051,-1,97096,97096,-1,4917296,4911360,-1,0,0,-1,4806104,4803584,-1,97096,97096,-1,9723400,9714944,-1,481wrf
15921,131072,2097152,-1,131072,2097152,-1,16,16,-1,16,16,-1,4,4,x,4,4,x,l,l,x,l,l,x,d,d,x,d,d,x,a,a,x,a,a,x,8021445,6475,-1,1978555,612921,-1,6475,6475,-1,310907,310182,-1,0.0008,1,-1,0.1571,0.5061,-1,103600,103600,-1,4974512,4962912,-1,0,0,-1,4832224,4828048,-1,103600,103600,-1,9806736,9790960,-1,481wrf
15963,131072,2097152,-1,131072,2097152,-1,32,32,-1,32,32,-1,4,4,x,4,4,x,l,l,x,l,l,x,d,d,x,d,d,x,a,a,x,a,a,x,8021445,3534,-1,1978555,307497,-1,3534,3534,-1,156201,155564,-1,0.0004,1,-1,0.0789,0.5059,-1,113088,113088,-1,4998432,4978048,-1,0,0,-1,4841472,4834528,-1,113088,113088,-1,9839904,9812576,-1,481wrf
16005,131072,2097152,-1,131072,2097152,-1,64,64,-1,64,64,-1,4,4,x,4,4,x,l,l,x,l,l,x,d,d,x,d,d,x,a,a,x,a,a,x,8021445,1971,-1,1978555,154460,-1,1971,1971,-1,78656,78041,-1,0.0002,1,-1,0.0398,0.5053,-1,126144,126144,-1,5033984,4994624,-1,0,0,-1,4851456,4839616,-1,126144,126144,-1,9885440,9834240,-1,481wrf
16047,131072,2097152,-1,131072,2097152,-1,128,128,-1,128,128,-1,4,4,x,4,4,x,l,l,x,l,l,x,d,d,x,d,d,x,a,a,x,a,a,x,8021445,1145,-1,1978555,77763,-1,1145,1143,-1,39753,39193,-1,0.0001,0.9983,-1,0.0201,0.504,-1,146560,146304,-1,5088384,5016448,-1,0,0,-1,4865280,4844416,-1,146560,146304,-1,9953664,9860864,-1,481wrf
16089,131072,2097152,-1,131072,2097152,-1,256,256,-1,256,256,-1,4,4,x,4,4,x,l,l,x,l,l,x,d,d,x,d,d,x,a,a,x,a,a,x,8021445,677,-1,1978555,39317,-1,677,674,-1,20231,19704,-1,0.0001,0.9956,-1,0.0102,0.5012,-1,173312,172544,-1,5179136,5043712,-1,0,0,-1,4886016,4849408,-1,173312,172544,-1,10065152,9893120,-1,481wrf
16131,131072,2097152,-1,131072,2097152,-1,512,512,-1,512,512,-1,4,4,x,4,4,x,l,l,x,l,l,x,d,d,x,d,d,x,a,a,x,a,a,x,8021445,419,-1,1978555,20127,-1,419,415,-1,10473,9925,-1,0.0001,0.9905,-1,0.0053,0.4931,-1,214528,212480,-1,5362176,5080576,-1,0,0,-1,4942848,4857856,-1,214528,212480,-1,10305024,9938432,-1,481wrf
16173,131072,2097152,-1,131072,2097152,-1,8,8,-1,8,8,-1,8,8,x,8,8,x,l,l,x,l,l,x,d,d,x,d,d,x,a,a,x,a,a,x,8021445,12137,-1,1978555,1214948,-1,12137,12137,-1,614329,613914,-1,0.0015,1,-1,0.3105,0.5053,-1,97096,97096,-1,4914632,4911312,-1,0,0,-1,4804952,4803536,-1,97096,97096,-1,9719584,9714848,-1,481wrf
16215,131072,2097152,-1,131072,2097152,-1,16,16,-1,16,16,-1,8,8,x,8,8,x,l,l,x,l,l,x,d,d,x,d,d,x,a,a,x,a,a,x,8021445,6475,-1,1978555,612518,-1,6475,6475,-1,310622,310176,-1,0.0008,1,-1,0.157,0.5064,-1,103600,103600,-1,4969952,4962816,-1,0,0,-1,4830336,4827952,-1,103600,103600,-1,9800288,9790768,-1,481wrf
16257,131072,2097152,-1,131072,2097152,-1,32,32,-1,32,32,-1,8,8,x,8,8,x,l,l,x,l,l,x,d,d,x,d,d,x,a,a,x,a,a,x,8021445,3534,-1,1978555,307172,-1,3534,3534,-1,155974,155561,-1,0.0004,1,-1,0.0788,0.5064,-1,113088,113088,-1,4991168,4977952,-1,0,0,-1,4838336,4834432,-1,113088,113088,-1,9829504,9812384,-1,481wrf
16299,131072,2097152,-1,131072,2097152,-1,64,64,-1,64,64,-1,8,8,x,8,8,x,l,l,x,l,l,x,d,d,x,d,d,x,a,a,x,a,a,x,8021445,1971,-1,1978555,154186,-1,1971,1971,-1,78462,78039,-1,0.0002,1,-1,0.0397,0.5061,-1,126144,126144,-1,5021568,4994496,-1,0,0,-1,4846336,4839488,-1,126144,126144,-1,9867904,9833984,-1,481wrf
16341,131072,2097152,-1,131072,2097152,-1,128,128,-1,128,128,-1,8,8,x,8,8,x,l,l,x,l,l,x,d,d,x,d,d,x,a,a,x,a,a,x,8021445,1145,-1,1978555,77608,-1,1145,1143,-1,39639,39192,-1,0.0001,0.9983,-1,0.02,0.505,-1,146560,146304,-1,5073792,5016320,-1,0,0,-1,4860032,4844288,-1,146560,146304,-1,9933824,9860608,-1,481wrf
16383,131072,2097152,-1,131072,2097152,-1,256,256,-1,256,256,-1,8,8,x,8,8,x,l,l,x,l,l,x,d,d,x,d,d,x,a,a,x,a,a,x,8021445,676,-1,1978555,39252,-1,676,674,-1,20166,19703,-1,0.0001,0.997,-1,0.0102,0.502,-1,173056,172544,-1,5162496,5043456,-1,0,0,-1,4886016,4849408,-1,173056,172544,-1,10048512,9892864,-1,481wrf
16425,131072,2097152,-1,131072,2097152,-1,512,512,-1,512,512,-1,8,8,x,8,8,x,l,l,x,l,l,x,d,d,x,d,d,x,a,a,x,a,a,x,8021445,420,-1,1978555,20025,-1,420,415,-1,10393,9924,-1,0.0001,0.9881,-1,0.0053,0.4956,-1,215040,212480,-1,5321216,5080064,-1,0,0,-1,4931584,4857856,-1,215040,212480,-1,10252800,9937920,-1,481wrf
16467,131072,2097152,-1,131072,2097152,-1,8,8,-1,8,8,-1,1,1,x,1,1,x,l,l,x,l,l,x,d,d,x,d,d,x,a,a,x,a,a,x,7302028,9964,-1,2697972,33501,-1,9964,8328,-1,23783,22173,-1,0.0014,0.8358,-1,0.0088,0.6619,-1,79712,66624,-1,190264,175800,-1,0,0,-1,77744,74288,-1,79712,66624,-1,268008,250088,-1,482sphinx3
16509,131072,2097152,-1,131072,2097152,-1,16,16,-1,16,16,-1,1,1,x,1,1,x,l,l,x,l,l,x,d,d,x,d,d,x,a,a,x,a,a,x,7302028,5414,-1,2697972,23487,-1,5414,4493,-1,16525,14716,-1,0.0007,0.8299,-1,0.0061,0.6266,-1,86624,71888,-1,264400,232864,-1,0,0,-1,111392,103696,-1,86624,71888,-1,375792,336560,-1,482sphinx3
16551,131072,2097152,-1,131072,2097152,-1,32,32,-1,32,32,-1,1,1,x,1,1,x,l,l,x,l,l,x,d,d,x,d,d,x,a,a,x,a,a,x,7302028,3298,-1,2697972,13156,-1,3298,2558,-1,9270,7845,-1,0.0005,0.7756,-1,0.0034,0.5963,-1,105536,81856,-1,296640,246816,-1,0,0,-1,124352,109728,-1,105536,81856,-1,420992,356544,-1,482sphinx3
16593,131072,2097152,-1,131072,2097152,-1,64,64,-1,64,64,-1,1,1,x,1,1,x,l,l,x,l,l,x,d,d,x,d,d,x,a,a,x,a,a,x,7302028,2074,-1,2697972,7713,-1,2074,1498,-1,5504,4248,-1,0.0003,0.7223,-1,0.002,0.5508,-1,132736,95872,-1,352256,265088,-1,0,0,-1,141376,116608,-1,132736,95872,-1,493632,381696,-1,482sphinx3
16635,131072,2097152,-1,131072,2097152,-1,128,128,-1,128,128,-1,1,1,x,1,1,x,l,l,x,l,l,x,d,d,x,d,d,x,a,a,x,a,a,x,7302028,1410,-1,2697972,5138,-1,1410,910,-1,3683,2401,-1,0.0002,0.6454,-1,0.0014,0.4673,-1,180480,116480,-1,471424,293120,-1,0,0,-1,186240,128256,-1,180480,116480,-1,657664,421376,-1,482sphinx3
16677,131072,2097152,-1,131072,2097152,-1,256,256,-1,256,256,-1,1,1,x,1,1,x,l,l,x,l,l,x,d,d,x,d,d,x,a,a,x,a,a,x,7302028,1483,-1,2697972,4144,-1,1483,570,-1,2928,1404,-1,0.0002,0.3844,-1,0.0011,0.3388,-1,379648,145920,-1,749568,334336,-1,0,0,-1,311296,143616,-1,379648,145920,-1,1060864,477952,-1,482sphinx3
16719,131072,2097152,-1,131072,2097152,-1,512,512,-1,512,512,-1,1,1,x,1,1,x,l,l,x,l,l,x,d,d,x,d,d,x,a,a,x,a,a,x,7302028,1097,-1,2697972,6507,-1,1097,368,-1,5102,878,-1,0.0002,0.3355,-1,0.0019,0.1349,-1,561664,188416,-1,2612224,403968,-1,0,0,-1,719360,171520,-1,561664,188416,-1,3331584,575488,-1,482sphinx3
16761,131072,2097152,-1,131072,2097152,-1,8,8,-1,8,8,-1,2,2,x,2,2,x,l,l,x,l,l,x,d,d,x,d,d,x,a,a,x,a,a,x,7302028,8344,-1,2697972,31349,-1,8344,8318,-1,22085,21906,-1,0.0011,0.9969,-1,0.0082,0.6988,-1,66752,66544,-1,176680,175224,-1,0,0,-1,74112,73928,-1,66752,66544,-1,250792,249152,-1,482sphinx3
16803,131072,2097152,-1,131072,2097152,-1,16,16,-1,16,16,-1,2,2,x,2,2,x,l,l,x,l,l,x,d,d,x,d,d,x,a,a,x,a,a,x,7302028,4507,-1,2697972,21141,-1,4507,4487,-1,14689,14473,-1,0.0006,0.9956,-1,0.0054,0.6846,-1,72112,71792,-1,235024,231504,-1,0,0,-1,103232,102816,-1,72112,71792,-1,338256,334320,-1,482sphinx3
16845,131072,2097152,-1,131072,2097152,-1,32,32,-1,32,32,-1,2,2,x,2,2,x,l,l,x,l,l,x,d,d,x,d,d,x,a,a,x,a,a,x,7302028,2569,-1,2697972,11189,-1,2569,2555,-1,7810,7605,-1,0.0004,0.9946,-1,0.0029,0.6797,-1,82208,81760,-1,249920,243296,-1,0,0,-1,108128,107392,-1,82208,81760,-1,358048,350688,-1,482sphinx3
16887,131072,2097152,-1,131072,2097152,-1,64,64,-1,64,64,-1,2,2,x,2,2,x,l,l,x,l,l,x,d,d,x,d,d,x,a,a,x,a,a,x,7302028,1511,-1,2697972,5980,-1,1511,1496,-1,4209,4010,-1,0.0002,0.9901,-1,0.0016,0.6706,-1,96704,95744,-1,269376,256576,-1,0,0,-1,113344,111744,-1,96704,95744,-1,382720,368320,-1,482sphinx3
16929,131072,2097152,-1,131072,2097152,-1,128,128,-1,128,128,-1,2,2,x,2,2,x,l,l,x,l,l,x,d,d,x,d,d,x,a,a,x,a,a,x,7302028,922,-1,2697972,3255,-1,922,909,-1,2319,2136,-1,0.0001,0.9859,-1,0.0009,0.6562,-1,118016,116352,-1,296832,273280,-1,0,0,-1,119808,115584,-1,118016,116352,-1,416640,388864,-1,482sphinx3
16971,131072,2097152,-1,131072,2097152,-1,256,256,-1,256,256,-1,2,2,x,2,2,x,l,l,x,l,l,x,d,d,x,d,d,x,a,a,x,a,a,x,7302028,587,-1,2697972,1833,-1,587,564,-1,1330,1153,-1,0.0001,0.9608,-1,0.0005,0.629,-1,150272,144384,-1,340480,295168,-1,0,0,-1,128768,119552,-1,150272,144384,-1,469248,414720,-1,482sphinx3
17013,131072,2097152,-1,131072,2097152,-1,512,512,-1,512,512,-1,2,2,x,2,2,x,l,l,x,l,l,x,d,d,x,d,d,x,a,a,x,a,a,x,7302028,409,-1,2697972,1100,-1,409,362,-1,821,634,-1,0.0001,0.8851,-1,0.0003,0.5764,-1,209408,185344,-1,420352,324096,-1,0,0,-1,142848,125440,-1,209408,185344,-1,563200,449536,-1,482sphinx3
17055,131072,2097152,-1,131072,2097152,-1,8,8,-1,8,8,-1,4,4,x,4,4,x,l,l,x,l,l,x,d,d,x,d,d,x,a,a,x,a,a,x,7302028,8319,-1,2697972,31224,-1,8319,8318,-1,21979,21900,-1,0.0011,0.9999,-1,0.0081,0.7014,-1,66552,66544,-1,175832,175200,-1,0,0,-1,73960,73928,-1,66552,66544,-1,249792,249128,-1,482sphinx3
17097,131072,2097152,-1,131072,2097152,-1,16,16,-1,16,16,-1,4,4,x,4,4,x,l,l,x,l,l,x,d,d,x,d,d,x,a,a,x,a,a,x,7302028,4488,-1,2697972,20998,-1,4488,4487,-1,14562,14465,-1,0.0006,0.9998,-1,0.0054,0.6889,-1,71808,71792,-1,232992,231440,-1,0,0,-1,102976,102816,-1,71808,71792,-1,335968,334256,-1,482sphinx3
17139,131072,2097152,-1,131072,2097152,-1,32,32,-1,32,32,-1,4,4,x,4,4,x,l,l,x,l,l,x,d,d,x,d,d,x,a,a,x,a,a,x,7302028,2556,-1,2697972,11059,-1,2556,2555,-1,7693,7601,-1,0.0004,0.9996,-1,0.0029,0.6873,-1,81792,81760,-1,246176,243232,-1,0,0,-1,107712,107392,-1,81792,81760,-1,353888,350624,-1,482sphinx3
17181,131072,2097152,-1,131072,2097152,-1,64,64,-1,64,64,-1,4,4,x,4,4,x,l,l,x,l,l,x,d,d,x,d,d,x,a,a,x,a,a,x,7302028,1497,-1,2697972,5853,-1,1497,1496,-1,4098,4006,-1,0.0002,0.9993,-1,0.0015,0.6844,-1,95808,95744,-1,262272,256384,-1,0,0,-1,112320,111744,-1,95808,95744,-1,374592,368128,-1,482sphinx3
17223,131072,2097152,-1,131072,2097152,-1,128,128,-1,128,128,-1,4,4,x,4,4,x,l,l,x,l,l,x,d,d,x,d,d,x,a,a,x,a,a,x,7302028,911,-1,2697972,3138,-1,911,909,-1,2225,2130,-1,0.0001,0.9978,-1,0.0008,0.6788,-1,116608,116352,-1,284800,272640,-1,0,0,-1,116864,115584,-1,116608,116352,-1,401664,388224,-1,482sphinx3
17265,131072,2097152,-1,131072,2097152,-1,256,256,-1,256,256,-1,4,4,x,4,4,x,l,l,x,l,l,x,d,d,x,d,d,x,a,a,x,a,a,x,7302028,573,-1,2697972,1716,-1,573,564,-1,1235,1146,-1,0.0001,0.9843,-1,0.0005,0.6678,-1,146688,144384,-1,316160,293376,-1,0,0,-1,123136,119552,-1,146688,144384,-1,439296,412928,-1,482sphinx3
17307,131072,2097152,-1,131072,2097152,-1,512,512,-1,512,512,-1,4,4,x,4,4,x,l,l,x,l,l,x,d,d,x,d,d,x,a,a,x,a,a,x,7302028,384,-1,2697972,1007,-1,384,362,-1,743,626,-1,0.0001,0.9427,-1,0.0003,0.6216,-1,196608,185344,-1,380416,320512,-1,0,0,-1,135168,125440,-1,196608,185344,-1,515584,445952,-1,482sphinx3
17349,131072,2097152,-1,131072,2097152,-1,8,8,-1,8,8,-1,8,8,x,8,8,x,l,l,x,l,l,x,d,d,x,d,d,x,a,a,x,a,a,x,7302028,8318,-1,2697972,31178,-1,8318,8318,-1,21937,21900,-1,0.0011,1,-1,0.0081,0.7024,-1,66544,66544,-1,175496,175200,-1,0,0,-1,73928,73928,-1,66544,66544,-1,249424,249128,-1,482sphinx3
17391,131072,2097152,-1,131072,2097152,-1,16,16,-1,16,16,-1,8,8,x,8,8,x,l,l,x,l,l,x,d,d,x,d,d,x,a,a,x,a,a,x,7302028,4487,-1,2697972,20960,-1,4487,4487,-1,14534,14465,-1,0.0006,1,-1,0.0054,0.6901,-1,71792,71792,-1,232544,231440,-1,0,0,-1,102816,102816,-1,71792,71792,-1,335360,334256,-1,482sphinx3
17433,131072,2097152,-1,131072,2097152,-1,32,32,-1,32,32,-1,8,8,x,8,8,x,l,l,x,l,l,x,d,d,x,d,d,x,a,a,x,a,a,x,7302028,2555,-1,2697972,11018,-1,2555,2555,-1,7660,7601,-1,0.0003,1,-1,0.0028,0.6899,-1,81760,81760,-1,245120,243232,-1,0,0,-1,107456,107392,-1,81760,81760,-1,352576,350624,-1,482sphinx3
17475,131072,2097152,-1,131072,2097152,-1,64,64,-1,64,64,-1,8,8,x,8,8,x,l,l,x,l,l,x,d,d,x,d,d,x,a,a,x,a,a,x,7302028,1496,-1,2697972,5820,-1,1496,1496,-1,4071,4006,-1,0.0002,1,-1,0.0015,0.6883,-1,95744,95744,-1,260544,256384,-1,0,0,-1,111936,111744,-1,95744,95744,-1,372480,368128,-1,482sphinx3
17517,131072,2097152,-1,131072,2097152,-1,128,128,-1,128,128,-1,8,8,x,8,8,x,l,l,x,l,l,x,d,d,x,d,d,x,a,a,x,a,a,x,7302028,909,-1,2697972,3119,-1,909,909,-1,2211,2130,-1,0.0001,1,-1,0.0008,0.6829,-1,116352,116352,-1,283008,272640,-1,0,0,-1,116224,115584,-1,116352,116352,-1,399232,388224,-1,482sphinx3
17559,131072,2097152,-1,131072,2097152,-1,256,256,-1,256,256,-1,8,8,x,8,8,x,l,l,x,l,l,x,d,d,x,d,d,x,a,a,x,a,a,x,7302028,565,-1,2697972,1707,-1,565,564,-1,1227,1146,-1,0.0001,0.9982,-1,0.0005,0.6714,-1,144640,144384,-1,314112,293376,-1,0,0,-1,122880,119552,-1,144640,144384,-1,436992,412928,-1,482sphinx3
17601,131072,2097152,-1,131072,2097152,-1,512,512,-1,512,512,-1,8,8,x,8,8,x,l,l,x,l,l,x,d,d,x,d,d,x,a,a,x,a,a,x,7302028,366,-1,2697972,979,-1,366,362,-1,721,626,-1,0.0001,0.9891,-1,0.0003,0.6394,-1,187392,185344,-1,369152,320512,-1,0,0,-1,132096,125440,-1,187392,185344,-1,501248,445952,-1,482sphinx3
