simIndex,l1_I_size,l2_I_size,l3_I_size,l1_D_size,l2_D_size,l3_D_size,l1_I_Bsize,l2_I_Bsize,l3_I_Bsize,l1_D_Bsize,l2_D_Bsize,l3_D_Bsize,l1_I_Assoc,l2_I_Assoc,l3_I_Assoc,l1_D_Assoc,l2_D_Assoc,l3_D_Assoc,l1_I_Repl,l2_I_Repl,l3_I_Repl,l1_D_Repl,l2_D_Repl,l3_D_Repl,l1_I_Fetch,l2_I_Fetch,l3_I_Fetch,l1_D_Fetch,l2_D_Fetch,l3_D_Fetch,l1_D_WAlloc,l2_D_WAlloc,l3_D_WAlloc,l1_D_WBack,l2_D_WBack,l3_D_WBack,l1_I_Demand_Fetches,l2_I_Demand_Fetches,l3_I_Demand_Fetches,l1_D_Demand_Fetches,l2_D_Demand_Fetches,l3_D_Demand_Fetches,l1_I_Demand_Misses,l2_I_Demand_Misses,l3_I_Demand_Misses,l1_D_Demand_Misses,l2_D_Demand_Misses,l3_D_Demand_Misses,l1_I_Demand_Miss_Rate,l2_I_Demand_Miss_Rate,l3_I_Demand_Miss_Rate,l1_D_Demand_Miss_Rate,l2_D_Demand_Miss_Rate,l3_D_Demand_Miss_Rate,l1_I_Bytes_From_Mem,l2_I_Bytes_From_Mem,l3_I_Bytes_From_Mem,l1_D_Bytes_From_Mem,l2_D_Bytes_From_Mem,l3_D_Bytes_From_Mem,l1_I_Bytes_To_Mem,l2_I_Bytes_To_Mem,l3_I_Bytes_To_Mem,l1_D_Bytes_To_Mem,l2_D_Bytes_To_Mem,l3_D_Bytes_To_Mem,l1_I_Total_Bytes,l2_I_Total_Bytes,l3_I_Total_Bytes,l1_D_Total_Bytes,l2_D_Total_Bytes,l3_D_Total_Bytes,specbenchmark
5894,2097152,4194304,-1,2097152,4194304,-1,8,8,-1,8,8,-1,1,1,x,1,1,x,l,l,x,l,l,x,d,d,x,d,d,x,a,a,x,a,a,x,6451228,4101,-1,3548772,4227690,-1,4101,4101,-1,2534214,3192439,-1,0.0006,1,-1,0.7141,0.7551,-1,32808,32808,-1,20273712,20273232,-1,0,0,-1,13547808,13547784,-1,32808,32808,-1,33821520,33821016,-1,401Out
5936,2097152,4194304,-1,2097152,4194304,-1,16,16,-1,16,16,-1,1,1,x,1,1,x,l,l,x,l,l,x,d,d,x,d,d,x,a,a,x,a,a,x,6451228,2193,-1,3548772,2976003,-1,2193,2193,-1,1698997,2031285,-1,0.0003,1,-1,0.4788,0.6826,-1,35088,35088,-1,27183952,27183328,-1,0,0,-1,20432096,20432064,-1,35088,35088,-1,47616048,47615392,-1,401Out
5978,2097152,4194304,-1,2097152,4194304,-1,32,32,-1,32,32,-1,1,1,x,1,1,x,l,l,x,l,l,x,d,d,x,d,d,x,a,a,x,a,a,x,6451228,1236,-1,3548772,2348645,-1,1236,1236,-1,1279921,1449191,-1,0.0002,1,-1,0.3607,0.617,-1,39552,39552,-1,40957472,40956576,-1,0,0,-1,34199168,34199104,-1,39552,39552,-1,75156640,75155680,-1,401Out
6020,2097152,4194304,-1,2097152,4194304,-1,64,64,-1,64,64,-1,1,1,x,1,1,x,l,l,x,l,l,x,d,d,x,d,d,x,a,a,x,a,a,x,6451228,718,-1,3548772,2034776,-1,718,718,-1,1070269,1158011,-1,0.0001,1,-1,0.3016,0.5691,-1,45952,45952,-1,68497216,68495680,-1,0,0,-1,61728448,61728384,-1,45952,45952,-1,130225664,130224064,-1,401Out
6062,2097152,4194304,-1,2097152,4194304,-1,128,128,-1,128,128,-1,1,1,x,1,1,x,l,l,x,l,l,x,d,d,x,d,d,x,a,a,x,a,a,x,6451228,435,-1,3548772,1877706,-1,435,435,-1,965340,1012298,-1,0.0001,1,-1,0.272,0.5391,-1,55680,55680,-1,123563520,123560960,-1,0,0,-1,116782848,116782720,-1,55680,55680,-1,240346368,240343680,-1,401Out
6104,2097152,4194304,-1,2097152,4194304,-1,256,256,-1,256,256,-1,1,1,x,1,1,x,l,l,x,l,l,x,d,d,x,d,d,x,a,a,x,a,a,x,6451228,274,-1,3548772,1799266,-1,274,274,-1,912975,939601,-1,0,1,-1,0.2573,0.5222,-1,70144,70144,-1,233721600,233717248,-1,0,0,-1,226890496,226890240,-1,70144,70144,-1,460612096,460607488,-1,401Out
6146,2097152,4194304,-1,2097152,4194304,-1,512,512,-1,512,512,-1,1,1,x,1,1,x,l,l,x,l,l,x,d,d,x,d,d,x,a,a,x,a,a,x,6451228,185,-1,3548772,1760320,-1,185,185,-1,887048,903607,-1,0,1,-1,0.25,0.5133,-1,94720,94720,-1,454168576,454148608,-1,0,0,-1,447115264,447114752,-1,94720,94720,-1,901283840,901263360,-1,401Out
6188,2097152,4194304,-1,2097152,4194304,-1,8,8,-1,8,8,-1,2,2,x,2,2,x,l,l,x,l,l,x,d,d,x,d,d,x,a,a,x,a,a,x,6451228,4101,-1,3548772,4227446,-1,4101,4101,-1,2534029,3387585,-1,0.0006,1,-1,0.7141,0.8013,-1,32808,32808,-1,20272232,20272232,-1,0,0,-1,13547336,13547336,-1,32808,32808,-1,33819568,33819568,-1,401Out
6230,2097152,4194304,-1,2097152,4194304,-1,16,16,-1,16,16,-1,2,2,x,2,2,x,l,l,x,l,l,x,d,d,x,d,d,x,a,a,x,a,a,x,6451228,2193,-1,3548772,2975816,-1,2193,2193,-1,1698849,2552223,-1,0.0003,1,-1,0.4787,0.8577,-1,35088,35088,-1,27181584,27181584,-1,0,0,-1,20431472,20431472,-1,35088,35088,-1,47613056,47613056,-1,401Out
6272,2097152,4194304,-1,2097152,4194304,-1,32,32,-1,32,32,-1,2,2,x,2,2,x,l,l,x,l,l,x,d,d,x,d,d,x,a,a,x,a,a,x,6451228,1236,-1,3548772,2348492,-1,1236,1236,-1,1279796,2133032,-1,0.0002,1,-1,0.3606,0.9083,-1,39552,39552,-1,40953472,40953472,-1,0,0,-1,34198272,34198272,-1,39552,39552,-1,75151744,75151744,-1,401Out
6314,2097152,4194304,-1,2097152,4194304,-1,64,64,-1,64,64,-1,2,2,x,2,2,x,l,l,x,l,l,x,d,d,x,d,d,x,a,a,x,a,a,x,6451228,718,-1,3548772,2034630,-1,718,718,-1,1070147,1923306,-1,0.0001,1,-1,0.3016,0.9453,-1,45952,45952,-1,68489408,68489408,-1,0,0,-1,61726912,61726912,-1,45952,45952,-1,130216320,130216320,-1,401Out
6356,2097152,4194304,-1,2097152,4194304,-1,128,128,-1,128,128,-1,2,2,x,2,2,x,l,l,x,l,l,x,d,d,x,d,d,x,a,a,x,a,a,x,6451228,435,-1,3548772,1877591,-1,435,435,-1,965245,1818357,-1,0.0001,1,-1,0.272,0.9685,-1,55680,55680,-1,123551360,123551360,-1,0,0,-1,116780288,116780288,-1,55680,55680,-1,240331648,240331648,-1,401Out
6398,2097152,4194304,-1,2097152,4194304,-1,256,256,-1,256,256,-1,2,2,x,2,2,x,l,l,x,l,l,x,d,d,x,d,d,x,a,a,x,a,a,x,6451228,273,-1,3548772,1799041,-1,273,273,-1,912767,1765581,-1,0,1,-1,0.2572,0.9814,-1,69888,69888,-1,233668352,233668352,-1,0,0,-1,226886144,226886144,-1,69888,69888,-1,460554496,460554496,-1,401Out
6440,2097152,4194304,-1,2097152,4194304,-1,512,512,-1,512,512,-1,2,2,x,2,2,x,l,l,x,l,l,x,d,d,x,d,d,x,a,a,x,a,a,x,6451228,184,-1,3548772,1759756,-1,184,184,-1,886523,1738779,-1,0,1,-1,0.2498,0.9881,-1,94208,94208,-1,453899776,453899776,-1,0,0,-1,447095296,447095296,-1,94208,94208,-1,900995072,900995072,-1,401Out
6482,2097152,4194304,-1,2097152,4194304,-1,8,8,-1,8,8,-1,4,4,x,4,4,x,l,l,x,l,l,x,d,d,x,d,d,x,a,a,x,a,a,x,6451228,4101,-1,3548772,4227446,-1,4101,4101,-1,2534029,3392292,-1,0.0006,1,-1,0.7141,0.8024,-1,32808,32808,-1,20272232,20272232,-1,0,0,-1,13547336,13547336,-1,32808,32808,-1,33819568,33819568,-1,401Out
6524,2097152,4194304,-1,2097152,4194304,-1,16,16,-1,16,16,-1,4,4,x,4,4,x,l,l,x,l,l,x,d,d,x,d,d,x,a,a,x,a,a,x,6451228,2193,-1,3548772,2975816,-1,2193,2193,-1,1698849,2557039,-1,0.0003,1,-1,0.4787,0.8593,-1,35088,35088,-1,27181584,27181584,-1,0,0,-1,20431472,20431472,-1,35088,35088,-1,47613056,47613056,-1,401Out
6566,2097152,4194304,-1,2097152,4194304,-1,32,32,-1,32,32,-1,4,4,x,4,4,x,l,l,x,l,l,x,d,d,x,d,d,x,a,a,x,a,a,x,6451228,1236,-1,3548772,2348492,-1,1236,1236,-1,1279796,2137925,-1,0.0002,1,-1,0.3606,0.9103,-1,39552,39552,-1,40953472,40953472,-1,0,0,-1,34198272,34198272,-1,39552,39552,-1,75151744,75151744,-1,401Out
6608,2097152,4194304,-1,2097152,4194304,-1,64,64,-1,64,64,-1,4,4,x,4,4,x,l,l,x,l,l,x,d,d,x,d,d,x,a,a,x,a,a,x,6451228,718,-1,3548772,2034629,-1,718,718,-1,1070146,1928245,-1,0.0001,1,-1,0.3016,0.9477,-1,45952,45952,-1,68489344,68489344,-1,0,0,-1,61726912,61726912,-1,45952,45952,-1,130216256,130216256,-1,401Out
6650,2097152,4194304,-1,2097152,4194304,-1,128,128,-1,128,128,-1,4,4,x,4,4,x,l,l,x,l,l,x,d,d,x,d,d,x,a,a,x,a,a,x,6451228,435,-1,3548772,1877590,-1,435,435,-1,965244,1823320,-1,0.0001,1,-1,0.272,0.9711,-1,55680,55680,-1,123551232,123551232,-1,0,0,-1,116780288,116780288,-1,55680,55680,-1,240331520,240331520,-1,401Out
6692,2097152,4194304,-1,2097152,4194304,-1,256,256,-1,256,256,-1,4,4,x,4,4,x,l,l,x,l,l,x,d,d,x,d,d,x,a,a,x,a,a,x,6451228,273,-1,3548772,1799040,-1,273,273,-1,912766,1770261,-1,0,1,-1,0.2572,0.984,-1,69888,69888,-1,233668096,233668096,-1,0,0,-1,226886144,226886144,-1,69888,69888,-1,460554240,460554240,-1,401Out
6734,2097152,4194304,-1,2097152,4194304,-1,512,512,-1,512,512,-1,4,4,x,4,4,x,l,l,x,l,l,x,d,d,x,d,d,x,a,a,x,a,a,x,6451228,184,-1,3548772,1759755,-1,184,184,-1,886522,1742858,-1,0,1,-1,0.2498,0.9904,-1,94208,94208,-1,453899264,453899264,-1,0,0,-1,447095296,447095296,-1,94208,94208,-1,900994560,900994560,-1,401Out
6776,2097152,4194304,-1,2097152,4194304,-1,8,8,-1,8,8,-1,8,8,x,8,8,x,l,l,x,l,l,x,d,d,x,d,d,x,a,a,x,a,a,x,6451228,4101,-1,3548772,4227446,-1,4101,4101,-1,2534029,3391681,-1,0.0006,1,-1,0.7141,0.8023,-1,32808,32808,-1,20272232,20272232,-1,0,0,-1,13547336,13547336,-1,32808,32808,-1,33819568,33819568,-1,401Out
6818,2097152,4194304,-1,2097152,4194304,-1,16,16,-1,16,16,-1,8,8,x,8,8,x,l,l,x,l,l,x,d,d,x,d,d,x,a,a,x,a,a,x,6451228,2193,-1,3548772,2975816,-1,2193,2193,-1,1698849,2556488,-1,0.0003,1,-1,0.4787,0.8591,-1,35088,35088,-1,27181584,27181584,-1,0,0,-1,20431472,20431472,-1,35088,35088,-1,47613056,47613056,-1,401Out
6860,2097152,4194304,-1,2097152,4194304,-1,32,32,-1,32,32,-1,8,8,x,8,8,x,l,l,x,l,l,x,d,d,x,d,d,x,a,a,x,a,a,x,6451228,1236,-1,3548772,2348492,-1,1236,1236,-1,1279796,2137413,-1,0.0002,1,-1,0.3606,0.9101,-1,39552,39552,-1,40953472,40953472,-1,0,0,-1,34198272,34198272,-1,39552,39552,-1,75151744,75151744,-1,401Out
6902,2097152,4194304,-1,2097152,4194304,-1,64,64,-1,64,64,-1,8,8,x,8,8,x,l,l,x,l,l,x,d,d,x,d,d,x,a,a,x,a,a,x,6451228,718,-1,3548772,2034629,-1,718,718,-1,1070146,1927762,-1,0.0001,1,-1,0.3016,0.9475,-1,45952,45952,-1,68489344,68489344,-1,0,0,-1,61726912,61726912,-1,45952,45952,-1,130216256,130216256,-1,401Out
6944,2097152,4194304,-1,2097152,4194304,-1,128,128,-1,128,128,-1,8,8,x,8,8,x,l,l,x,l,l,x,d,d,x,d,d,x,a,a,x,a,a,x,6451228,435,-1,3548772,1877590,-1,435,435,-1,965244,1822856,-1,0.0001,1,-1,0.272,0.9708,-1,55680,55680,-1,123551232,123551232,-1,0,0,-1,116780288,116780288,-1,55680,55680,-1,240331520,240331520,-1,401Out
6986,2097152,4194304,-1,2097152,4194304,-1,256,256,-1,256,256,-1,8,8,x,8,8,x,l,l,x,l,l,x,d,d,x,d,d,x,a,a,x,a,a,x,6451228,273,-1,3548772,1799040,-1,273,273,-1,912766,1769241,-1,0,1,-1,0.2572,0.9834,-1,69888,69888,-1,233668096,233668096,-1,0,0,-1,226886144,226886144,-1,69888,69888,-1,460554240,460554240,-1,401Out
7028,2097152,4194304,-1,2097152,4194304,-1,512,512,-1,512,512,-1,8,8,x,8,8,x,l,l,x,l,l,x,d,d,x,d,d,x,a,a,x,a,a,x,6451228,184,-1,3548772,1759755,-1,184,184,-1,886522,1740720,-1,0,1,-1,0.2498,0.9892,-1,94208,94208,-1,453899264,453899264,-1,0,0,-1,447095296,447095296,-1,94208,94208,-1,900994560,900994560,-1,401Out
7070,2097152,4194304,-1,2097152,4194304,-1,8,8,-1,8,8,-1,1,1,x,1,1,x,l,l,x,l,l,x,d,d,x,d,d,x,a,a,x,a,a,x,7790192,9589,-1,2209808,111454,-1,9589,9578,-1,61401,71355,-1,0.0012,0.9989,-1,0.0278,0.6402,-1,76712,76624,-1,491208,490248,-1,0,0,-1,400424,400424,-1,76712,76624,-1,891632,890672,-1,403gcc
7112,2097152,4194304,-1,2097152,4194304,-1,16,16,-1,16,16,-1,1,1,x,1,1,x,l,l,x,l,l,x,d,d,x,d,d,x,a,a,x,a,a,x,7790192,5214,-1,2209808,63153,-1,5214,5208,-1,35331,41326,-1,0.0007,0.9988,-1,0.016,0.6544,-1,83424,83328,-1,565296,563344,-1,0,0,-1,445152,445152,-1,83424,83328,-1,1010448,1008496,-1,403gcc
7154,2097152,4194304,-1,2097152,4194304,-1,32,32,-1,32,32,-1,1,1,x,1,1,x,l,l,x,l,l,x,d,d,x,d,d,x,a,a,x,a,a,x,7790192,2958,-1,2209808,32291,-1,2958,2954,-1,18170,21215,-1,0.0004,0.9986,-1,0.0082,0.657,-1,94656,94528,-1,581440,578560,-1,0,0,-1,451872,451840,-1,94656,94528,-1,1033312,1030400,-1,403gcc
7196,2097152,4194304,-1,2097152,4194304,-1,64,64,-1,64,64,-1,1,1,x,1,1,x,l,l,x,l,l,x,d,d,x,d,d,x,a,a,x,a,a,x,7790192,1717,-1,2209808,16643,-1,1717,1715,-1,9439,10997,-1,0.0002,0.9988,-1,0.0043,0.6608,-1,109888,109760,-1,604096,599424,-1,0,0,-1,461056,460928,-1,109888,109760,-1,1065152,1060352,-1,403gcc
7238,2097152,4194304,-1,2097152,4194304,-1,128,128,-1,128,128,-1,1,1,x,1,1,x,l,l,x,l,l,x,d,d,x,d,d,x,a,a,x,a,a,x,7790192,1046,-1,2209808,8679,-1,1046,1044,-1,4977,5785,-1,0.0001,0.9981,-1,0.0023,0.6666,-1,133888,133632,-1,637056,628864,-1,0,0,-1,473856,473728,-1,133888,133632,-1,1110912,1102592,-1,403gcc
7280,2097152,4194304,-1,2097152,4194304,-1,256,256,-1,256,256,-1,1,1,x,1,1,x,l,l,x,l,l,x,d,d,x,d,d,x,a,a,x,a,a,x,7790192,660,-1,2209808,4643,-1,660,659,-1,2705,3132,-1,0.0001,0.9985,-1,0.0012,0.6746,-1,168960,168704,-1,692480,675328,-1,0,0,-1,496128,495616,-1,168960,168704,-1,1188608,1170944,-1,403gcc
7322,2097152,4194304,-1,2097152,4194304,-1,512,512,-1,512,512,-1,1,1,x,1,1,x,l,l,x,l,l,x,d,d,x,d,d,x,a,a,x,a,a,x,7790192,437,-1,2209808,2688,-1,437,436,-1,1606,1835,-1,0.0001,0.9977,-1,0.0007,0.6827,-1,223744,223232,-1,822272,769024,-1,0,0,-1,553984,552960,-1,223744,223232,-1,1376256,1321984,-1,403gcc
7364,2097152,4194304,-1,2097152,4194304,-1,8,8,-1,8,8,-1,2,2,x,2,2,x,l,l,x,l,l,x,d,d,x,d,d,x,a,a,x,a,a,x,7790192,9578,-1,2209808,111212,-1,9578,9578,-1,61263,61271,-1,0.0012,1,-1,0.0277,0.5509,-1,76624,76624,-1,490104,490104,-1,0,0,-1,399592,399592,-1,76624,76624,-1,889696,889696,-1,403gcc
7406,2097152,4194304,-1,2097152,4194304,-1,16,16,-1,16,16,-1,2,2,x,2,2,x,l,l,x,l,l,x,d,d,x,d,d,x,a,a,x,a,a,x,7790192,5208,-1,2209808,62904,-1,5208,5208,-1,35185,35193,-1,0.0007,1,-1,0.0159,0.5595,-1,83328,83328,-1,562960,562960,-1,0,0,-1,443504,443504,-1,83328,83328,-1,1006464,1006464,-1,403gcc
7448,2097152,4194304,-1,2097152,4194304,-1,32,32,-1,32,32,-1,2,2,x,2,2,x,l,l,x,l,l,x,d,d,x,d,d,x,a,a,x,a,a,x,7790192,2954,-1,2209808,32111,-1,2954,2954,-1,18059,18064,-1,0.0004,1,-1,0.0082,0.5625,-1,94528,94528,-1,577888,577888,-1,0,0,-1,449664,449664,-1,94528,94528,-1,1027552,1027552,-1,403gcc
7490,2097152,4194304,-1,2097152,4194304,-1,64,64,-1,64,64,-1,2,2,x,2,2,x,l,l,x,l,l,x,d,d,x,d,d,x,a,a,x,a,a,x,7790192,1715,-1,2209808,16482,-1,1715,1715,-1,9331,9333,-1,0.0002,1,-1,0.0042,0.5663,-1,109760,109760,-1,597184,597184,-1,0,0,-1,457664,457664,-1,109760,109760,-1,1054848,1054848,-1,403gcc
7532,2097152,4194304,-1,2097152,4194304,-1,128,128,-1,128,128,-1,2,2,x,2,2,x,l,l,x,l,l,x,d,d,x,d,d,x,a,a,x,a,a,x,7790192,1044,-1,2209808,8524,-1,1044,1044,-1,4867,4868,-1,0.0001,1,-1,0.0022,0.5711,-1,133632,133632,-1,622976,622976,-1,0,0,-1,468096,468096,-1,133632,133632,-1,1091072,1091072,-1,403gcc
7574,2097152,4194304,-1,2097152,4194304,-1,256,256,-1,256,256,-1,2,2,x,2,2,x,l,l,x,l,l,x,d,d,x,d,d,x,a,a,x,a,a,x,7790192,659,-1,2209808,4469,-1,659,659,-1,2579,2579,-1,0.0001,1,-1,0.0012,0.5771,-1,168704,168704,-1,660224,660224,-1,0,0,-1,483840,483840,-1,168704,168704,-1,1144064,1144064,-1,403gcc
7616,2097152,4194304,-1,2097152,4194304,-1,512,512,-1,512,512,-1,2,2,x,2,2,x,l,l,x,l,l,x,d,d,x,d,d,x,a,a,x,a,a,x,7790192,436,-1,2209808,2399,-1,436,436,-1,1403,1402,-1,0.0001,1,-1,0.0006,0.5844,-1,223232,223232,-1,718336,717824,-1,0,0,-1,509952,509440,-1,223232,223232,-1,1228288,1227264,-1,403gcc
7658,2097152,4194304,-1,2097152,4194304,-1,8,8,-1,8,8,-1,4,4,x,4,4,x,l,l,x,l,l,x,d,d,x,d,d,x,a,a,x,a,a,x,7790192,9578,-1,2209808,111212,-1,9578,9578,-1,61263,61263,-1,0.0012,1,-1,0.0277,0.5509,-1,76624,76624,-1,490104,490104,-1,0,0,-1,399592,399592,-1,76624,76624,-1,889696,889696,-1,403gcc
7700,2097152,4194304,-1,2097152,4194304,-1,16,16,-1,16,16,-1,4,4,x,4,4,x,l,l,x,l,l,x,d,d,x,d,d,x,a,a,x,a,a,x,7790192,5208,-1,2209808,62904,-1,5208,5208,-1,35185,35185,-1,0.0007,1,-1,0.0159,0.5593,-1,83328,83328,-1,562960,562960,-1,0,0,-1,443504,443504,-1,83328,83328,-1,1006464,1006464,-1,403gcc
7742,2097152,4194304,-1,2097152,4194304,-1,32,32,-1,32,32,-1,4,4,x,4,4,x,l,l,x,l,l,x,d,d,x,d,d,x,a,a,x,a,a,x,7790192,2954,-1,2209808,32111,-1,2954,2954,-1,18059,18059,-1,0.0004,1,-1,0.0082,0.5624,-1,94528,94528,-1,577888,577888,-1,0,0,-1,449664,449664,-1,94528,94528,-1,1027552,1027552,-1,403gcc
7784,2097152,4194304,-1,2097152,4194304,-1,64,64,-1,64,64,-1,4,4,x,4,4,x,l,l,x,l,l,x,d,d,x,d,d,x,a,a,x,a,a,x,7790192,1715,-1,2209808,16482,-1,1715,1715,-1,9331,9331,-1,0.0002,1,-1,0.0042,0.5661,-1,109760,109760,-1,597184,597184,-1,0,0,-1,457664,457664,-1,109760,109760,-1,1054848,1054848,-1,403gcc
7826,2097152,4194304,-1,2097152,4194304,-1,128,128,-1,128,128,-1,4,4,x,4,4,x,l,l,x,l,l,x,d,d,x,d,d,x,a,a,x,a,a,x,7790192,1044,-1,2209808,8524,-1,1044,1044,-1,4867,4867,-1,0.0001,1,-1,0.0022,0.571,-1,133632,133632,-1,622976,622976,-1,0,0,-1,468096,468096,-1,133632,133632,-1,1091072,1091072,-1,403gcc
7868,2097152,4194304,-1,2097152,4194304,-1,256,256,-1,256,256,-1,4,4,x,4,4,x,l,l,x,l,l,x,d,d,x,d,d,x,a,a,x,a,a,x,7790192,659,-1,2209808,4469,-1,659,659,-1,2579,2579,-1,0.0001,1,-1,0.0012,0.5771,-1,168704,168704,-1,660224,660224,-1,0,0,-1,483840,483840,-1,168704,168704,-1,1144064,1144064,-1,403gcc
7910,2097152,4194304,-1,2097152,4194304,-1,512,512,-1,512,512,-1,4,4,x,4,4,x,l,l,x,l,l,x,d,d,x,d,d,x,a,a,x,a,a,x,7790192,436,-1,2209808,2397,-1,436,436,-1,1402,1402,-1,0.0001,1,-1,0.0006,0.5849,-1,223232,223232,-1,717824,717824,-1,0,0,-1,509440,509440,-1,223232,223232,-1,1227264,1227264,-1,403gcc
7952,2097152,4194304,-1,2097152,4194304,-1,8,8,-1,8,8,-1,8,8,x,8,8,x,l,l,x,l,l,x,d,d,x,d,d,x,a,a,x,a,a,x,7790192,9578,-1,2209808,111212,-1,9578,9578,-1,61263,61263,-1,0.0012,1,-1,0.0277,0.5509,-1,76624,76624,-1,490104,490104,-1,0,0,-1,399592,399592,-1,76624,76624,-1,889696,889696,-1,403gcc
7994,2097152,4194304,-1,2097152,4194304,-1,16,16,-1,16,16,-1,8,8,x,8,8,x,l,l,x,l,l,x,d,d,x,d,d,x,a,a,x,a,a,x,7790192,5208,-1,2209808,62904,-1,5208,5208,-1,35185,35185,-1,0.0007,1,-1,0.0159,0.5593,-1,83328,83328,-1,562960,562960,-1,0,0,-1,443504,443504,-1,83328,83328,-1,1006464,1006464,-1,403gcc
8036,2097152,4194304,-1,2097152,4194304,-1,32,32,-1,32,32,-1,8,8,x,8,8,x,l,l,x,l,l,x,d,d,x,d,d,x,a,a,x,a,a,x,7790192,2954,-1,2209808,32111,-1,2954,2954,-1,18059,18059,-1,0.0004,1,-1,0.0082,0.5624,-1,94528,94528,-1,577888,577888,-1,0,0,-1,449664,449664,-1,94528,94528,-1,1027552,1027552,-1,403gcc
8078,2097152,4194304,-1,2097152,4194304,-1,64,64,-1,64,64,-1,8,8,x,8,8,x,l,l,x,l,l,x,d,d,x,d,d,x,a,a,x,a,a,x,7790192,1715,-1,2209808,16482,-1,1715,1715,-1,9331,9331,-1,0.0002,1,-1,0.0042,0.5661,-1,109760,109760,-1,597184,597184,-1,0,0,-1,457664,457664,-1,109760,109760,-1,1054848,1054848,-1,403gcc
8120,2097152,4194304,-1,2097152,4194304,-1,128,128,-1,128,128,-1,8,8,x,8,8,x,l,l,x,l,l,x,d,d,x,d,d,x,a,a,x,a,a,x,7790192,1044,-1,2209808,8524,-1,1044,1044,-1,4867,4867,-1,0.0001,1,-1,0.0022,0.571,-1,133632,133632,-1,622976,622976,-1,0,0,-1,468096,468096,-1,133632,133632,-1,1091072,1091072,-1,403gcc
8162,2097152,4194304,-1,2097152,4194304,-1,256,256,-1,256,256,-1,8,8,x,8,8,x,l,l,x,l,l,x,d,d,x,d,d,x,a,a,x,a,a,x,7790192,659,-1,2209808,4469,-1,659,659,-1,2579,2579,-1,0.0001,1,-1,0.0012,0.5771,-1,168704,168704,-1,660224,660224,-1,0,0,-1,483840,483840,-1,168704,168704,-1,1144064,1144064,-1,403gcc
8204,2097152,4194304,-1,2097152,4194304,-1,512,512,-1,512,512,-1,8,8,x,8,8,x,l,l,x,l,l,x,d,d,x,d,d,x,a,a,x,a,a,x,7790192,436,-1,2209808,2397,-1,436,436,-1,1402,1402,-1,0.0001,1,-1,0.0006,0.5849,-1,223232,223232,-1,717824,717824,-1,0,0,-1,509440,509440,-1,223232,223232,-1,1227264,1227264,-1,403gcc
8246,2097152,4194304,-1,2097152,4194304,-1,8,8,-1,8,8,-1,1,1,x,1,1,x,l,l,x,l,l,x,d,d,x,d,d,x,a,a,x,a,a,x,6495832,6442,-1,3504168,3626135,-1,6442,6442,-1,1819111,2893513,-1,0.001,1,-1,0.5191,0.798,-1,51536,51536,-1,14552888,14550512,-1,0,0,-1,14456192,14455600,-1,51536,51536,-1,29009080,29006112,-1,410bwaves
8288,2097152,4194304,-1,2097152,4194304,-1,16,16,-1,16,16,-1,1,1,x,1,1,x,l,l,x,l,l,x,d,d,x,d,d,x,a,a,x,a,a,x,6495832,3482,-1,3504168,1819398,-1,3482,3482,-1,913723,1454567,-1,0.0005,1,-1,0.2608,0.7995,-1,55712,55712,-1,14619568,14615712,-1,0,0,-1,14490800,14489840,-1,55712,55712,-1,29110368,29105552,-1,410bwaves
8330,2097152,4194304,-1,2097152,4194304,-1,32,32,-1,32,32,-1,1,1,x,1,1,x,l,l,x,l,l,x,d,d,x,d,d,x,a,a,x,a,a,x,6495832,1986,-1,3504168,910516,-1,1986,1986,-1,457425,727832,-1,0.0003,1,-1,0.1305,0.7994,-1,63552,63552,-1,14637600,14630560,-1,0,0,-1,14498912,14496800,-1,63552,63552,-1,29136512,29127360,-1,410bwaves
8372,2097152,4194304,-1,2097152,4194304,-1,64,64,-1,64,64,-1,1,1,x,1,1,x,l,l,x,l,l,x,d,d,x,d,d,x,a,a,x,a,a,x,6495832,1163,-1,3504168,455995,-1,1163,1163,-1,229217,364345,-1,0.0002,1,-1,0.0654,0.799,-1,74432,74432,-1,14669888,14651456,-1,0,0,-1,14513792,14507584,-1,74432,74432,-1,29183680,29159040,-1,410bwaves
8414,2097152,4194304,-1,2097152,4194304,-1,128,128,-1,128,128,-1,1,1,x,1,1,x,l,l,x,l,l,x,d,d,x,d,d,x,a,a,x,a,a,x,6495832,717,-1,3504168,228750,-1,717,717,-1,115090,182541,-1,0.0001,1,-1,0.0328,0.798,-1,91776,91776,-1,14731520,14679808,-1,0,0,-1,14548480,14529920,-1,91776,91776,-1,29280000,29209728,-1,410bwaves
8456,2097152,4194304,-1,2097152,4194304,-1,256,256,-1,256,256,-1,1,1,x,1,1,x,l,l,x,l,l,x,d,d,x,d,d,x,a,a,x,a,a,x,6495832,446,-1,3504168,115462,-1,446,446,-1,58178,91687,-1,0.0001,1,-1,0.0166,0.7941,-1,114176,114176,-1,14893568,14723072,-1,0,0,-1,14664704,14597376,-1,114176,114176,-1,29558272,29320448,-1,410bwaves
8498,2097152,4194304,-1,2097152,4194304,-1,512,512,-1,512,512,-1,1,1,x,1,1,x,l,l,x,l,l,x,d,d,x,d,d,x,a,a,x,a,a,x,6495832,290,-1,3504168,59546,-1,290,290,-1,30077,46447,-1,0,1,-1,0.0086,0.78,-1,148480,148480,-1,15399424,14798336,-1,0,0,-1,15088128,14836224,-1,148480,148480,-1,30487552,29634560,-1,410bwaves
8540,2097152,4194304,-1,2097152,4194304,-1,8,8,-1,8,8,-1,2,2,x,2,2,x,l,l,x,l,l,x,d,d,x,d,d,x,a,a,x,a,a,x,6495832,6442,-1,3504168,3625442,-1,6442,6442,-1,1818656,2335761,-1,0.001,1,-1,0.519,0.6443,-1,51536,51536,-1,14549248,14549136,-1,0,0,-1,14454288,14454288,-1,51536,51536,-1,29003536,29003424,-1,410bwaves
8582,2097152,4194304,-1,2097152,4194304,-1,16,16,-1,16,16,-1,2,2,x,2,2,x,l,l,x,l,l,x,d,d,x,d,d,x,a,a,x,a,a,x,6495832,3482,-1,3504168,1818834,-1,3482,3482,-1,913350,1173951,-1,0.0005,1,-1,0.2606,0.6454,-1,55712,55712,-1,14613600,14613472,-1,0,0,-1,14487744,14487744,-1,55712,55712,-1,29101344,29101216,-1,410bwaves
8624,2097152,4194304,-1,2097152,4194304,-1,32,32,-1,32,32,-1,2,2,x,2,2,x,l,l,x,l,l,x,d,d,x,d,d,x,a,a,x,a,a,x,6495832,1986,-1,3504168,910015,-1,1986,1986,-1,457106,587571,-1,0.0003,1,-1,0.1304,0.6457,-1,63552,63552,-1,14627392,14627264,-1,0,0,-1,14493088,14493088,-1,63552,63552,-1,29120480,29120352,-1,410bwaves
8666,2097152,4194304,-1,2097152,4194304,-1,64,64,-1,64,64,-1,2,2,x,2,2,x,l,l,x,l,l,x,d,d,x,d,d,x,a,a,x,a,a,x,6495832,1163,-1,3504168,455337,-1,1163,1163,-1,228804,294084,-1,0.0002,1,-1,0.0653,0.6459,-1,74432,74432,-1,14643456,14643328,-1,0,0,-1,14498112,14498112,-1,74432,74432,-1,29141568,29141440,-1,410bwaves
8708,2097152,4194304,-1,2097152,4194304,-1,128,128,-1,128,128,-1,2,2,x,2,2,x,l,l,x,l,l,x,d,d,x,d,d,x,a,a,x,a,a,x,6495832,717,-1,3504168,227866,-1,717,717,-1,114564,147221,-1,0.0001,1,-1,0.0327,0.6461,-1,91776,91776,-1,14664192,14663936,-1,0,0,-1,14502656,14502656,-1,91776,91776,-1,29166848,29166592,-1,410bwaves
8750,2097152,4194304,-1,2097152,4194304,-1,256,256,-1,256,256,-1,2,2,x,2,2,x,l,l,x,l,l,x,d,d,x,d,d,x,a,a,x,a,a,x,6495832,446,-1,3504168,114069,-1,446,446,-1,57397,73718,-1,0.0001,1,-1,0.0164,0.6463,-1,114176,114176,-1,14693632,14691840,-1,0,0,-1,14508032,14508032,-1,114176,114176,-1,29201664,29199872,-1,410bwaves
8792,2097152,4194304,-1,2097152,4194304,-1,512,512,-1,512,512,-1,2,2,x,2,2,x,l,l,x,l,l,x,d,d,x,d,d,x,a,a,x,a,a,x,6495832,290,-1,3504168,57136,-1,290,290,-1,28781,36943,-1,0,1,-1,0.0082,0.6466,-1,148480,148480,-1,14735872,14731776,-1,0,0,-1,14517760,14517760,-1,148480,148480,-1,29253632,29249536,-1,410bwaves
8834,2097152,4194304,-1,2097152,4194304,-1,8,8,-1,8,8,-1,4,4,x,4,4,x,l,l,x,l,l,x,d,d,x,d,d,x,a,a,x,a,a,x,6495832,6442,-1,3504168,3625416,-1,6442,6442,-1,1818642,2497597,-1,0.001,1,-1,0.519,0.6889,-1,51536,51536,-1,14549136,14549136,-1,0,0,-1,14454192,14454192,-1,51536,51536,-1,29003328,29003328,-1,410bwaves
8876,2097152,4194304,-1,2097152,4194304,-1,16,16,-1,16,16,-1,4,4,x,4,4,x,l,l,x,l,l,x,d,d,x,d,d,x,a,a,x,a,a,x,6495832,3482,-1,3504168,1818819,-1,3482,3482,-1,913342,1253650,-1,0.0005,1,-1,0.2606,0.6893,-1,55712,55712,-1,14613472,14613472,-1,0,0,-1,14487632,14487632,-1,55712,55712,-1,29101104,29101104,-1,410bwaves
8918,2097152,4194304,-1,2097152,4194304,-1,32,32,-1,32,32,-1,4,4,x,4,4,x,l,l,x,l,l,x,d,d,x,d,d,x,a,a,x,a,a,x,6495832,1986,-1,3504168,910006,-1,1986,1986,-1,457100,627337,-1,0.0003,1,-1,0.1304,0.6894,-1,63552,63552,-1,14627200,14627200,-1,0,0,-1,14492992,14492992,-1,63552,63552,-1,29120192,29120192,-1,410bwaves
8960,2097152,4194304,-1,2097152,4194304,-1,64,64,-1,64,64,-1,4,4,x,4,4,x,l,l,x,l,l,x,d,d,x,d,d,x,a,a,x,a,a,x,6495832,1163,-1,3504168,455329,-1,1163,1163,-1,228797,313899,-1,0.0002,1,-1,0.0653,0.6894,-1,74432,74432,-1,14643008,14643008,-1,0,0,-1,14498048,14498048,-1,74432,74432,-1,29141056,29141056,-1,410bwaves
9002,2097152,4194304,-1,2097152,4194304,-1,128,128,-1,128,128,-1,4,4,x,4,4,x,l,l,x,l,l,x,d,d,x,d,d,x,a,a,x,a,a,x,6495832,717,-1,3504168,227855,-1,717,717,-1,114553,157094,-1,0.0001,1,-1,0.0327,0.6894,-1,91776,91776,-1,14662784,14662784,-1,0,0,-1,14502656,14502656,-1,91776,91776,-1,29165440,29165440,-1,410bwaves
9044,2097152,4194304,-1,2097152,4194304,-1,256,256,-1,256,256,-1,4,4,x,4,4,x,l,l,x,l,l,x,d,d,x,d,d,x,a,a,x,a,a,x,6495832,446,-1,3504168,114053,-1,446,446,-1,57381,78630,-1,0.0001,1,-1,0.0164,0.6894,-1,114176,114176,-1,14689536,14689536,-1,0,0,-1,14508032,14508032,-1,114176,114176,-1,29197568,29197568,-1,410bwaves
9086,2097152,4194304,-1,2097152,4194304,-1,512,512,-1,512,512,-1,4,4,x,4,4,x,l,l,x,l,l,x,d,d,x,d,d,x,a,a,x,a,a,x,6495832,290,-1,3504168,57118,-1,290,290,-1,28763,39380,-1,0,1,-1,0.0082,0.6894,-1,148480,148480,-1,14726656,14726656,-1,0,0,-1,14517760,14517760,-1,148480,148480,-1,29244416,29244416,-1,410bwaves
9128,2097152,4194304,-1,2097152,4194304,-1,8,8,-1,8,8,-1,8,8,x,8,8,x,l,l,x,l,l,x,d,d,x,d,d,x,a,a,x,a,a,x,6495832,6442,-1,3504168,3625416,-1,6442,6442,-1,1818642,2413210,-1,0.001,1,-1,0.519,0.6656,-1,51536,51536,-1,14549136,14549136,-1,0,0,-1,14454192,14454192,-1,51536,51536,-1,29003328,29003328,-1,410bwaves
9170,2097152,4194304,-1,2097152,4194304,-1,16,16,-1,16,16,-1,8,8,x,8,8,x,l,l,x,l,l,x,d,d,x,d,d,x,a,a,x,a,a,x,6495832,3482,-1,3504168,1818819,-1,3482,3482,-1,913342,1211634,-1,0.0005,1,-1,0.2606,0.6662,-1,55712,55712,-1,14613472,14613472,-1,0,0,-1,14487632,14487632,-1,55712,55712,-1,29101104,29101104,-1,410bwaves
9212,2097152,4194304,-1,2097152,4194304,-1,32,32,-1,32,32,-1,8,8,x,8,8,x,l,l,x,l,l,x,d,d,x,d,d,x,a,a,x,a,a,x,6495832,1986,-1,3504168,910006,-1,1986,1986,-1,457100,606262,-1,0.0003,1,-1,0.1304,0.6662,-1,63552,63552,-1,14627200,14627200,-1,0,0,-1,14492992,14492992,-1,63552,63552,-1,29120192,29120192,-1,410bwaves
9254,2097152,4194304,-1,2097152,4194304,-1,64,64,-1,64,64,-1,8,8,x,8,8,x,l,l,x,l,l,x,d,d,x,d,d,x,a,a,x,a,a,x,6495832,1163,-1,3504168,455329,-1,1163,1163,-1,228797,303278,-1,0.0002,1,-1,0.0653,0.6661,-1,74432,74432,-1,14643008,14643008,-1,0,0,-1,14498048,14498048,-1,74432,74432,-1,29141056,29141056,-1,410bwaves
9296,2097152,4194304,-1,2097152,4194304,-1,128,128,-1,128,128,-1,8,8,x,8,8,x,l,l,x,l,l,x,d,d,x,d,d,x,a,a,x,a,a,x,6495832,717,-1,3504168,227855,-1,717,717,-1,114553,151740,-1,0.0001,1,-1,0.0327,0.6659,-1,91776,91776,-1,14662784,14662784,-1,0,0,-1,14502656,14502656,-1,91776,91776,-1,29165440,29165440,-1,410bwaves
9338,2097152,4194304,-1,2097152,4194304,-1,256,256,-1,256,256,-1,8,8,x,8,8,x,l,l,x,l,l,x,d,d,x,d,d,x,a,a,x,a,a,x,6495832,446,-1,3504168,114053,-1,446,446,-1,57381,75906,-1,0.0001,1,-1,0.0164,0.6655,-1,114176,114176,-1,14689536,14689536,-1,0,0,-1,14508032,14508032,-1,114176,114176,-1,29197568,29197568,-1,410bwaves
9380,2097152,4194304,-1,2097152,4194304,-1,512,512,-1,512,512,-1,8,8,x,8,8,x,l,l,x,l,l,x,d,d,x,d,d,x,a,a,x,a,a,x,6495832,290,-1,3504168,57118,-1,290,290,-1,28763,38000,-1,0,1,-1,0.0082,0.6653,-1,148480,148480,-1,14726656,14726656,-1,0,0,-1,14517760,14517760,-1,148480,148480,-1,29244416,29244416,-1,410bwaves
9422,2097152,4194304,-1,2097152,4194304,-1,8,8,-1,8,8,-1,1,1,x,1,1,x,l,l,x,l,l,x,d,d,x,d,d,x,a,a,x,a,a,x,7495681,10702,-1,2504319,151922,-1,10702,10702,-1,91385,91556,-1,0.0014,1,-1,0.0365,0.6027,-1,85616,85616,-1,731080,729064,-1,0,0,-1,484296,482984,-1,85616,85616,-1,1215376,1212048,-1,450soplex
9464,2097152,4194304,-1,2097152,4194304,-1,16,16,-1,16,16,-1,1,1,x,1,1,x,l,l,x,l,l,x,d,d,x,d,d,x,a,a,x,a,a,x,7495681,5777,-1,2504319,98718,-1,5777,5777,-1,58667,58779,-1,0.0008,1,-1,0.0234,0.5954,-1,92432,92432,-1,938672,933456,-1,0,0,-1,640816,637072,-1,92432,92432,-1,1579488,1570528,-1,450soplex
9506,2097152,4194304,-1,2097152,4194304,-1,32,32,-1,32,32,-1,1,1,x,1,1,x,l,l,x,l,l,x,d,d,x,d,d,x,a,a,x,a,a,x,7495681,3296,-1,2504319,51134,-1,3296,3296,-1,30732,30811,-1,0.0004,1,-1,0.0123,0.6026,-1,105472,105472,-1,983424,975296,-1,0,0,-1,652864,647520,-1,105472,105472,-1,1636288,1622816,-1,450soplex
9548,2097152,4194304,-1,2097152,4194304,-1,64,64,-1,64,64,-1,1,1,x,1,1,x,l,l,x,l,l,x,d,d,x,d,d,x,a,a,x,a,a,x,7495681,1962,-1,2504319,26657,-1,1962,1962,-1,16295,16348,-1,0.0003,1,-1,0.0065,0.6133,-1,125568,125568,-1,1042880,1029888,-1,0,0,-1,663168,655616,-1,125568,125568,-1,1706048,1685504,-1,450soplex
9590,2097152,4194304,-1,2097152,4194304,-1,128,128,-1,128,128,-1,1,1,x,1,1,x,l,l,x,l,l,x,d,d,x,d,d,x,a,a,x,a,a,x,7495681,1229,-1,2504319,14078,-1,1229,1229,-1,8800,8825,-1,0.0002,1,-1,0.0035,0.6269,-1,157312,157312,-1,1126400,1105664,-1,0,0,-1,675584,665216,-1,157312,157312,-1,1801984,1770880,-1,450soplex
9632,2097152,4194304,-1,2097152,4194304,-1,256,256,-1,256,256,-1,1,1,x,1,1,x,l,l,x,l,l,x,d,d,x,d,d,x,a,a,x,a,a,x,7495681,813,-1,2504319,7614,-1,813,813,-1,4894,4895,-1,0.0001,1,-1,0.002,0.6429,-1,208128,208128,-1,1252864,1217280,-1,0,0,-1,696320,680704,-1,208128,208128,-1,1949184,1897984,-1,450soplex
9674,2097152,4194304,-1,2097152,4194304,-1,512,512,-1,512,512,-1,1,1,x,1,1,x,l,l,x,l,l,x,d,d,x,d,d,x,a,a,x,a,a,x,7495681,549,-1,2504319,4422,-1,549,549,-1,2982,2954,-1,0.0001,1,-1,0.0012,0.668,-1,281088,281088,-1,1526784,1447424,-1,0,0,-1,737280,714752,-1,281088,281088,-1,2264064,2162176,-1,450soplex
9716,2097152,4194304,-1,2097152,4194304,-1,8,8,-1,8,8,-1,2,2,x,2,2,x,l,l,x,l,l,x,d,d,x,d,d,x,a,a,x,a,a,x,7495681,10566,-1,2504319,151186,-1,10566,10566,-1,90835,90821,-1,0.0014,1,-1,0.0363,0.6007,-1,84528,84528,-1,726680,726544,-1,0,0,-1,482808,482744,-1,84528,84528,-1,1209488,1209288,-1,450soplex
9758,2097152,4194304,-1,2097152,4194304,-1,16,16,-1,16,16,-1,2,2,x,2,2,x,l,l,x,l,l,x,d,d,x,d,d,x,a,a,x,a,a,x,7495681,5700,-1,2504319,97769,-1,5700,5700,-1,57979,57951,-1,0.0008,1,-1,0.0232,0.5927,-1,91200,91200,-1,927664,927120,-1,0,0,-1,636640,636368,-1,91200,91200,-1,1564304,1563488,-1,450soplex
9800,2097152,4194304,-1,2097152,4194304,-1,32,32,-1,32,32,-1,2,2,x,2,2,x,l,l,x,l,l,x,d,d,x,d,d,x,a,a,x,a,a,x,7495681,3253,-1,2504319,50342,-1,3253,3253,-1,30133,30098,-1,0.0004,1,-1,0.012,0.5979,-1,104096,104096,-1,964256,962752,-1,0,0,-1,646688,646048,-1,104096,104096,-1,1610944,1608800,-1,450soplex
9842,2097152,4194304,-1,2097152,4194304,-1,64,64,-1,64,64,-1,2,2,x,2,2,x,l,l,x,l,l,x,d,d,x,d,d,x,a,a,x,a,a,x,7495681,1935,-1,2504319,25966,-1,1935,1935,-1,15752,15721,-1,0.0003,1,-1,0.0063,0.6054,-1,123840,123840,-1,1008128,1005184,-1,0,0,-1,653696,652288,-1,123840,123840,-1,1661824,1657472,-1,450soplex
9884,2097152,4194304,-1,2097152,4194304,-1,128,128,-1,128,128,-1,2,2,x,2,2,x,l,l,x,l,l,x,d,d,x,d,d,x,a,a,x,a,a,x,7495681,1212,-1,2504319,13454,-1,1212,1212,-1,8288,8251,-1,0.0002,1,-1,0.0033,0.6133,-1,155136,155136,-1,1060864,1054592,-1,0,0,-1,661248,658688,-1,155136,155136,-1,1722112,1713280,-1,450soplex
9926,2097152,4194304,-1,2097152,4194304,-1,256,256,-1,256,256,-1,2,2,x,2,2,x,l,l,x,l,l,x,d,d,x,d,d,x,a,a,x,a,a,x,7495681,797,-1,2504319,7007,-1,797,796,-1,4379,4348,-1,0.0001,0.9987,-1,0.0017,0.6205,-1,204032,203776,-1,1121024,1110272,-1,0,0,-1,672768,668672,-1,204032,203776,-1,1793792,1778944,-1,450soplex
9968,2097152,4194304,-1,2097152,4194304,-1,512,512,-1,512,512,-1,2,2,x,2,2,x,l,l,x,l,l,x,d,d,x,d,d,x,a,a,x,a,a,x,7495681,534,-1,2504319,3700,-1,534,533,-1,2358,2299,-1,0.0001,0.9981,-1,0.0009,0.6214,-1,273408,272896,-1,1207296,1172992,-1,0,0,-1,687104,681472,-1,273408,272896,-1,1894400,1854464,-1,450soplex
10010,2097152,4194304,-1,2097152,4194304,-1,8,8,-1,8,8,-1,4,4,x,4,4,x,l,l,x,l,l,x,d,d,x,d,d,x,a,a,x,a,a,x,7495681,10566,-1,2504319,151140,-1,10566,10566,-1,90797,90797,-1,0.0014,1,-1,0.0363,0.6007,-1,84528,84528,-1,726376,726376,-1,0,0,-1,482744,482744,-1,84528,84528,-1,1209120,1209120,-1,450soplex
10052,2097152,4194304,-1,2097152,4194304,-1,16,16,-1,16,16,-1,4,4,x,4,4,x,l,l,x,l,l,x,d,d,x,d,d,x,a,a,x,a,a,x,7495681,5700,-1,2504319,97680,-1,5700,5700,-1,57907,57905,-1,0.0008,1,-1,0.0231,0.5928,-1,91200,91200,-1,926512,926480,-1,0,0,-1,636368,636368,-1,91200,91200,-1,1562880,1562848,-1,450soplex
10094,2097152,4194304,-1,2097152,4194304,-1,32,32,-1,32,32,-1,4,4,x,4,4,x,l,l,x,l,l,x,d,d,x,d,d,x,a,a,x,a,a,x,7495681,3253,-1,2504319,50236,-1,3253,3253,-1,30047,30044,-1,0.0004,1,-1,0.012,0.5981,-1,104096,104096,-1,961504,961408,-1,0,0,-1,646048,646048,-1,104096,104096,-1,1607552,1607456,-1,450soplex
10136,2097152,4194304,-1,2097152,4194304,-1,64,64,-1,64,64,-1,4,4,x,4,4,x,l,l,x,l,l,x,d,d,x,d,d,x,a,a,x,a,a,x,7495681,1935,-1,2504319,25849,-1,1935,1935,-1,15657,15651,-1,0.0003,1,-1,0.0063,0.6055,-1,123840,123840,-1,1002048,1001664,-1,0,0,-1,652288,652288,-1,123840,123840,-1,1654336,1653952,-1,450soplex
10178,2097152,4194304,-1,2097152,4194304,-1,128,128,-1,128,128,-1,4,4,x,4,4,x,l,l,x,l,l,x,d,d,x,d,d,x,a,a,x,a,a,x,7495681,1212,-1,2504319,13334,-1,1212,1212,-1,8189,8183,-1,0.0002,1,-1,0.0033,0.6137,-1,155136,155136,-1,1048192,1047424,-1,0,0,-1,658560,658560,-1,155136,155136,-1,1706752,1705984,-1,450soplex
10220,2097152,4194304,-1,2097152,4194304,-1,256,256,-1,256,256,-1,4,4,x,4,4,x,l,l,x,l,l,x,d,d,x,d,d,x,a,a,x,a,a,x,7495681,796,-1,2504319,6892,-1,796,796,-1,4283,4279,-1,0.0001,1,-1,0.0017,0.6209,-1,203776,203776,-1,1096448,1095424,-1,0,0,-1,667904,667904,-1,203776,203776,-1,1764352,1763328,-1,450soplex
10262,2097152,4194304,-1,2097152,4194304,-1,512,512,-1,512,512,-1,4,4,x,4,4,x,l,l,x,l,l,x,d,d,x,d,d,x,a,a,x,a,a,x,7495681,533,-1,2504319,3575,-1,533,533,-1,2245,2240,-1,0.0001,1,-1,0.0009,0.6266,-1,272896,272896,-1,1149440,1146880,-1,0,0,-1,680960,680448,-1,272896,272896,-1,1830400,1827328,-1,450soplex
10304,2097152,4194304,-1,2097152,4194304,-1,8,8,-1,8,8,-1,8,8,x,8,8,x,l,l,x,l,l,x,d,d,x,d,d,x,a,a,x,a,a,x,7495681,10566,-1,2504319,151140,-1,10566,10566,-1,90797,90797,-1,0.0014,1,-1,0.0363,0.6007,-1,84528,84528,-1,726376,726376,-1,0,0,-1,482744,482744,-1,84528,84528,-1,1209120,1209120,-1,450soplex
10346,2097152,4194304,-1,2097152,4194304,-1,16,16,-1,16,16,-1,8,8,x,8,8,x,l,l,x,l,l,x,d,d,x,d,d,x,a,a,x,a,a,x,7495681,5700,-1,2504319,97678,-1,5700,5700,-1,57905,57905,-1,0.0008,1,-1,0.0231,0.5928,-1,91200,91200,-1,926480,926480,-1,0,0,-1,636368,636368,-1,91200,91200,-1,1562848,1562848,-1,450soplex
10388,2097152,4194304,-1,2097152,4194304,-1,32,32,-1,32,32,-1,8,8,x,8,8,x,l,l,x,l,l,x,d,d,x,d,d,x,a,a,x,a,a,x,7495681,3253,-1,2504319,50233,-1,3253,3253,-1,30044,30044,-1,0.0004,1,-1,0.012,0.5981,-1,104096,104096,-1,961408,961408,-1,0,0,-1,646048,646048,-1,104096,104096,-1,1607456,1607456,-1,450soplex
10430,2097152,4194304,-1,2097152,4194304,-1,64,64,-1,64,64,-1,8,8,x,8,8,x,l,l,x,l,l,x,d,d,x,d,d,x,a,a,x,a,a,x,7495681,1935,-1,2504319,25843,-1,1935,1935,-1,15651,15651,-1,0.0003,1,-1,0.0062,0.6056,-1,123840,123840,-1,1001664,1001664,-1,0,0,-1,652288,652288,-1,123840,123840,-1,1653952,1653952,-1,450soplex
10472,2097152,4194304,-1,2097152,4194304,-1,128,128,-1,128,128,-1,8,8,x,8,8,x,l,l,x,l,l,x,d,d,x,d,d,x,a,a,x,a,a,x,7495681,1212,-1,2504319,13326,-1,1212,1212,-1,8181,8181,-1,0.0002,1,-1,0.0033,0.6139,-1,155136,155136,-1,1047168,1047168,-1,0,0,-1,658560,658560,-1,155136,155136,-1,1705728,1705728,-1,450soplex
10514,2097152,4194304,-1,2097152,4194304,-1,256,256,-1,256,256,-1,8,8,x,8,8,x,l,l,x,l,l,x,d,d,x,d,d,x,a,a,x,a,a,x,7495681,796,-1,2504319,6887,-1,796,796,-1,4278,4278,-1,0.0001,1,-1,0.0017,0.6212,-1,203776,203776,-1,1095168,1095168,-1,0,0,-1,667904,667904,-1,203776,203776,-1,1763072,1763072,-1,450soplex
10556,2097152,4194304,-1,2097152,4194304,-1,512,512,-1,512,512,-1,8,8,x,8,8,x,l,l,x,l,l,x,d,d,x,d,d,x,a,a,x,a,a,x,7495681,533,-1,2504319,3569,-1,533,533,-1,2240,2240,-1,0.0001,1,-1,0.0009,0.6276,-1,272896,272896,-1,1146880,1146880,-1,0,0,-1,680448,680448,-1,272896,272896,-1,1827328,1827328,-1,450soplex
10598,2097152,4194304,-1,2097152,4194304,-1,8,8,-1,8,8,-1,1,1,x,1,1,x,l,l,x,l,l,x,d,d,x,d,d,x,a,a,x,a,a,x,8163668,4269,-1,1836332,905098,-1,4269,4269,-1,457708,461428,-1,0.0005,1,-1,0.2493,0.5098,-1,34152,34152,-1,3661664,3660640,-1,0,0,-1,3579120,3579112,-1,34152,34152,-1,7240784,7239752,-1,462libquantum
10640,2097152,4194304,-1,2097152,4194304,-1,16,16,-1,16,16,-1,1,1,x,1,1,x,l,l,x,l,l,x,d,d,x,d,d,x,a,a,x,a,a,x,8163668,2287,-1,1836332,454559,-1,2287,2287,-1,230662,232757,-1,0.0003,1,-1,0.1256,0.5121,-1,36592,36592,-1,3690592,3689232,-1,0,0,-1,3582352,3582304,-1,36592,36592,-1,7272944,7271536,-1,462libquantum
10682,2097152,4194304,-1,2097152,4194304,-1,32,32,-1,32,32,-1,1,1,x,1,1,x,l,l,x,l,l,x,d,d,x,d,d,x,a,a,x,a,a,x,8163668,1293,-1,1836332,227751,-1,1293,1293,-1,115657,116894,-1,0.0002,1,-1,0.063,0.5133,-1,41376,41376,-1,3701024,3698816,-1,0,0,-1,3587008,3586784,-1,41376,41376,-1,7288032,7285600,-1,462libquantum
10724,2097152,4194304,-1,2097152,4194304,-1,64,64,-1,64,64,-1,1,1,x,1,1,x,l,l,x,l,l,x,d,d,x,d,d,x,a,a,x,a,a,x,8163668,755,-1,1836332,114208,-1,755,755,-1,58078,58747,-1,0.0001,1,-1,0.0316,0.5144,-1,48320,48320,-1,3716992,3712192,-1,0,0,-1,3592320,3591360,-1,48320,48320,-1,7309312,7303552,-1,462libquantum
10766,2097152,4194304,-1,2097152,4194304,-1,128,128,-1,128,128,-1,1,1,x,1,1,x,l,l,x,l,l,x,d,d,x,d,d,x,a,a,x,a,a,x,8163668,458,-1,1836332,57388,-1,458,458,-1,29252,29569,-1,0.0001,1,-1,0.0159,0.5152,-1,58624,58624,-1,3744256,3730048,-1,0,0,-1,3601408,3597440,-1,58624,58624,-1,7345664,7327488,-1,462libquantum
10808,2097152,4194304,-1,2097152,4194304,-1,256,256,-1,256,256,-1,1,1,x,1,1,x,l,l,x,l,l,x,d,d,x,d,d,x,a,a,x,a,a,x,8163668,289,-1,1836332,29070,-1,289,289,-1,14893,14973,-1,0,1,-1,0.0081,0.5151,-1,73984,73984,-1,3812608,3760896,-1,0,0,-1,3629312,3613184,-1,73984,73984,-1,7441920,7374080,-1,462libquantum
10850,2097152,4194304,-1,2097152,4194304,-1,512,512,-1,512,512,-1,1,1,x,1,1,x,l,l,x,l,l,x,d,d,x,d,d,x,a,a,x,a,a,x,8163668,194,-1,1836332,15187,-1,194,194,-1,7897,7757,-1,0,1,-1,0.0043,0.5108,-1,99328,99328,-1,4043264,3843584,-1,0,0,-1,3732480,3667456,-1,99328,99328,-1,7775744,7511040,-1,462libquantum
10892,2097152,4194304,-1,2097152,4194304,-1,8,8,-1,8,8,-1,2,2,x,2,2,x,l,l,x,l,l,x,d,d,x,d,d,x,a,a,x,a,a,x,8163668,4269,-1,1836332,905078,-1,4269,4269,-1,457690,458706,-1,0.0005,1,-1,0.2492,0.5068,-1,34152,34152,-1,3661520,3660544,-1,0,0,-1,3579104,3579104,-1,34152,34152,-1,7240624,7239648,-1,462libquantum
10934,2097152,4194304,-1,2097152,4194304,-1,16,16,-1,16,16,-1,2,2,x,2,2,x,l,l,x,l,l,x,d,d,x,d,d,x,a,a,x,a,a,x,8163668,2287,-1,1836332,454525,-1,2287,2287,-1,230634,231204,-1,0.0003,1,-1,0.1256,0.5087,-1,36592,36592,-1,3690144,3688992,-1,0,0,-1,3582256,3582256,-1,36592,36592,-1,7272400,7271248,-1,462libquantum
10976,2097152,4194304,-1,2097152,4194304,-1,32,32,-1,32,32,-1,2,2,x,2,2,x,l,l,x,l,l,x,d,d,x,d,d,x,a,a,x,a,a,x,8163668,1293,-1,1836332,227693,-1,1293,1293,-1,115613,115928,-1,0.0002,1,-1,0.063,0.5091,-1,41376,41376,-1,3699616,3698144,-1,0,0,-1,3586560,3586560,-1,41376,41376,-1,7286176,7284704,-1,462libquantum
11018,2097152,4194304,-1,2097152,4194304,-1,64,64,-1,64,64,-1,2,2,x,2,2,x,l,l,x,l,l,x,d,d,x,d,d,x,a,a,x,a,a,x,8163668,755,-1,1836332,114083,-1,755,755,-1,57983,58149,-1,0.0001,1,-1,0.0316,0.5097,-1,48320,48320,-1,3710912,3708480,-1,0,0,-1,3590400,3590400,-1,48320,48320,-1,7301312,7298880,-1,462libquantum
11060,2097152,4194304,-1,2097152,4194304,-1,128,128,-1,128,128,-1,2,2,x,2,2,x,l,l,x,l,l,x,d,d,x,d,d,x,a,a,x,a,a,x,8163668,458,-1,1836332,57174,-1,458,458,-1,29100,29180,-1,0.0001,1,-1,0.0158,0.5104,-1,58624,58624,-1,3724800,3720704,-1,0,0,-1,3593472,3593472,-1,58624,58624,-1,7318272,7314176,-1,462libquantum
11102,2097152,4194304,-1,2097152,4194304,-1,256,256,-1,256,256,-1,2,2,x,2,2,x,l,l,x,l,l,x,d,d,x,d,d,x,a,a,x,a,a,x,8163668,287,-1,1836332,28695,-1,287,287,-1,14644,14653,-1,0,1,-1,0.008,0.5106,-1,73472,73472,-1,3748864,3735552,-1,0,0,-1,3597056,3597056,-1,73472,73472,-1,7345920,7332608,-1,462libquantum
11144,2097152,4194304,-1,2097152,4194304,-1,512,512,-1,512,512,-1,2,2,x,2,2,x,l,l,x,l,l,x,d,d,x,d,d,x,a,a,x,a,a,x,8163668,192,-1,1836332,14440,-1,192,192,-1,7400,7372,-1,0,1,-1,0.004,0.5105,-1,98304,98304,-1,3788800,3756544,-1,0,0,-1,3604480,3602432,-1,98304,98304,-1,7393280,7358976,-1,462libquantum
11186,2097152,4194304,-1,2097152,4194304,-1,8,8,-1,8,8,-1,4,4,x,4,4,x,l,l,x,l,l,x,d,d,x,d,d,x,a,a,x,a,a,x,8163668,4269,-1,1836332,905078,-1,4269,4269,-1,457690,458262,-1,0.0005,1,-1,0.2492,0.5063,-1,34152,34152,-1,3661520,3660320,-1,0,0,-1,3579104,3579104,-1,34152,34152,-1,7240624,7239424,-1,462libquantum
11228,2097152,4194304,-1,2097152,4194304,-1,16,16,-1,16,16,-1,4,4,x,4,4,x,l,l,x,l,l,x,d,d,x,d,d,x,a,a,x,a,a,x,8163668,2287,-1,1836332,454524,-1,2287,2287,-1,230633,230968,-1,0.0003,1,-1,0.1256,0.5082,-1,36592,36592,-1,3690128,3688624,-1,0,0,-1,3582256,3582256,-1,36592,36592,-1,7272384,7270880,-1,462libquantum
11270,2097152,4194304,-1,2097152,4194304,-1,32,32,-1,32,32,-1,4,4,x,4,4,x,l,l,x,l,l,x,d,d,x,d,d,x,a,a,x,a,a,x,8163668,1293,-1,1836332,227692,-1,1293,1293,-1,115612,115809,-1,0.0002,1,-1,0.063,0.5086,-1,41376,41376,-1,3699584,3697824,-1,0,0,-1,3586560,3586560,-1,41376,41376,-1,7286144,7284384,-1,462libquantum
11312,2097152,4194304,-1,2097152,4194304,-1,64,64,-1,64,64,-1,4,4,x,4,4,x,l,l,x,l,l,x,d,d,x,d,d,x,a,a,x,a,a,x,8163668,755,-1,1836332,114077,-1,755,755,-1,57977,58094,-1,0.0001,1,-1,0.0316,0.5093,-1,48320,48320,-1,3710528,3708352,-1,0,0,-1,3590400,3590400,-1,48320,48320,-1,7300928,7298752,-1,462libquantum
11354,2097152,4194304,-1,2097152,4194304,-1,128,128,-1,128,128,-1,4,4,x,4,4,x,l,l,x,l,l,x,d,d,x,d,d,x,a,a,x,a,a,x,8163668,458,-1,1836332,57161,-1,458,458,-1,29087,29152,-1,0.0001,1,-1,0.0158,0.51,-1,58624,58624,-1,3723136,3720448,-1,0,0,-1,3593472,3593472,-1,58624,58624,-1,7316608,7313920,-1,462libquantum
11396,2097152,4194304,-1,2097152,4194304,-1,256,256,-1,256,256,-1,4,4,x,4,4,x,l,l,x,l,l,x,d,d,x,d,d,x,a,a,x,a,a,x,8163668,287,-1,1836332,28656,-1,287,287,-1,14605,14640,-1,0,1,-1,0.008,0.5109,-1,73472,73472,-1,3738880,3735296,-1,0,0,-1,3597056,3597056,-1,73472,73472,-1,7335936,7332352,-1,462libquantum
11438,2097152,4194304,-1,2097152,4194304,-1,512,512,-1,512,512,-1,4,4,x,4,4,x,l,l,x,l,l,x,d,d,x,d,d,x,a,a,x,a,a,x,8163668,192,-1,1836332,14382,-1,192,192,-1,7346,7367,-1,0,1,-1,0.004,0.5122,-1,98304,98304,-1,3761152,3756544,-1,0,0,-1,3602432,3602432,-1,98304,98304,-1,7363584,7358976,-1,462libquantum
11480,2097152,4194304,-1,2097152,4194304,-1,8,8,-1,8,8,-1,8,8,x,8,8,x,l,l,x,l,l,x,d,d,x,d,d,x,a,a,x,a,a,x,8163668,4269,-1,1836332,905078,-1,4269,4269,-1,457690,457539,-1,0.0005,1,-1,0.2492,0.5055,-1,34152,34152,-1,3661520,3660256,-1,0,0,-1,3579104,3579104,-1,34152,34152,-1,7240624,7239360,-1,462libquantum
11522,2097152,4194304,-1,2097152,4194304,-1,16,16,-1,16,16,-1,8,8,x,8,8,x,l,l,x,l,l,x,d,d,x,d,d,x,a,a,x,a,a,x,8163668,2287,-1,1836332,454524,-1,2287,2287,-1,230633,230534,-1,0.0003,1,-1,0.1256,0.5072,-1,36592,36592,-1,3690128,3688480,-1,0,0,-1,3582256,3582256,-1,36592,36592,-1,7272384,7270736,-1,462libquantum
11564,2097152,4194304,-1,2097152,4194304,-1,32,32,-1,32,32,-1,8,8,x,8,8,x,l,l,x,l,l,x,d,d,x,d,d,x,a,a,x,a,a,x,8163668,1293,-1,1836332,227692,-1,1293,1293,-1,115612,115549,-1,0.0002,1,-1,0.063,0.5075,-1,41376,41376,-1,3699584,3697504,-1,0,0,-1,3586560,3586560,-1,41376,41376,-1,7286144,7284064,-1,462libquantum
11606,2097152,4194304,-1,2097152,4194304,-1,64,64,-1,64,64,-1,8,8,x,8,8,x,l,l,x,l,l,x,d,d,x,d,d,x,a,a,x,a,a,x,8163668,755,-1,1836332,114077,-1,755,755,-1,57977,57937,-1,0.0001,1,-1,0.0316,0.5079,-1,48320,48320,-1,3710528,3707840,-1,0,0,-1,3590400,3590400,-1,48320,48320,-1,7300928,7298240,-1,462libquantum
11648,2097152,4194304,-1,2097152,4194304,-1,128,128,-1,128,128,-1,8,8,x,8,8,x,l,l,x,l,l,x,d,d,x,d,d,x,a,a,x,a,a,x,8163668,458,-1,1836332,57161,-1,458,458,-1,29087,29060,-1,0.0001,1,-1,0.0158,0.5084,-1,58624,58624,-1,3723136,3719552,-1,0,0,-1,3593472,3593472,-1,58624,58624,-1,7316608,7313024,-1,462libquantum
11690,2097152,4194304,-1,2097152,4194304,-1,256,256,-1,256,256,-1,8,8,x,8,8,x,l,l,x,l,l,x,d,d,x,d,d,x,a,a,x,a,a,x,8163668,287,-1,1836332,28656,-1,287,287,-1,14605,14587,-1,0,1,-1,0.008,0.509,-1,73472,73472,-1,3738880,3734016,-1,0,0,-1,3597056,3597056,-1,73472,73472,-1,7335936,7331072,-1,462libquantum
11732,2097152,4194304,-1,2097152,4194304,-1,512,512,-1,512,512,-1,8,8,x,8,8,x,l,l,x,l,l,x,d,d,x,d,d,x,a,a,x,a,a,x,8163668,192,-1,1836332,14382,-1,192,192,-1,7346,7335,-1,0,1,-1,0.004,0.51,-1,98304,98304,-1,3761152,3755008,-1,0,0,-1,3602432,3602432,-1,98304,98304,-1,7363584,7357440,-1,462libquantum
11774,2097152,4194304,-1,2097152,4194304,-1,8,8,-1,8,8,-1,1,1,x,1,1,x,l,l,x,l,l,x,d,d,x,d,d,x,a,a,x,a,a,x,7301736,14314,-1,2698264,330401,-1,14314,14314,-1,172897,186948,-1,0.002,1,-1,0.0641,0.5658,-1,114512,114512,-1,1383176,1377760,-1,0,0,-1,1260032,1257040,-1,114512,114512,-1,2643208,2634800,-1,464h264ref
11816,2097152,4194304,-1,2097152,4194304,-1,16,16,-1,16,16,-1,1,1,x,1,1,x,l,l,x,l,l,x,d,d,x,d,d,x,a,a,x,a,a,x,7301736,7652,-1,2698264,255384,-1,7652,7652,-1,132057,146357,-1,0.001,1,-1,0.0489,0.5731,-1,122432,122432,-1,2112912,2099952,-1,0,0,-1,1973232,1966400,-1,122432,122432,-1,4086144,4066352,-1,464h264ref
11858,2097152,4194304,-1,2097152,4194304,-1,32,32,-1,32,32,-1,1,1,x,1,1,x,l,l,x,l,l,x,d,d,x,d,d,x,a,a,x,a,a,x,7301736,4264,-1,2698264,131590,-1,4264,4264,-1,68221,76133,-1,0.0006,1,-1,0.0253,0.5786,-1,136448,136448,-1,2183072,2163040,-1,0,0,-1,2027808,2018048,-1,136448,136448,-1,4210880,4181088,-1,464h264ref
11900,2097152,4194304,-1,2097152,4194304,-1,64,64,-1,64,64,-1,1,1,x,1,1,x,l,l,x,l,l,x,d,d,x,d,d,x,a,a,x,a,a,x,7301736,2464,-1,2698264,69222,-1,2464,2464,-1,36010,40626,-1,0.0003,1,-1,0.0133,0.5869,-1,157696,157696,-1,2304640,2269376,-1,0,0,-1,2125568,2108480,-1,157696,157696,-1,4430208,4377856,-1,464h264ref
11942,2097152,4194304,-1,2097152,4194304,-1,128,128,-1,128,128,-1,1,1,x,1,1,x,l,l,x,l,l,x,d,d,x,d,d,x,a,a,x,a,a,x,7301736,1467,-1,2698264,37787,-1,1467,1467,-1,19711,22614,-1,0.0002,1,-1,0.0073,0.5985,-1,187776,187776,-1,2523008,2460800,-1,0,0,-1,2313728,2283136,-1,187776,187776,-1,4836736,4743936,-1,464h264ref
11984,2097152,4194304,-1,2097152,4194304,-1,256,256,-1,256,256,-1,1,1,x,1,1,x,l,l,x,l,l,x,d,d,x,d,d,x,a,a,x,a,a,x,7301736,890,-1,2698264,22375,-1,890,890,-1,11768,13394,-1,0.0001,1,-1,0.0044,0.5986,-1,227840,227840,-1,3012608,2844928,-1,0,0,-1,2715392,2632960,-1,227840,227840,-1,5728000,5477888,-1,464h264ref
12026,2097152,4194304,-1,2097152,4194304,-1,512,512,-1,512,512,-1,1,1,x,1,1,x,l,l,x,l,l,x,d,d,x,d,d,x,a,a,x,a,a,x,7301736,563,-1,2698264,14410,-1,563,563,-1,7624,8287,-1,0.0001,1,-1,0.0028,0.5751,-1,288256,288256,-1,3903488,3603456,-1,0,0,-1,3474432,3324416,-1,288256,288256,-1,7377920,6927872,-1,464h264ref
12068,2097152,4194304,-1,2097152,4194304,-1,8,8,-1,8,8,-1,2,2,x,2,2,x,l,l,x,l,l,x,d,d,x,d,d,x,a,a,x,a,a,x,7301736,14310,-1,2698264,329543,-1,14310,14310,-1,172340,172678,-1,0.002,1,-1,0.0639,0.524,-1,114480,114480,-1,1378720,1376912,-1,0,0,-1,1257624,1256400,-1,114480,114480,-1,2636344,2633312,-1,464h264ref
12110,2097152,4194304,-1,2097152,4194304,-1,16,16,-1,16,16,-1,2,2,x,2,2,x,l,l,x,l,l,x,d,d,x,d,d,x,a,a,x,a,a,x,7301736,7649,-1,2698264,254300,-1,7649,7649,-1,131376,131902,-1,0.001,1,-1,0.0487,0.5187,-1,122384,122384,-1,2102016,2097888,-1,0,0,-1,1966784,1964032,-1,122384,122384,-1,4068800,4061920,-1,464h264ref
12152,2097152,4194304,-1,2097152,4194304,-1,32,32,-1,32,32,-1,2,2,x,2,2,x,l,l,x,l,l,x,d,d,x,d,d,x,a,a,x,a,a,x,7301736,4261,-1,2698264,130667,-1,4261,4261,-1,67632,68057,-1,0.0006,1,-1,0.0251,0.5208,-1,136352,136352,-1,2164224,2158848,-1,0,0,-1,2017120,2014144,-1,136352,136352,-1,4181344,4172992,-1,464h264ref
12194,2097152,4194304,-1,2097152,4194304,-1,64,64,-1,64,64,-1,2,2,x,2,2,x,l,l,x,l,l,x,d,d,x,d,d,x,a,a,x,a,a,x,7301736,2462,-1,2698264,68295,-1,2462,2462,-1,35417,35773,-1,0.0003,1,-1,0.0131,0.5238,-1,157568,157568,-1,2266688,2259328,-1,0,0,-1,2104192,2100800,-1,157568,157568,-1,4370880,4360128,-1,464h264ref
12236,2097152,4194304,-1,2097152,4194304,-1,128,128,-1,128,128,-1,2,2,x,2,2,x,l,l,x,l,l,x,d,d,x,d,d,x,a,a,x,a,a,x,7301736,1464,-1,2698264,36924,-1,1464,1464,-1,19167,19633,-1,0.0002,1,-1,0.0071,0.5317,-1,187392,187392,-1,2453376,2441856,-1,0,0,-1,2272896,2267904,-1,187392,187392,-1,4726272,4709760,-1,464h264ref
12278,2097152,4194304,-1,2097152,4194304,-1,256,256,-1,256,256,-1,2,2,x,2,2,x,l,l,x,l,l,x,d,d,x,d,d,x,a,a,x,a,a,x,7301736,888,-1,2698264,21284,-1,888,888,-1,11046,12208,-1,0.0001,1,-1,0.0041,0.5736,-1,227328,227328,-1,2827776,2790400,-1,0,0,-1,2620928,2603264,-1,227328,227328,-1,5448704,5393664,-1,464h264ref
12320,2097152,4194304,-1,2097152,4194304,-1,512,512,-1,512,512,-1,2,2,x,2,2,x,l,l,x,l,l,x,d,d,x,d,d,x,a,a,x,a,a,x,7301736,562,-1,2698264,13512,-1,562,562,-1,6999,9343,-1,0.0001,1,-1,0.0026,0.6915,-1,287744,287744,-1,3583488,3495936,-1,0,0,-1,3334656,3284992,-1,287744,287744,-1,6918144,6780928,-1,464h264ref
12362,2097152,4194304,-1,2097152,4194304,-1,8,8,-1,8,8,-1,4,4,x,4,4,x,l,l,x,l,l,x,d,d,x,d,d,x,a,a,x,a,a,x,7301736,14310,-1,2698264,329194,-1,14310,14310,-1,172139,172182,-1,0.002,1,-1,0.0638,0.523,-1,114480,114480,-1,1377112,1376888,-1,0,0,-1,1256440,1256344,-1,114480,114480,-1,2633552,2633232,-1,464h264ref
12404,2097152,4194304,-1,2097152,4194304,-1,16,16,-1,16,16,-1,4,4,x,4,4,x,l,l,x,l,l,x,d,d,x,d,d,x,a,a,x,a,a,x,7301736,7649,-1,2698264,253962,-1,7649,7649,-1,131181,131227,-1,0.001,1,-1,0.0486,0.5167,-1,122384,122384,-1,2098896,2097808,-1,0,0,-1,1964496,1963904,-1,122384,122384,-1,4063392,4061712,-1,464h264ref
12446,2097152,4194304,-1,2097152,4194304,-1,32,32,-1,32,32,-1,4,4,x,4,4,x,l,l,x,l,l,x,d,d,x,d,d,x,a,a,x,a,a,x,7301736,4261,-1,2698264,130492,-1,4261,4261,-1,67527,67546,-1,0.0006,1,-1,0.025,0.5176,-1,136352,136352,-1,2160864,2158720,-1,0,0,-1,2014880,2013920,-1,136352,136352,-1,4175744,4172640,-1,464h264ref
12488,2097152,4194304,-1,2097152,4194304,-1,64,64,-1,64,64,-1,4,4,x,4,4,x,l,l,x,l,l,x,d,d,x,d,d,x,a,a,x,a,a,x,7301736,2462,-1,2698264,68207,-1,2462,2462,-1,35358,35365,-1,0.0003,1,-1,0.0131,0.5185,-1,157568,157568,-1,2262912,2259008,-1,0,0,-1,2102336,2100224,-1,157568,157568,-1,4365248,4359232,-1,464h264ref
12530,2097152,4194304,-1,2097152,4194304,-1,128,128,-1,128,128,-1,4,4,x,4,4,x,l,l,x,l,l,x,d,d,x,d,d,x,a,a,x,a,a,x,7301736,1464,-1,2698264,36889,-1,1464,1464,-1,19140,19176,-1,0.0002,1,-1,0.0071,0.5198,-1,187392,187392,-1,2449920,2440704,-1,0,0,-1,2271872,2266752,-1,187392,187392,-1,4721792,4707456,-1,464h264ref
12572,2097152,4194304,-1,2097152,4194304,-1,256,256,-1,256,256,-1,4,4,x,4,4,x,l,l,x,l,l,x,d,d,x,d,d,x,a,a,x,a,a,x,7301736,888,-1,2698264,21180,-1,888,888,-1,10982,11092,-1,0.0001,1,-1,0.0041,0.5237,-1,227328,227328,-1,2811392,2786816,-1,0,0,-1,2610688,2594304,-1,227328,227328,-1,5422080,5381120,-1,464h264ref
12614,2097152,4194304,-1,2097152,4194304,-1,512,512,-1,512,512,-1,4,4,x,4,4,x,l,l,x,l,l,x,d,d,x,d,d,x,a,a,x,a,a,x,7301736,562,-1,2698264,13463,-1,562,562,-1,6965,7852,-1,0.0001,1,-1,0.0026,0.5832,-1,287744,287744,-1,3566080,3468288,-1,0,0,-1,3326976,3249664,-1,287744,287744,-1,6893056,6717952,-1,464h264ref
12656,2097152,4194304,-1,2097152,4194304,-1,8,8,-1,8,8,-1,8,8,x,8,8,x,l,l,x,l,l,x,d,d,x,d,d,x,a,a,x,a,a,x,7301736,14310,-1,2698264,329170,-1,14310,14310,-1,172120,172111,-1,0.002,1,-1,0.0638,0.5229,-1,114480,114480,-1,1376960,1376888,-1,0,0,-1,1256400,1256344,-1,114480,114480,-1,2633360,2633232,-1,464h264ref
12698,2097152,4194304,-1,2097152,4194304,-1,16,16,-1,16,16,-1,8,8,x,8,8,x,l,l,x,l,l,x,d,d,x,d,d,x,a,a,x,a,a,x,7301736,7649,-1,2698264,253914,-1,7649,7649,-1,131144,131113,-1,0.001,1,-1,0.0486,0.5164,-1,122384,122384,-1,2098304,2097808,-1,0,0,-1,1964320,1963904,-1,122384,122384,-1,4062624,4061712,-1,464h264ref
12740,2097152,4194304,-1,2097152,4194304,-1,32,32,-1,32,32,-1,8,8,x,8,8,x,l,l,x,l,l,x,d,d,x,d,d,x,a,a,x,a,a,x,7301736,4261,-1,2698264,130451,-1,4261,4261,-1,67493,67460,-1,0.0006,1,-1,0.025,0.5171,-1,136352,136352,-1,2159776,2158720,-1,0,0,-1,2014656,2013920,-1,136352,136352,-1,4174432,4172640,-1,464h264ref
12782,2097152,4194304,-1,2097152,4194304,-1,64,64,-1,64,64,-1,8,8,x,8,8,x,l,l,x,l,l,x,d,d,x,d,d,x,a,a,x,a,a,x,7301736,2462,-1,2698264,68188,-1,2462,2462,-1,35341,35297,-1,0.0003,1,-1,0.0131,0.5176,-1,157568,157568,-1,2261824,2259008,-1,0,0,-1,2102208,2100224,-1,157568,157568,-1,4364032,4359232,-1,464h264ref
12824,2097152,4194304,-1,2097152,4194304,-1,128,128,-1,128,128,-1,8,8,x,8,8,x,l,l,x,l,l,x,d,d,x,d,d,x,a,a,x,a,a,x,7301736,1464,-1,2698264,36917,-1,1464,1464,-1,19149,19068,-1,0.0002,1,-1,0.0071,0.5165,-1,187392,187392,-1,2451072,2440704,-1,0,0,-1,2274304,2266752,-1,187392,187392,-1,4725376,4707456,-1,464h264ref
12866,2097152,4194304,-1,2097152,4194304,-1,256,256,-1,256,256,-1,8,8,x,8,8,x,l,l,x,l,l,x,d,d,x,d,d,x,a,a,x,a,a,x,7301736,888,-1,2698264,21263,-1,888,888,-1,11024,10885,-1,0.0001,1,-1,0.0041,0.5119,-1,227328,227328,-1,2822144,2786560,-1,0,0,-1,2621184,2594048,-1,227328,227328,-1,5443328,5380608,-1,464h264ref
12908,2097152,4194304,-1,2097152,4194304,-1,512,512,-1,512,512,-1,8,8,x,8,8,x,l,l,x,l,l,x,d,d,x,d,d,x,a,a,x,a,a,x,7301736,562,-1,2698264,13512,-1,562,562,-1,6986,6791,-1,0.0001,1,-1,0.0026,0.5026,-1,287744,287744,-1,3576832,3464192,-1,0,0,-1,3341312,3245056,-1,287744,287744,-1,6918144,6709248,-1,464h264ref
12950,2097152,4194304,-1,2097152,4194304,-1,8,8,-1,8,8,-1,1,1,x,1,1,x,l,l,x,l,l,x,d,d,x,d,d,x,a,a,x,a,a,x,6837979,4446,-1,3162021,6215818,-1,4446,4446,-1,3113051,3113053,-1,0.0007,1,-1,0.9845,0.5008,-1,35568,35568,-1,24904408,24904408,-1,0,0,-1,24822136,24822136,-1,35568,35568,-1,49726544,49726544,-1,470lbm
12992,2097152,4194304,-1,2097152,4194304,-1,16,16,-1,16,16,-1,1,1,x,1,1,x,l,l,x,l,l,x,d,d,x,d,d,x,a,a,x,a,a,x,6837979,2398,-1,3162021,3109892,-1,2398,2398,-1,1558314,1558316,-1,0.0004,1,-1,0.4928,0.5011,-1,38368,38368,-1,24933024,24933024,-1,0,0,-1,24825248,24825248,-1,38368,38368,-1,49758272,49758272,-1,470lbm
13034,2097152,4194304,-1,2097152,4194304,-1,32,32,-1,32,32,-1,1,1,x,1,1,x,l,l,x,l,l,x,d,d,x,d,d,x,a,a,x,a,a,x,6837979,1362,-1,3162021,1555384,-1,1362,1362,-1,779462,779464,-1,0.0002,1,-1,0.2465,0.5011,-1,43584,43584,-1,24942784,24942784,-1,0,0,-1,24829504,24829504,-1,43584,43584,-1,49772288,49772288,-1,470lbm
13076,2097152,4194304,-1,2097152,4194304,-1,64,64,-1,64,64,-1,1,1,x,1,1,x,l,l,x,l,l,x,d,d,x,d,d,x,a,a,x,a,a,x,6837979,807,-1,3162021,777953,-1,807,807,-1,389932,389934,-1,0.0001,1,-1,0.1233,0.5012,-1,51648,51648,-1,24955648,24955648,-1,0,0,-1,24833344,24833344,-1,51648,51648,-1,49788992,49788992,-1,470lbm
13118,2097152,4194304,-1,2097152,4194304,-1,128,128,-1,128,128,-1,1,1,x,1,1,x,l,l,x,l,l,x,d,d,x,d,d,x,a,a,x,a,a,x,6837979,494,-1,3162021,389120,-1,494,494,-1,195085,195087,-1,0.0001,1,-1,0.0617,0.5014,-1,63232,63232,-1,24970880,24970880,-1,0,0,-1,24836480,24836480,-1,63232,63232,-1,49807360,49807360,-1,470lbm
13160,2097152,4194304,-1,2097152,4194304,-1,256,256,-1,256,256,-1,1,1,x,1,1,x,l,l,x,l,l,x,d,d,x,d,d,x,a,a,x,a,a,x,6837979,311,-1,3162021,194647,-1,311,311,-1,97616,97618,-1,0,1,-1,0.0309,0.5015,-1,79616,79616,-1,24989696,24989696,-1,0,0,-1,24839936,24839936,-1,79616,79616,-1,49829632,49829632,-1,470lbm
13202,2097152,4194304,-1,2097152,4194304,-1,512,512,-1,512,512,-1,1,1,x,1,1,x,l,l,x,l,l,x,d,d,x,d,d,x,a,a,x,a,a,x,6837979,208,-1,3162021,97396,-1,208,208,-1,48870,48872,-1,0,1,-1,0.0155,0.5018,-1,106496,106496,-1,25021440,25021440,-1,0,0,-1,24845312,24845312,-1,106496,106496,-1,49866752,49866752,-1,470lbm
13244,2097152,4194304,-1,2097152,4194304,-1,8,8,-1,8,8,-1,2,2,x,2,2,x,l,l,x,l,l,x,d,d,x,d,d,x,a,a,x,a,a,x,6837979,4446,-1,3162021,6215815,-1,4446,4446,-1,3113048,5691527,-1,0.0007,1,-1,0.9845,0.9157,-1,35568,35568,-1,24904384,24904384,-1,0,0,-1,24822136,24822136,-1,35568,35568,-1,49726520,49726520,-1,470lbm
13286,2097152,4194304,-1,2097152,4194304,-1,16,16,-1,16,16,-1,2,2,x,2,2,x,l,l,x,l,l,x,d,d,x,d,d,x,a,a,x,a,a,x,6837979,2398,-1,3162021,3109886,-1,2398,2398,-1,1558308,2847742,-1,0.0004,1,-1,0.4928,0.9157,-1,38368,38368,-1,24932928,24932928,-1,0,0,-1,24825248,24825248,-1,38368,38368,-1,49758176,49758176,-1,470lbm
13328,2097152,4194304,-1,2097152,4194304,-1,32,32,-1,32,32,-1,2,2,x,2,2,x,l,l,x,l,l,x,d,d,x,d,d,x,a,a,x,a,a,x,6837979,1362,-1,3162021,1555376,-1,1362,1362,-1,779454,1424304,-1,0.0002,1,-1,0.2465,0.9157,-1,43584,43584,-1,24942528,24942528,-1,0,0,-1,24829504,24829504,-1,43584,43584,-1,49772032,49772032,-1,470lbm
13370,2097152,4194304,-1,2097152,4194304,-1,64,64,-1,64,64,-1,2,2,x,2,2,x,l,l,x,l,l,x,d,d,x,d,d,x,a,a,x,a,a,x,6837979,807,-1,3162021,777919,-1,807,807,-1,389898,712383,-1,0.0001,1,-1,0.1233,0.9158,-1,51648,51648,-1,24953472,24953472,-1,0,0,-1,24833344,24833344,-1,51648,51648,-1,49786816,49786816,-1,470lbm
13412,2097152,4194304,-1,2097152,4194304,-1,128,128,-1,128,128,-1,2,2,x,2,2,x,l,l,x,l,l,x,d,d,x,d,d,x,a,a,x,a,a,x,6837979,494,-1,3162021,389084,-1,494,494,-1,195049,356316,-1,0.0001,1,-1,0.0617,0.9158,-1,63232,63232,-1,24966272,24966272,-1,0,0,-1,24836480,24836480,-1,63232,63232,-1,49802752,49802752,-1,470lbm
13454,2097152,4194304,-1,2097152,4194304,-1,256,256,-1,256,256,-1,2,2,x,2,2,x,l,l,x,l,l,x,d,d,x,d,d,x,a,a,x,a,a,x,6837979,311,-1,3162021,194617,-1,311,311,-1,97586,178233,-1,0,1,-1,0.0309,0.9158,-1,79616,79616,-1,24982016,24982016,-1,0,0,-1,24839936,24839936,-1,79616,79616,-1,49821952,49821952,-1,470lbm
13496,2097152,4194304,-1,2097152,4194304,-1,512,512,-1,512,512,-1,2,2,x,2,2,x,l,l,x,l,l,x,d,d,x,d,d,x,a,a,x,a,a,x,6837979,208,-1,3162021,97363,-1,208,208,-1,48837,89171,-1,0,1,-1,0.0154,0.9159,-1,106496,106496,-1,25004544,25004544,-1,0,0,-1,24845312,24845312,-1,106496,106496,-1,49849856,49849856,-1,470lbm
13538,2097152,4194304,-1,2097152,4194304,-1,8,8,-1,8,8,-1,4,4,x,4,4,x,l,l,x,l,l,x,d,d,x,d,d,x,a,a,x,a,a,x,6837979,4446,-1,3162021,6215815,-1,4446,4446,-1,3113048,5691489,-1,0.0007,1,-1,0.9845,0.9156,-1,35568,35568,-1,24904384,24904384,-1,0,0,-1,24822136,24822136,-1,35568,35568,-1,49726520,49726520,-1,470lbm
13580,2097152,4194304,-1,2097152,4194304,-1,16,16,-1,16,16,-1,4,4,x,4,4,x,l,l,x,l,l,x,d,d,x,d,d,x,a,a,x,a,a,x,6837979,2398,-1,3162021,3109886,-1,2398,2398,-1,1558308,2847710,-1,0.0004,1,-1,0.4928,0.9157,-1,38368,38368,-1,24932928,24932928,-1,0,0,-1,24825248,24825248,-1,38368,38368,-1,49758176,49758176,-1,470lbm
13622,2097152,4194304,-1,2097152,4194304,-1,32,32,-1,32,32,-1,4,4,x,4,4,x,l,l,x,l,l,x,d,d,x,d,d,x,a,a,x,a,a,x,6837979,1362,-1,3162021,1555376,-1,1362,1362,-1,779454,1424280,-1,0.0002,1,-1,0.2465,0.9157,-1,43584,43584,-1,24942528,24942528,-1,0,0,-1,24829504,24829504,-1,43584,43584,-1,49772032,49772032,-1,470lbm
13664,2097152,4194304,-1,2097152,4194304,-1,64,64,-1,64,64,-1,4,4,x,4,4,x,l,l,x,l,l,x,d,d,x,d,d,x,a,a,x,a,a,x,6837979,807,-1,3162021,777919,-1,807,807,-1,389898,712366,-1,0.0001,1,-1,0.1233,0.9157,-1,51648,51648,-1,24953472,24953472,-1,0,0,-1,24833344,24833344,-1,51648,51648,-1,49786816,49786816,-1,470lbm
13706,2097152,4194304,-1,2097152,4194304,-1,128,128,-1,128,128,-1,4,4,x,4,4,x,l,l,x,l,l,x,d,d,x,d,d,x,a,a,x,a,a,x,6837979,494,-1,3162021,389084,-1,494,494,-1,195049,356306,-1,0.0001,1,-1,0.0617,0.9158,-1,63232,63232,-1,24966272,24966272,-1,0,0,-1,24836480,24836480,-1,63232,63232,-1,49802752,49802752,-1,470lbm
13748,2097152,4194304,-1,2097152,4194304,-1,256,256,-1,256,256,-1,4,4,x,4,4,x,l,l,x,l,l,x,d,d,x,d,d,x,a,a,x,a,a,x,6837979,311,-1,3162021,194617,-1,311,311,-1,97586,178228,-1,0,1,-1,0.0309,0.9158,-1,79616,79616,-1,24982016,24982016,-1,0,0,-1,24839936,24839936,-1,79616,79616,-1,49821952,49821952,-1,470lbm
13790,2097152,4194304,-1,2097152,4194304,-1,512,512,-1,512,512,-1,4,4,x,4,4,x,l,l,x,l,l,x,d,d,x,d,d,x,a,a,x,a,a,x,6837979,208,-1,3162021,97363,-1,208,208,-1,48837,89168,-1,0,1,-1,0.0154,0.9158,-1,106496,106496,-1,25004544,25004544,-1,0,0,-1,24845312,24845312,-1,106496,106496,-1,49849856,49849856,-1,470lbm
13832,2097152,4194304,-1,2097152,4194304,-1,8,8,-1,8,8,-1,8,8,x,8,8,x,l,l,x,l,l,x,d,d,x,d,d,x,a,a,x,a,a,x,6837979,4446,-1,3162021,6215815,-1,4446,4446,-1,3113048,5691292,-1,0.0007,1,-1,0.9845,0.9156,-1,35568,35568,-1,24904384,24904384,-1,0,0,-1,24822136,24822136,-1,35568,35568,-1,49726520,49726520,-1,470lbm
13874,2097152,4194304,-1,2097152,4194304,-1,16,16,-1,16,16,-1,8,8,x,8,8,x,l,l,x,l,l,x,d,d,x,d,d,x,a,a,x,a,a,x,6837979,2398,-1,3162021,3109886,-1,2398,2398,-1,1558308,2847597,-1,0.0004,1,-1,0.4928,0.9157,-1,38368,38368,-1,24932928,24932928,-1,0,0,-1,24825248,24825248,-1,38368,38368,-1,49758176,49758176,-1,470lbm
13916,2097152,4194304,-1,2097152,4194304,-1,32,32,-1,32,32,-1,8,8,x,8,8,x,l,l,x,l,l,x,d,d,x,d,d,x,a,a,x,a,a,x,6837979,1362,-1,3162021,1555376,-1,1362,1362,-1,779454,1424221,-1,0.0002,1,-1,0.2465,0.9157,-1,43584,43584,-1,24942528,24942528,-1,0,0,-1,24829504,24829504,-1,43584,43584,-1,49772032,49772032,-1,470lbm
13958,2097152,4194304,-1,2097152,4194304,-1,64,64,-1,64,64,-1,8,8,x,8,8,x,l,l,x,l,l,x,d,d,x,d,d,x,a,a,x,a,a,x,6837979,807,-1,3162021,777919,-1,807,807,-1,389898,712331,-1,0.0001,1,-1,0.1233,0.9157,-1,51648,51648,-1,24953472,24953472,-1,0,0,-1,24833344,24833344,-1,51648,51648,-1,49786816,49786816,-1,470lbm
14000,2097152,4194304,-1,2097152,4194304,-1,128,128,-1,128,128,-1,8,8,x,8,8,x,l,l,x,l,l,x,d,d,x,d,d,x,a,a,x,a,a,x,6837979,494,-1,3162021,389084,-1,494,494,-1,195049,356286,-1,0.0001,1,-1,0.0617,0.9157,-1,63232,63232,-1,24966272,24966272,-1,0,0,-1,24836480,24836480,-1,63232,63232,-1,49802752,49802752,-1,470lbm
14042,2097152,4194304,-1,2097152,4194304,-1,256,256,-1,256,256,-1,8,8,x,8,8,x,l,l,x,l,l,x,d,d,x,d,d,x,a,a,x,a,a,x,6837979,311,-1,3162021,194617,-1,311,311,-1,97586,178216,-1,0,1,-1,0.0309,0.9157,-1,79616,79616,-1,24982016,24982016,-1,0,0,-1,24839936,24839936,-1,79616,79616,-1,49821952,49821952,-1,470lbm
14084,2097152,4194304,-1,2097152,4194304,-1,512,512,-1,512,512,-1,8,8,x,8,8,x,l,l,x,l,l,x,d,d,x,d,d,x,a,a,x,a,a,x,6837979,208,-1,3162021,97363,-1,208,208,-1,48837,89159,-1,0,1,-1,0.0154,0.9157,-1,106496,106496,-1,25004544,25004544,-1,0,0,-1,24845312,24845312,-1,106496,106496,-1,49849856,49849856,-1,470lbm
14126,2097152,4194304,-1,2097152,4194304,-1,8,8,-1,8,8,-1,1,1,x,1,1,x,l,l,x,l,l,x,d,d,x,d,d,x,a,a,x,a,a,x,7129127,7461,-1,2870873,3465153,-1,7461,7461,-1,1773570,1777967,-1,0.001,1,-1,0.6178,0.5131,-1,59688,59688,-1,14188560,14188496,-1,0,0,-1,13532664,13532632,-1,59688,59688,-1,27721224,27721128,-1,473astar
14168,2097152,4194304,-1,2097152,4194304,-1,16,16,-1,16,16,-1,1,1,x,1,1,x,l,l,x,l,l,x,d,d,x,d,d,x,a,a,x,a,a,x,7129127,4012,-1,2870873,3313560,-1,4012,4012,-1,1678747,1681979,-1,0.0006,1,-1,0.5848,0.5076,-1,64192,64192,-1,26859952,26859664,-1,0,0,-1,26157008,26156960,-1,64192,64192,-1,53016960,53016624,-1,473astar
14210,2097152,4194304,-1,2097152,4194304,-1,32,32,-1,32,32,-1,1,1,x,1,1,x,l,l,x,l,l,x,d,d,x,d,d,x,a,a,x,a,a,x,7129127,2290,-1,2870873,1662364,-1,2290,2290,-1,842599,844284,-1,0.0003,1,-1,0.2935,0.5079,-1,73280,73280,-1,26963168,26961984,-1,0,0,-1,26232480,26232384,-1,73280,73280,-1,53195648,53194368,-1,473astar
14252,2097152,4194304,-1,2097152,4194304,-1,64,64,-1,64,64,-1,1,1,x,1,1,x,l,l,x,l,l,x,d,d,x,d,d,x,a,a,x,a,a,x,7129127,1359,-1,2870873,836224,-1,1359,1359,-1,424159,425041,-1,0.0002,1,-1,0.1477,0.5083,-1,86976,86976,-1,27146176,27141760,-1,0,0,-1,26372160,26371968,-1,86976,86976,-1,53518336,53513728,-1,473astar
14294,2097152,4194304,-1,2097152,4194304,-1,128,128,-1,128,128,-1,1,1,x,1,1,x,l,l,x,l,l,x,d,d,x,d,d,x,a,a,x,a,a,x,7129127,862,-1,2870873,422996,-1,862,862,-1,214781,215241,-1,0.0001,1,-1,0.0748,0.5088,-1,110336,110336,-1,27491968,27474304,-1,0,0,-1,26651520,26651136,-1,110336,110336,-1,54143488,54125440,-1,473astar
14336,2097152,4194304,-1,2097152,4194304,-1,256,256,-1,256,256,-1,1,1,x,1,1,x,l,l,x,l,l,x,d,d,x,d,d,x,a,a,x,a,a,x,7129127,563,-1,2870873,216528,-1,563,563,-1,110154,110408,-1,0.0001,1,-1,0.0384,0.5099,-1,144128,144128,-1,28199424,28131584,-1,0,0,-1,27231744,27230976,-1,144128,144128,-1,55431168,55362560,-1,473astar
14378,2097152,4194304,-1,2097152,4194304,-1,512,512,-1,512,512,-1,1,1,x,1,1,x,l,l,x,l,l,x,d,d,x,d,d,x,a,a,x,a,a,x,7129127,371,-1,2870873,113896,-1,371,371,-1,58261,58394,-1,0.0001,1,-1,0.0203,0.5127,-1,189952,189952,-1,29829632,29558784,-1,0,0,-1,28485120,28483584,-1,189952,189952,-1,58314752,58042368,-1,473astar
14420,2097152,4194304,-1,2097152,4194304,-1,8,8,-1,8,8,-1,2,2,x,2,2,x,l,l,x,l,l,x,d,d,x,d,d,x,a,a,x,a,a,x,7129127,7460,-1,2870873,3465061,-1,7460,7460,-1,1773485,3146792,-1,0.001,1,-1,0.6178,0.9081,-1,59680,59680,-1,14187880,14187872,-1,0,0,-1,13532608,13532608,-1,59680,59680,-1,27720488,27720480,-1,473astar
14462,2097152,4194304,-1,2097152,4194304,-1,16,16,-1,16,16,-1,2,2,x,2,2,x,l,l,x,l,l,x,d,d,x,d,d,x,a,a,x,a,a,x,7129127,4010,-1,2870873,3313422,-1,4010,4010,-1,1678623,3051279,-1,0.0006,1,-1,0.5847,0.9209,-1,64160,64160,-1,26857968,26857936,-1,0,0,-1,26156784,26156784,-1,64160,64160,-1,53014752,53014720,-1,473astar
14504,2097152,4194304,-1,2097152,4194304,-1,32,32,-1,32,32,-1,2,2,x,2,2,x,l,l,x,l,l,x,d,d,x,d,d,x,a,a,x,a,a,x,7129127,2288,-1,2870873,1662165,-1,2288,2288,-1,842430,1531073,-1,0.0003,1,-1,0.2934,0.9211,-1,73216,73216,-1,26957760,26957664,-1,0,0,-1,26231520,26231520,-1,73216,73216,-1,53189280,53189184,-1,473astar
14546,2097152,4194304,-1,2097152,4194304,-1,64,64,-1,64,64,-1,2,2,x,2,2,x,l,l,x,l,l,x,d,d,x,d,d,x,a,a,x,a,a,x,7129127,1357,-1,2870873,835895,-1,1357,1357,-1,423892,770336,-1,0.0002,1,-1,0.1477,0.9216,-1,86848,86848,-1,27129088,27129024,-1,0,0,-1,26368192,26368192,-1,86848,86848,-1,53497280,53497216,-1,473astar
14588,2097152,4194304,-1,2097152,4194304,-1,128,128,-1,128,128,-1,2,2,x,2,2,x,l,l,x,l,l,x,d,d,x,d,d,x,a,a,x,a,a,x,7129127,860,-1,2870873,422459,-1,860,860,-1,214370,389661,-1,0.0001,1,-1,0.0747,0.9224,-1,110080,110080,-1,27439360,27438464,-1,0,0,-1,26635392,26635392,-1,110080,110080,-1,54074752,54073856,-1,473astar
14630,2097152,4194304,-1,2097152,4194304,-1,256,256,-1,256,256,-1,2,2,x,2,2,x,l,l,x,l,l,x,d,d,x,d,d,x,a,a,x,a,a,x,7129127,561,-1,2870873,215557,-1,561,561,-1,109437,199142,-1,0.0001,1,-1,0.0381,0.9238,-1,143616,143616,-1,28015872,28013568,-1,0,0,-1,27166720,27166720,-1,143616,143616,-1,55182592,55180288,-1,473astar
14672,2097152,4194304,-1,2097152,4194304,-1,512,512,-1,512,512,-1,2,2,x,2,2,x,l,l,x,l,l,x,d,d,x,d,d,x,a,a,x,a,a,x,7129127,369,-1,2870873,112019,-1,369,369,-1,56895,103783,-1,0.0001,1,-1,0.0198,0.9265,-1,188928,188928,-1,29130240,29122048,-1,0,0,-1,28223488,28223488,-1,188928,188928,-1,57353728,57345536,-1,473astar
14714,2097152,4194304,-1,2097152,4194304,-1,8,8,-1,8,8,-1,4,4,x,4,4,x,l,l,x,l,l,x,d,d,x,d,d,x,a,a,x,a,a,x,7129127,7460,-1,2870873,3465053,-1,7460,7460,-1,1773477,3169915,-1,0.001,1,-1,0.6177,0.9148,-1,59680,59680,-1,14187816,14187816,-1,0,0,-1,13532608,13532608,-1,59680,59680,-1,27720424,27720424,-1,473astar
14756,2097152,4194304,-1,2097152,4194304,-1,16,16,-1,16,16,-1,4,4,x,4,4,x,l,l,x,l,l,x,d,d,x,d,d,x,a,a,x,a,a,x,7129127,4010,-1,2870873,3313408,-1,4010,4010,-1,1678609,3076184,-1,0.0006,1,-1,0.5847,0.9284,-1,64160,64160,-1,26857744,26857744,-1,0,0,-1,26156784,26156784,-1,64160,64160,-1,53014528,53014528,-1,473astar
14798,2097152,4194304,-1,2097152,4194304,-1,32,32,-1,32,32,-1,4,4,x,4,4,x,l,l,x,l,l,x,d,d,x,d,d,x,a,a,x,a,a,x,7129127,2288,-1,2870873,1662143,-1,2288,2288,-1,842408,1543492,-1,0.0003,1,-1,0.2934,0.9286,-1,73216,73216,-1,26957056,26957056,-1,0,0,-1,26231520,26231520,-1,73216,73216,-1,53188576,53188576,-1,473astar
14840,2097152,4194304,-1,2097152,4194304,-1,64,64,-1,64,64,-1,4,4,x,4,4,x,l,l,x,l,l,x,d,d,x,d,d,x,a,a,x,a,a,x,7129127,1357,-1,2870873,835865,-1,1357,1357,-1,423862,776505,-1,0.0002,1,-1,0.1476,0.929,-1,86848,86848,-1,27127168,27127168,-1,0,0,-1,26368192,26368192,-1,86848,86848,-1,53495360,53495360,-1,473astar
14882,2097152,4194304,-1,2097152,4194304,-1,128,128,-1,128,128,-1,4,4,x,4,4,x,l,l,x,l,l,x,d,d,x,d,d,x,a,a,x,a,a,x,7129127,860,-1,2870873,422418,-1,860,860,-1,214329,392708,-1,0.0001,1,-1,0.0747,0.9297,-1,110080,110080,-1,27434112,27434112,-1,0,0,-1,26635392,26635392,-1,110080,110080,-1,54069504,54069504,-1,473astar
14924,2097152,4194304,-1,2097152,4194304,-1,256,256,-1,256,256,-1,4,4,x,4,4,x,l,l,x,l,l,x,d,d,x,d,d,x,a,a,x,a,a,x,7129127,561,-1,2870873,215514,-1,561,561,-1,109394,200631,-1,0.0001,1,-1,0.0381,0.9309,-1,143616,143616,-1,28004864,28004864,-1,0,0,-1,27166720,27166720,-1,143616,143616,-1,55171584,55171584,-1,473astar
14966,2097152,4194304,-1,2097152,4194304,-1,512,512,-1,512,512,-1,4,4,x,4,4,x,l,l,x,l,l,x,d,d,x,d,d,x,a,a,x,a,a,x,7129127,369,-1,2870873,111968,-1,369,369,-1,56844,104492,-1,0.0001,1,-1,0.0198,0.9332,-1,188928,188928,-1,29104128,29104128,-1,0,0,-1,28223488,28223488,-1,188928,188928,-1,57327616,57327616,-1,473astar
15008,2097152,4194304,-1,2097152,4194304,-1,8,8,-1,8,8,-1,8,8,x,8,8,x,l,l,x,l,l,x,d,d,x,d,d,x,a,a,x,a,a,x,7129127,7460,-1,2870873,3465053,-1,7460,7460,-1,1773477,3148086,-1,0.001,1,-1,0.6177,0.9085,-1,59680,59680,-1,14187816,14187816,-1,0,0,-1,13532608,13532608,-1,59680,59680,-1,27720424,27720424,-1,473astar
15050,2097152,4194304,-1,2097152,4194304,-1,16,16,-1,16,16,-1,8,8,x,8,8,x,l,l,x,l,l,x,d,d,x,d,d,x,a,a,x,a,a,x,7129127,4010,-1,2870873,3313408,-1,4010,4010,-1,1678609,3054302,-1,0.0006,1,-1,0.5847,0.9218,-1,64160,64160,-1,26857744,26857744,-1,0,0,-1,26156784,26156784,-1,64160,64160,-1,53014528,53014528,-1,473astar
15092,2097152,4194304,-1,2097152,4194304,-1,32,32,-1,32,32,-1,8,8,x,8,8,x,l,l,x,l,l,x,d,d,x,d,d,x,a,a,x,a,a,x,7129127,2288,-1,2870873,1662143,-1,2288,2288,-1,842408,1532465,-1,0.0003,1,-1,0.2934,0.922,-1,73216,73216,-1,26957056,26957056,-1,0,0,-1,26231520,26231520,-1,73216,73216,-1,53188576,53188576,-1,473astar
15134,2097152,4194304,-1,2097152,4194304,-1,64,64,-1,64,64,-1,8,8,x,8,8,x,l,l,x,l,l,x,d,d,x,d,d,x,a,a,x,a,a,x,7129127,1357,-1,2870873,835865,-1,1357,1357,-1,423862,770947,-1,0.0002,1,-1,0.1476,0.9223,-1,86848,86848,-1,27127168,27127168,-1,0,0,-1,26368192,26368192,-1,86848,86848,-1,53495360,53495360,-1,473astar
15176,2097152,4194304,-1,2097152,4194304,-1,128,128,-1,128,128,-1,8,8,x,8,8,x,l,l,x,l,l,x,d,d,x,d,d,x,a,a,x,a,a,x,7129127,860,-1,2870873,422418,-1,860,860,-1,214329,389891,-1,0.0001,1,-1,0.0747,0.923,-1,110080,110080,-1,27434112,27434112,-1,0,0,-1,26635392,26635392,-1,110080,110080,-1,54069504,54069504,-1,473astar
15218,2097152,4194304,-1,2097152,4194304,-1,256,256,-1,256,256,-1,8,8,x,8,8,x,l,l,x,l,l,x,d,d,x,d,d,x,a,a,x,a,a,x,7129127,561,-1,2870873,215514,-1,561,561,-1,109394,199198,-1,0.0001,1,-1,0.0381,0.9243,-1,143616,143616,-1,28004864,28004864,-1,0,0,-1,27166720,27166720,-1,143616,143616,-1,55171584,55171584,-1,473astar
15260,2097152,4194304,-1,2097152,4194304,-1,512,512,-1,512,512,-1,8,8,x,8,8,x,l,l,x,l,l,x,d,d,x,d,d,x,a,a,x,a,a,x,7129127,369,-1,2870873,111968,-1,369,369,-1,56844,103758,-1,0.0001,1,-1,0.0198,0.9267,-1,188928,188928,-1,29104128,29104128,-1,0,0,-1,28223488,28223488,-1,188928,188928,-1,57327616,57327616,-1,473astar
15302,2097152,4194304,-1,2097152,4194304,-1,8,8,-1,8,8,-1,1,1,x,1,1,x,l,l,x,l,l,x,d,d,x,d,d,x,a,a,x,a,a,x,8021445,12157,-1,1978555,1214729,-1,12157,12157,-1,614189,624262,-1,0.0015,1,-1,0.3104,0.5139,-1,97256,97256,-1,4913512,4911832,-1,0,0,-1,4804320,4804256,-1,97256,97256,-1,9717832,9716088,-1,481wrf
15344,2097152,4194304,-1,2097152,4194304,-1,16,16,-1,16,16,-1,1,1,x,1,1,x,l,l,x,l,l,x,d,d,x,d,d,x,a,a,x,a,a,x,8021445,6487,-1,1978555,612336,-1,6487,6487,-1,310483,316674,-1,0.0008,1,-1,0.1569,0.5172,-1,103792,103792,-1,4967728,4964160,-1,0,0,-1,4829648,4829504,-1,103792,103792,-1,9797376,9793664,-1,481wrf
15386,2097152,4194304,-1,2097152,4194304,-1,32,32,-1,32,32,-1,1,1,x,1,1,x,l,l,x,l,l,x,d,d,x,d,d,x,a,a,x,a,a,x,8021445,3541,-1,1978555,307002,-1,3541,3541,-1,155835,159177,-1,0.0004,1,-1,0.0788,0.5185,-1,113312,113312,-1,4986720,4980672,-1,0,0,-1,4837344,4837056,-1,113312,113312,-1,9824064,9817728,-1,481wrf
15428,2097152,4194304,-1,2097152,4194304,-1,64,64,-1,64,64,-1,1,1,x,1,1,x,l,l,x,l,l,x,d,d,x,d,d,x,a,a,x,a,a,x,8021445,1977,-1,1978555,154149,-1,1977,1977,-1,78422,80188,-1,0.0002,1,-1,0.0396,0.5202,-1,126528,126528,-1,5019008,5006528,-1,0,0,-1,4846528,4846016,-1,126528,126528,-1,9865536,9852544,-1,481wrf
15470,2097152,4194304,-1,2097152,4194304,-1,128,128,-1,128,128,-1,1,1,x,1,1,x,l,l,x,l,l,x,d,d,x,d,d,x,a,a,x,a,a,x,8021445,1148,-1,1978555,77938,-1,1148,1148,-1,39926,40829,-1,0.0001,1,-1,0.0202,0.5239,-1,146944,146944,-1,5110528,5079936,-1,0,0,-1,4865536,4864256,-1,146944,146944,-1,9976064,9944192,-1,481wrf
15512,2097152,4194304,-1,2097152,4194304,-1,256,256,-1,256,256,-1,1,1,x,1,1,x,l,l,x,l,l,x,d,d,x,d,d,x,a,a,x,a,a,x,8021445,678,-1,1978555,40166,-1,678,678,-1,21021,21480,-1,0.0001,1,-1,0.0106,0.5348,-1,173568,173568,-1,5381376,5314048,-1,0,0,-1,4901120,4898304,-1,173568,173568,-1,10282496,10212352,-1,481wrf
15554,2097152,4194304,-1,2097152,4194304,-1,512,512,-1,512,512,-1,1,1,x,1,1,x,l,l,x,l,l,x,d,d,x,d,d,x,a,a,x,a,a,x,8021445,419,-1,1978555,20937,-1,419,419,-1,11249,11479,-1,0.0001,1,-1,0.0057,0.5483,-1,214528,214528,-1,5759488,5631488,-1,0,0,-1,4960256,4954624,-1,214528,214528,-1,10719744,10586112,-1,481wrf
15596,2097152,4194304,-1,2097152,4194304,-1,8,8,-1,8,8,-1,2,2,x,2,2,x,l,l,x,l,l,x,d,d,x,d,d,x,a,a,x,a,a,x,8021445,12137,-1,1978555,1214368,-1,12137,12137,-1,613920,693431,-1,0.0015,1,-1,0.3103,0.571,-1,97096,97096,-1,4911360,4911312,-1,0,0,-1,4803584,4803584,-1,97096,97096,-1,9714944,9714896,-1,481wrf
15638,2097152,4194304,-1,2097152,4194304,-1,16,16,-1,16,16,-1,2,2,x,2,2,x,l,l,x,l,l,x,d,d,x,d,d,x,a,a,x,a,a,x,8021445,6475,-1,1978555,611935,-1,6475,6475,-1,310182,351908,-1,0.0008,1,-1,0.1568,0.5751,-1,103600,103600,-1,4962912,4962816,-1,0,0,-1,4828048,4828048,-1,103600,103600,-1,9790960,9790864,-1,481wrf
15680,2097152,4194304,-1,2097152,4194304,-1,32,32,-1,32,32,-1,2,2,x,2,2,x,l,l,x,l,l,x,d,d,x,d,d,x,a,a,x,a,a,x,8021445,3534,-1,1978555,306643,-1,3534,3534,-1,155564,176684,-1,0.0004,1,-1,0.0786,0.5762,-1,113088,113088,-1,4978048,4977952,-1,0,0,-1,4834528,4834528,-1,113088,113088,-1,9812576,9812480,-1,481wrf
15722,2097152,4194304,-1,2097152,4194304,-1,64,64,-1,64,64,-1,2,2,x,2,2,x,l,l,x,l,l,x,d,d,x,d,d,x,a,a,x,a,a,x,8021445,1971,-1,1978555,153661,-1,1971,1971,-1,78042,88683,-1,0.0002,1,-1,0.0394,0.5771,-1,126144,126144,-1,4994688,4994560,-1,0,0,-1,4839616,4839616,-1,126144,126144,-1,9834304,9834176,-1,481wrf
15764,2097152,4194304,-1,2097152,4194304,-1,128,128,-1,128,128,-1,2,2,x,2,2,x,l,l,x,l,l,x,d,d,x,d,d,x,a,a,x,a,a,x,8021445,1143,-1,1978555,77044,-1,1143,1143,-1,39198,44553,-1,0.0001,1,-1,0.0198,0.5783,-1,146304,146304,-1,5017344,5016960,-1,0,0,-1,4844288,4844288,-1,146304,146304,-1,9861632,9861248,-1,481wrf
15806,2097152,4194304,-1,2097152,4194304,-1,256,256,-1,256,256,-1,2,2,x,2,2,x,l,l,x,l,l,x,d,d,x,d,d,x,a,a,x,a,a,x,8021445,674,-1,1978555,38658,-1,674,674,-1,19716,22398,-1,0.0001,1,-1,0.01,0.5794,-1,172544,172544,-1,5047296,5045248,-1,0,0,-1,4849152,4849152,-1,172544,172544,-1,9896448,9894400,-1,481wrf
15848,2097152,4194304,-1,2097152,4194304,-1,512,512,-1,512,512,-1,2,2,x,2,2,x,l,l,x,l,l,x,d,d,x,d,d,x,a,a,x,a,a,x,8021445,415,-1,1978555,19424,-1,415,415,-1,9937,11278,-1,0.0001,1,-1,0.005,0.5806,-1,212480,212480,-1,5087744,5083648,-1,0,0,-1,4857344,4857344,-1,212480,212480,-1,9945088,9940992,-1,481wrf
15890,2097152,4194304,-1,2097152,4194304,-1,8,8,-1,8,8,-1,4,4,x,4,4,x,l,l,x,l,l,x,d,d,x,d,d,x,a,a,x,a,a,x,8021445,12137,-1,1978555,1214368,-1,12137,12137,-1,613920,691347,-1,0.0015,1,-1,0.3103,0.5693,-1,97096,97096,-1,4911360,4911264,-1,0,0,-1,4803584,4803584,-1,97096,97096,-1,9714944,9714848,-1,481wrf
15932,2097152,4194304,-1,2097152,4194304,-1,16,16,-1,16,16,-1,4,4,x,4,4,x,l,l,x,l,l,x,d,d,x,d,d,x,a,a,x,a,a,x,8021445,6475,-1,1978555,611935,-1,6475,6475,-1,310182,350290,-1,0.0008,1,-1,0.1568,0.5724,-1,103600,103600,-1,4962912,4962720,-1,0,0,-1,4828048,4828048,-1,103600,103600,-1,9790960,9790768,-1,481wrf
15974,2097152,4194304,-1,2097152,4194304,-1,32,32,-1,32,32,-1,4,4,x,4,4,x,l,l,x,l,l,x,d,d,x,d,d,x,a,a,x,a,a,x,8021445,3534,-1,1978555,306643,-1,3534,3534,-1,155564,175772,-1,0.0004,1,-1,0.0786,0.5732,-1,113088,113088,-1,4978048,4977856,-1,0,0,-1,4834528,4834528,-1,113088,113088,-1,9812576,9812384,-1,481wrf
16016,2097152,4194304,-1,2097152,4194304,-1,64,64,-1,64,64,-1,4,4,x,4,4,x,l,l,x,l,l,x,d,d,x,d,d,x,a,a,x,a,a,x,8021445,1971,-1,1978555,153660,-1,1971,1971,-1,78041,88190,-1,0.0002,1,-1,0.0394,0.5739,-1,126144,126144,-1,4994624,4994432,-1,0,0,-1,4839616,4839616,-1,126144,126144,-1,9834240,9834048,-1,481wrf
16058,2097152,4194304,-1,2097152,4194304,-1,128,128,-1,128,128,-1,4,4,x,4,4,x,l,l,x,l,l,x,d,d,x,d,d,x,a,a,x,a,a,x,8021445,1143,-1,1978555,77037,-1,1143,1143,-1,39191,44283,-1,0.0001,1,-1,0.0198,0.5748,-1,146304,146304,-1,5016448,5016192,-1,0,0,-1,4844288,4844288,-1,146304,146304,-1,9860736,9860480,-1,481wrf
16100,2097152,4194304,-1,2097152,4194304,-1,256,256,-1,256,256,-1,4,4,x,4,4,x,l,l,x,l,l,x,d,d,x,d,d,x,a,a,x,a,a,x,8021445,674,-1,1978555,38644,-1,674,674,-1,19702,22251,-1,0.0001,1,-1,0.01,0.5758,-1,172544,172544,-1,5043712,5043456,-1,0,0,-1,4849152,4849152,-1,172544,172544,-1,9892864,9892608,-1,481wrf
16142,2097152,4194304,-1,2097152,4194304,-1,512,512,-1,512,512,-1,4,4,x,4,4,x,l,l,x,l,l,x,d,d,x,d,d,x,a,a,x,a,a,x,8021445,415,-1,1978555,19410,-1,415,415,-1,9923,11197,-1,0.0001,1,-1,0.005,0.5769,-1,212480,212480,-1,5080576,5080064,-1,0,0,-1,4857344,4857344,-1,212480,212480,-1,9937920,9937408,-1,481wrf
16184,2097152,4194304,-1,2097152,4194304,-1,8,8,-1,8,8,-1,8,8,x,8,8,x,l,l,x,l,l,x,d,d,x,d,d,x,a,a,x,a,a,x,8021445,12137,-1,1978555,1214360,-1,12137,12137,-1,613916,685551,-1,0.0015,1,-1,0.3103,0.5645,-1,97096,97096,-1,4911328,4911264,-1,0,0,-1,4803552,4803504,-1,97096,97096,-1,9714880,9714768,-1,481wrf
16226,2097152,4194304,-1,2097152,4194304,-1,16,16,-1,16,16,-1,8,8,x,8,8,x,l,l,x,l,l,x,d,d,x,d,d,x,a,a,x,a,a,x,8021445,6475,-1,1978555,611927,-1,6475,6475,-1,310178,347274,-1,0.0008,1,-1,0.1568,0.5675,-1,103600,103600,-1,4962848,4962720,-1,0,0,-1,4827984,4827888,-1,103600,103600,-1,9790832,9790608,-1,481wrf
16268,2097152,4194304,-1,2097152,4194304,-1,32,32,-1,32,32,-1,8,8,x,8,8,x,l,l,x,l,l,x,d,d,x,d,d,x,a,a,x,a,a,x,8021445,3534,-1,1978555,306639,-1,3534,3534,-1,155562,174256,-1,0.0004,1,-1,0.0786,0.5683,-1,113088,113088,-1,4977984,4977856,-1,0,0,-1,4834464,4834368,-1,113088,113088,-1,9812448,9812224,-1,481wrf
16310,2097152,4194304,-1,2097152,4194304,-1,64,64,-1,64,64,-1,8,8,x,8,8,x,l,l,x,l,l,x,d,d,x,d,d,x,a,a,x,a,a,x,8021445,1971,-1,1978555,153658,-1,1971,1971,-1,78040,87426,-1,0.0002,1,-1,0.0394,0.569,-1,126144,126144,-1,4994560,4994432,-1,0,0,-1,4839552,4839488,-1,126144,126144,-1,9834112,9833920,-1,481wrf
16352,2097152,4194304,-1,2097152,4194304,-1,128,128,-1,128,128,-1,8,8,x,8,8,x,l,l,x,l,l,x,d,d,x,d,d,x,a,a,x,a,a,x,8021445,1143,-1,1978555,77037,-1,1143,1143,-1,39191,43888,-1,0.0001,1,-1,0.0198,0.5697,-1,146304,146304,-1,5016448,5016192,-1,0,0,-1,4844288,4844160,-1,146304,146304,-1,9860736,9860352,-1,481wrf
16394,2097152,4194304,-1,2097152,4194304,-1,256,256,-1,256,256,-1,8,8,x,8,8,x,l,l,x,l,l,x,d,d,x,d,d,x,a,a,x,a,a,x,8021445,674,-1,1978555,38644,-1,674,674,-1,19702,22043,-1,0.0001,1,-1,0.01,0.5704,-1,172544,172544,-1,5043712,5043456,-1,0,0,-1,4849152,4849152,-1,172544,172544,-1,9892864,9892608,-1,481wrf
16436,2097152,4194304,-1,2097152,4194304,-1,512,512,-1,512,512,-1,8,8,x,8,8,x,l,l,x,l,l,x,d,d,x,d,d,x,a,a,x,a,a,x,8021445,415,-1,1978555,19410,-1,415,415,-1,9923,11081,-1,0.0001,1,-1,0.005,0.5709,-1,212480,212480,-1,5080576,5080064,-1,0,0,-1,4857344,4857344,-1,212480,212480,-1,9937920,9937408,-1,481wrf
16478,2097152,4194304,-1,2097152,4194304,-1,8,8,-1,8,8,-1,1,1,x,1,1,x,l,l,x,l,l,x,d,d,x,d,d,x,a,a,x,a,a,x,7302028,8328,-1,2697972,31280,-1,8328,8328,-1,21991,21907,-1,0.0011,1,-1,0.0082,0.7004,-1,66624,66624,-1,175928,175256,-1,0,0,-1,74312,73928,-1,66624,66624,-1,250240,249184,-1,482sphinx3
16520,2097152,4194304,-1,2097152,4194304,-1,16,16,-1,16,16,-1,1,1,x,1,1,x,l,l,x,l,l,x,d,d,x,d,d,x,a,a,x,a,a,x,7302028,4493,-1,2697972,21063,-1,4493,4493,-1,14583,14475,-1,0.0006,1,-1,0.0054,0.6872,-1,71888,71888,-1,233328,231600,-1,0,0,-1,103680,102816,-1,71888,71888,-1,337008,334416,-1,482sphinx3
16562,2097152,4194304,-1,2097152,4194304,-1,32,32,-1,32,32,-1,1,1,x,1,1,x,l,l,x,l,l,x,d,d,x,d,d,x,a,a,x,a,a,x,7302028,2558,-1,2697972,11189,-1,2558,2558,-1,7762,7610,-1,0.0004,1,-1,0.0029,0.6801,-1,81856,81856,-1,248384,243520,-1,0,0,-1,109664,107392,-1,81856,81856,-1,358048,350912,-1,482sphinx3
16604,2097152,4194304,-1,2097152,4194304,-1,64,64,-1,64,64,-1,1,1,x,1,1,x,l,l,x,l,l,x,d,d,x,d,d,x,a,a,x,a,a,x,7302028,1498,-1,2697972,6019,-1,1498,1498,-1,4198,4033,-1,0.0002,1,-1,0.0016,0.67,-1,95872,95872,-1,268672,258112,-1,0,0,-1,116544,111744,-1,95872,95872,-1,385216,369856,-1,482sphinx3
16646,2097152,4194304,-1,2097152,4194304,-1,128,128,-1,128,128,-1,1,1,x,1,1,x,l,l,x,l,l,x,d,d,x,d,d,x,a,a,x,a,a,x,7302028,910,-1,2697972,3372,-1,910,910,-1,2370,2162,-1,0.0001,1,-1,0.0009,0.6412,-1,116480,116480,-1,303360,276736,-1,0,0,-1,128256,115584,-1,116480,116480,-1,431616,392320,-1,482sphinx3
16688,2097152,4194304,-1,2097152,4194304,-1,256,256,-1,256,256,-1,1,1,x,1,1,x,l,l,x,l,l,x,d,d,x,d,d,x,a,a,x,a,a,x,7302028,570,-1,2697972,1952,-1,570,570,-1,1388,1191,-1,0.0001,1,-1,0.0005,0.6101,-1,145920,145920,-1,355328,304896,-1,0,0,-1,144384,119552,-1,145920,145920,-1,499712,424448,-1,482sphinx3
16730,2097152,4194304,-1,2097152,4194304,-1,512,512,-1,512,512,-1,1,1,x,1,1,x,l,l,x,l,l,x,d,d,x,d,d,x,a,a,x,a,a,x,7302028,368,-1,2697972,1211,-1,368,368,-1,870,676,-1,0.0001,1,-1,0.0003,0.5582,-1,188416,188416,-1,445440,346112,-1,0,0,-1,174592,125440,-1,188416,188416,-1,620032,471552,-1,482sphinx3
16772,2097152,4194304,-1,2097152,4194304,-1,8,8,-1,8,8,-1,2,2,x,2,2,x,l,l,x,l,l,x,d,d,x,d,d,x,a,a,x,a,a,x,7302028,8318,-1,2697972,31143,-1,8318,8318,-1,21902,21910,-1,0.0011,1,-1,0.0081,0.7035,-1,66544,66544,-1,175216,175216,-1,0,0,-1,73928,73928,-1,66544,66544,-1,249144,249144,-1,482sphinx3
16814,2097152,4194304,-1,2097152,4194304,-1,16,16,-1,16,16,-1,2,2,x,2,2,x,l,l,x,l,l,x,d,d,x,d,d,x,a,a,x,a,a,x,7302028,4487,-1,2697972,20894,-1,4487,4487,-1,14468,14475,-1,0.0006,1,-1,0.0054,0.6928,-1,71792,71792,-1,231488,231488,-1,0,0,-1,102816,102816,-1,71792,71792,-1,334304,334304,-1,482sphinx3
16856,2097152,4194304,-1,2097152,4194304,-1,32,32,-1,32,32,-1,2,2,x,2,2,x,l,l,x,l,l,x,d,d,x,d,d,x,a,a,x,a,a,x,7302028,2555,-1,2697972,10959,-1,2555,2555,-1,7603,7606,-1,0.0003,1,-1,0.0028,0.694,-1,81760,81760,-1,243296,243296,-1,0,0,-1,107392,107392,-1,81760,81760,-1,350688,350688,-1,482sphinx3
16898,2097152,4194304,-1,2097152,4194304,-1,64,64,-1,64,64,-1,2,2,x,2,2,x,l,l,x,l,l,x,d,d,x,d,d,x,a,a,x,a,a,x,7302028,1496,-1,2697972,5754,-1,1496,1496,-1,4008,4009,-1,0.0002,1,-1,0.0015,0.6967,-1,95744,95744,-1,256512,256512,-1,0,0,-1,111744,111744,-1,95744,95744,-1,368256,368256,-1,482sphinx3
16940,2097152,4194304,-1,2097152,4194304,-1,128,128,-1,128,128,-1,2,2,x,2,2,x,l,l,x,l,l,x,d,d,x,d,d,x,a,a,x,a,a,x,7302028,909,-1,2697972,3039,-1,909,909,-1,2136,2135,-1,0.0001,1,-1,0.0008,0.7025,-1,116352,116352,-1,273408,273152,-1,0,0,-1,115584,115584,-1,116352,116352,-1,388992,388736,-1,482sphinx3
16982,2097152,4194304,-1,2097152,4194304,-1,256,256,-1,256,256,-1,2,2,x,2,2,x,l,l,x,l,l,x,d,d,x,d,d,x,a,a,x,a,a,x,7302028,564,-1,2697972,1619,-1,564,564,-1,1152,1150,-1,0.0001,1,-1,0.0004,0.7103,-1,144384,144384,-1,294912,294144,-1,0,0,-1,119552,119552,-1,144384,144384,-1,414464,413696,-1,482sphinx3
17024,2097152,4194304,-1,2097152,4194304,-1,512,512,-1,512,512,-1,2,2,x,2,2,x,l,l,x,l,l,x,d,d,x,d,d,x,a,a,x,a,a,x,7302028,362,-1,2697972,878,-1,362,362,-1,633,632,-1,0,1,-1,0.0002,0.7198,-1,185344,185344,-1,324096,322560,-1,0,0,-1,125440,125440,-1,185344,185344,-1,449536,448000,-1,482sphinx3
17066,2097152,4194304,-1,2097152,4194304,-1,8,8,-1,8,8,-1,4,4,x,4,4,x,l,l,x,l,l,x,d,d,x,d,d,x,a,a,x,a,a,x,7302028,8318,-1,2697972,31141,-1,8318,8318,-1,21900,21900,-1,0.0011,1,-1,0.0081,0.7033,-1,66544,66544,-1,175200,175200,-1,0,0,-1,73928,73928,-1,66544,66544,-1,249128,249128,-1,482sphinx3
17108,2097152,4194304,-1,2097152,4194304,-1,16,16,-1,16,16,-1,4,4,x,4,4,x,l,l,x,l,l,x,d,d,x,d,d,x,a,a,x,a,a,x,7302028,4487,-1,2697972,20891,-1,4487,4487,-1,14465,14465,-1,0.0006,1,-1,0.0054,0.6924,-1,71792,71792,-1,231440,231440,-1,0,0,-1,102816,102816,-1,71792,71792,-1,334256,334256,-1,482sphinx3
17150,2097152,4194304,-1,2097152,4194304,-1,32,32,-1,32,32,-1,4,4,x,4,4,x,l,l,x,l,l,x,d,d,x,d,d,x,a,a,x,a,a,x,7302028,2555,-1,2697972,10957,-1,2555,2555,-1,7601,7601,-1,0.0003,1,-1,0.0028,0.6937,-1,81760,81760,-1,243232,243232,-1,0,0,-1,107392,107392,-1,81760,81760,-1,350624,350624,-1,482sphinx3
17192,2097152,4194304,-1,2097152,4194304,-1,64,64,-1,64,64,-1,4,4,x,4,4,x,l,l,x,l,l,x,d,d,x,d,d,x,a,a,x,a,a,x,7302028,1496,-1,2697972,5752,-1,1496,1496,-1,4006,4006,-1,0.0002,1,-1,0.0015,0.6965,-1,95744,95744,-1,256384,256384,-1,0,0,-1,111744,111744,-1,95744,95744,-1,368128,368128,-1,482sphinx3
17234,2097152,4194304,-1,2097152,4194304,-1,128,128,-1,128,128,-1,4,4,x,4,4,x,l,l,x,l,l,x,d,d,x,d,d,x,a,a,x,a,a,x,7302028,909,-1,2697972,3033,-1,909,909,-1,2130,2130,-1,0.0001,1,-1,0.0008,0.7023,-1,116352,116352,-1,272640,272640,-1,0,0,-1,115584,115584,-1,116352,116352,-1,388224,388224,-1,482sphinx3
17276,2097152,4194304,-1,2097152,4194304,-1,256,256,-1,256,256,-1,4,4,x,4,4,x,l,l,x,l,l,x,d,d,x,d,d,x,a,a,x,a,a,x,7302028,564,-1,2697972,1613,-1,564,564,-1,1146,1146,-1,0.0001,1,-1,0.0004,0.7105,-1,144384,144384,-1,293376,293376,-1,0,0,-1,119552,119552,-1,144384,144384,-1,412928,412928,-1,482sphinx3
17318,2097152,4194304,-1,2097152,4194304,-1,512,512,-1,512,512,-1,4,4,x,4,4,x,l,l,x,l,l,x,d,d,x,d,d,x,a,a,x,a,a,x,7302028,362,-1,2697972,871,-1,362,362,-1,626,626,-1,0,1,-1,0.0002,0.7187,-1,185344,185344,-1,320512,320512,-1,0,0,-1,125440,125440,-1,185344,185344,-1,445952,445952,-1,482sphinx3
17360,2097152,4194304,-1,2097152,4194304,-1,8,8,-1,8,8,-1,8,8,x,8,8,x,l,l,x,l,l,x,d,d,x,d,d,x,a,a,x,a,a,x,7302028,8318,-1,2697972,31141,-1,8318,8318,-1,21900,21900,-1,0.0011,1,-1,0.0081,0.7033,-1,66544,66544,-1,175200,175200,-1,0,0,-1,73928,73928,-1,66544,66544,-1,249128,249128,-1,482sphinx3
17402,2097152,4194304,-1,2097152,4194304,-1,16,16,-1,16,16,-1,8,8,x,8,8,x,l,l,x,l,l,x,d,d,x,d,d,x,a,a,x,a,a,x,7302028,4487,-1,2697972,20891,-1,4487,4487,-1,14465,14465,-1,0.0006,1,-1,0.0054,0.6924,-1,71792,71792,-1,231440,231440,-1,0,0,-1,102816,102816,-1,71792,71792,-1,334256,334256,-1,482sphinx3
17444,2097152,4194304,-1,2097152,4194304,-1,32,32,-1,32,32,-1,8,8,x,8,8,x,l,l,x,l,l,x,d,d,x,d,d,x,a,a,x,a,a,x,7302028,2555,-1,2697972,10957,-1,2555,2555,-1,7601,7601,-1,0.0003,1,-1,0.0028,0.6937,-1,81760,81760,-1,243232,243232,-1,0,0,-1,107392,107392,-1,81760,81760,-1,350624,350624,-1,482sphinx3
17486,2097152,4194304,-1,2097152,4194304,-1,64,64,-1,64,64,-1,8,8,x,8,8,x,l,l,x,l,l,x,d,d,x,d,d,x,a,a,x,a,a,x,7302028,1496,-1,2697972,5752,-1,1496,1496,-1,4006,4006,-1,0.0002,1,-1,0.0015,0.6965,-1,95744,95744,-1,256384,256384,-1,0,0,-1,111744,111744,-1,95744,95744,-1,368128,368128,-1,482sphinx3
17528,2097152,4194304,-1,2097152,4194304,-1,128,128,-1,128,128,-1,8,8,x,8,8,x,l,l,x,l,l,x,d,d,x,d,d,x,a,a,x,a,a,x,7302028,909,-1,2697972,3033,-1,909,909,-1,2130,2130,-1,0.0001,1,-1,0.0008,0.7023,-1,116352,116352,-1,272640,272640,-1,0,0,-1,115584,115584,-1,116352,116352,-1,388224,388224,-1,482sphinx3
17570,2097152,4194304,-1,2097152,4194304,-1,256,256,-1,256,256,-1,8,8,x,8,8,x,l,l,x,l,l,x,d,d,x,d,d,x,a,a,x,a,a,x,7302028,564,-1,2697972,1613,-1,564,564,-1,1146,1146,-1,0.0001,1,-1,0.0004,0.7105,-1,144384,144384,-1,293376,293376,-1,0,0,-1,119552,119552,-1,144384,144384,-1,412928,412928,-1,482sphinx3
17612,2097152,4194304,-1,2097152,4194304,-1,512,512,-1,512,512,-1,8,8,x,8,8,x,l,l,x,l,l,x,d,d,x,d,d,x,a,a,x,a,a,x,7302028,362,-1,2697972,871,-1,362,362,-1,626,626,-1,0,1,-1,0.0002,0.7187,-1,185344,185344,-1,320512,320512,-1,0,0,-1,125440,125440,-1,185344,185344,-1,445952,445952,-1,482sphinx3
