simIndex,l1_I_size,l2_I_size,l3_I_size,l1_D_size,l2_D_size,l3_D_size,l1_I_Bsize,l2_I_Bsize,l3_I_Bsize,l1_D_Bsize,l2_D_Bsize,l3_D_Bsize,l1_I_Assoc,l2_I_Assoc,l3_I_Assoc,l1_D_Assoc,l2_D_Assoc,l3_D_Assoc,l1_I_Repl,l2_I_Repl,l3_I_Repl,l1_D_Repl,l2_D_Repl,l3_D_Repl,l1_I_Fetch,l2_I_Fetch,l3_I_Fetch,l1_D_Fetch,l2_D_Fetch,l3_D_Fetch,l1_D_WAlloc,l2_D_WAlloc,l3_D_WAlloc,l1_D_WBack,l2_D_WBack,l3_D_WBack,l1_I_Demand_Fetches,l2_I_Demand_Fetches,l3_I_Demand_Fetches,l1_D_Demand_Fetches,l2_D_Demand_Fetches,l3_D_Demand_Fetches,l1_I_Demand_Misses,l2_I_Demand_Misses,l3_I_Demand_Misses,l1_D_Demand_Misses,l2_D_Demand_Misses,l3_D_Demand_Misses,l1_I_Demand_Miss_Rate,l2_I_Demand_Miss_Rate,l3_I_Demand_Miss_Rate,l1_D_Demand_Miss_Rate,l2_D_Demand_Miss_Rate,l3_D_Demand_Miss_Rate,l1_I_Bytes_From_Mem,l2_I_Bytes_From_Mem,l3_I_Bytes_From_Mem,l1_D_Bytes_From_Mem,l2_D_Bytes_From_Mem,l3_D_Bytes_From_Mem,l1_I_Bytes_To_Mem,l2_I_Bytes_To_Mem,l3_I_Bytes_To_Mem,l1_D_Bytes_To_Mem,l2_D_Bytes_To_Mem,l3_D_Bytes_To_Mem,l1_I_Total_Bytes,l2_I_Total_Bytes,l3_I_Total_Bytes,l1_D_Total_Bytes,l2_D_Total_Bytes,l3_D_Total_Bytes,specbenchmark
17651,262144,4194304,8388608,262144,4194304,8388608,8,8,8,8,8,8,1,1,1,1,1,1,l,l,l,l,l,l,d,d,d,d,d,d,a,a,a,a,a,a,6451228,4102,4101,3548772,4227948,4227638,4102,4101,4101,2534396,2534589,3192392,0.0006,0.9998,1,0.7142,0.5995,0.7551,32816,32808,32808,20275168,20273320,20272288,0,0,0,13548416,13547784,13547784,32816,32808,32808,33823584,33821104,33820072,401Out
17735,262144,4194304,8388608,262144,4194304,8388608,16,16,16,16,16,16,1,1,1,1,1,1,l,l,l,l,l,l,d,d,d,d,d,d,a,a,a,a,a,a,6451228,2194,2193,3548772,2976238,2975975,2194,2193,2193,1699167,1699221,2031188,0.0003,0.9995,1,0.4788,0.5709,0.6825,35104,35088,35088,27186672,27183536,27181776,0,0,0,20433136,20432064,20432048,35104,35088,35088,47619808,47615600,47613824,401Out
17819,262144,4194304,8388608,262144,4194304,8388608,32,32,32,32,32,32,1,1,1,1,1,1,l,l,l,l,l,l,d,d,d,d,d,d,a,a,a,a,a,a,6451228,1238,1236,3548772,2348832,2348624,1238,1236,1236,1280059,1280054,1449109,0.0002,0.9984,1,0.3607,0.545,0.617,39616,39552,39552,40961888,40956864,40954048,0,0,0,34200736,34199104,34199008,39616,39552,39552,75162624,75155968,75153056,401Out
17903,262144,4194304,8388608,262144,4194304,8388608,64,64,64,64,64,64,1,1,1,1,1,1,l,l,l,l,l,l,d,d,d,d,d,d,a,a,a,a,a,a,6451228,720,718,3548772,2034946,2034756,720,718,718,1070403,1070346,1157957,0.0001,0.9972,1,0.3016,0.526,0.5691,46080,45952,45952,68505792,68496000,68492160,0,0,0,61730752,61728384,61727936,46080,45952,45952,130236544,130224384,130220096,401Out
17987,262144,4194304,8388608,262144,4194304,8388608,128,128,128,128,128,128,1,1,1,1,1,1,l,l,l,l,l,l,d,d,d,d,d,d,a,a,a,a,a,a,6451228,437,435,3548772,1877887,1877689,437,435,435,965483,965386,1012270,0.0001,0.9954,1,0.2721,0.5141,0.5391,55936,55680,55680,123581824,123561472,123556352,0,0,0,116787712,116782720,116781824,55936,55680,55680,240369536,240344192,240338176,401Out
18071,262144,4194304,8388608,262144,4194304,8388608,256,256,256,256,256,256,1,1,1,1,1,1,l,l,l,l,l,l,d,d,d,d,d,d,a,a,a,a,a,a,6451228,277,274,3548772,1800461,1799253,277,274,274,914129,913074,939502,0,0.9892,1,0.2576,0.5071,0.5222,70912,70144,70144,234017024,233718528,233693696,0,0,0,226900992,226890240,226888448,70912,70144,70144,460918016,460608768,460582144,401Out
18155,262144,4194304,8388608,262144,4194304,8388608,512,512,512,512,512,512,1,1,1,1,1,1,l,l,l,l,l,l,d,d,d,d,d,d,a,a,a,a,a,a,6451228,191,185,3548772,1763575,1760286,191,185,185,890262,887275,903276,0,0.9686,1,0.2509,0.5031,0.5131,97792,94720,94720,455814144,454151680,454021632,0,0,0,447136256,447114752,447099392,97792,94720,94720,902950400,901266432,901121024,401Out
18239,262144,4194304,8388608,262144,4194304,8388608,8,8,8,8,8,8,2,2,2,2,2,2,l,l,l,l,l,l,d,d,d,d,d,d,a,a,a,a,a,a,6451228,4101,4101,3548772,4227567,4227446,4101,4101,4101,2534135,2534029,3384973,0.0006,1,1,0.7141,0.5994,0.8007,32808,32808,32808,20273080,20272232,20272232,0,0,0,13547456,13547336,13547336,32808,32808,32808,33820536,33819568,33819568,401Out
18323,262144,4194304,8388608,262144,4194304,8388608,16,16,16,16,16,16,2,2,2,2,2,2,l,l,l,l,l,l,d,d,d,d,d,d,a,a,a,a,a,a,6451228,2193,2193,3548772,2975949,2975816,2193,2193,2193,1698966,1698849,2549664,0.0003,1,1,0.4787,0.5709,0.8568,35088,35088,35088,27183456,27181584,27181584,0,0,0,20431728,20431472,20431472,35088,35088,35088,47615184,47613056,47613056,401Out
18407,262144,4194304,8388608,262144,4194304,8388608,32,32,32,32,32,32,2,2,2,2,2,2,l,l,l,l,l,l,d,d,d,d,d,d,a,a,a,a,a,a,6451228,1236,1236,3548772,2348595,2348492,1236,1236,1236,1279889,1279796,2130533,0.0002,1,1,0.3607,0.5449,0.9072,39552,39552,39552,40956448,40953472,40953472,0,0,0,34198592,34198272,34198272,39552,39552,39552,75155040,75151744,75151744,401Out
18491,262144,4194304,8388608,262144,4194304,8388608,64,64,64,64,64,64,2,2,2,2,2,2,l,l,l,l,l,l,d,d,d,d,d,d,a,a,a,a,a,a,6451228,718,718,3548772,2034702,2034630,718,718,718,1070212,1070147,1920831,0.0001,1,1,0.3016,0.5259,0.9441,45952,45952,45952,68493568,68489408,68489408,0,0,0,61727360,61726912,61726912,45952,45952,45952,130220928,130216320,130216320,401Out
18575,262144,4194304,8388608,262144,4194304,8388608,128,128,128,128,128,128,2,2,2,2,2,2,l,l,l,l,l,l,d,d,d,d,d,d,a,a,a,a,a,a,6451228,435,435,3548772,1877643,1877591,435,435,435,965289,965245,1815900,0.0001,1,1,0.272,0.5141,0.9671,55680,55680,55680,123556992,123551360,123551360,0,0,0,116781312,116780288,116780288,55680,55680,55680,240338304,240331648,240331648,401Out
18659,262144,4194304,8388608,262144,4194304,8388608,256,256,256,256,256,256,2,2,2,2,2,2,l,l,l,l,l,l,d,d,d,d,d,d,a,a,a,a,a,a,6451228,273,273,3548772,1799078,1799041,273,273,273,912796,912768,1763406,0,1,1,0.2572,0.5074,0.9802,69888,69888,69888,233675776,233668352,233668352,0,0,0,226888192,226886144,226886144,69888,69888,69888,460563968,460554496,460554496,401Out
18743,262144,4194304,8388608,262144,4194304,8388608,512,512,512,512,512,512,2,2,2,2,2,2,l,l,l,l,l,l,d,d,d,d,d,d,a,a,a,a,a,a,6451228,185,184,3548772,1759786,1759756,185,184,184,886545,886524,1737158,0,0.9946,1,0.2498,0.5038,0.9872,94720,94208,94208,453911040,453899776,453899776,0,0,0,447099392,447095296,447095296,94720,94208,94208,901010432,900995072,900995072,401Out
18827,262144,4194304,8388608,262144,4194304,8388608,8,8,8,8,8,8,4,4,4,4,4,4,l,l,l,l,l,l,d,d,d,d,d,d,a,a,a,a,a,a,6451228,4101,4101,3548772,4227453,4227446,4101,4101,4101,2534033,2534029,3381790,0.0006,1,1,0.7141,0.5994,0.8,32808,32808,32808,20272264,20272232,20272232,0,0,0,13547360,13547336,13547336,32808,32808,32808,33819624,33819568,33819568,401Out
18911,262144,4194304,8388608,262144,4194304,8388608,16,16,16,16,16,16,4,4,4,4,4,4,l,l,l,l,l,l,d,d,d,d,d,d,a,a,a,a,a,a,6451228,2193,2193,3548772,2975820,2975816,2193,2193,2193,1698851,1698849,2546549,0.0003,1,1,0.4787,0.5709,0.8557,35088,35088,35088,27181616,27181584,27181584,0,0,0,20431504,20431472,20431472,35088,35088,35088,47613120,47613056,47613056,401Out
18995,262144,4194304,8388608,262144,4194304,8388608,32,32,32,32,32,32,4,4,4,4,4,4,l,l,l,l,l,l,d,d,d,d,d,d,a,a,a,a,a,a,6451228,1236,1236,3548772,2348496,2348492,1236,1236,1236,1279798,1279796,2127452,0.0002,1,1,0.3606,0.5449,0.9059,39552,39552,39552,40953536,40953472,40953472,0,0,0,34198336,34198272,34198272,39552,39552,39552,75151872,75151744,75151744,401Out
19079,262144,4194304,8388608,262144,4194304,8388608,64,64,64,64,64,64,4,4,4,4,4,4,l,l,l,l,l,l,d,d,d,d,d,d,a,a,a,a,a,a,6451228,718,718,3548772,2034632,2034629,718,718,718,1070148,1070146,1917774,0.0001,1,1,0.3016,0.526,0.9426,45952,45952,45952,68489472,68489344,68489344,0,0,0,61726976,61726912,61726912,45952,45952,45952,130216448,130216256,130216256,401Out
19163,262144,4194304,8388608,262144,4194304,8388608,128,128,128,128,128,128,4,4,4,4,4,4,l,l,l,l,l,l,d,d,d,d,d,d,a,a,a,a,a,a,6451228,435,435,3548772,1877595,1877590,435,435,435,965247,965244,1812856,0.0001,1,1,0.272,0.5141,0.9655,55680,55680,55680,123551616,123551232,123551232,0,0,0,116780544,116780288,116780288,55680,55680,55680,240332160,240331520,240331520,401Out
19247,262144,4194304,8388608,262144,4194304,8388608,256,256,256,256,256,256,4,4,4,4,4,4,l,l,l,l,l,l,d,d,d,d,d,d,a,a,a,a,a,a,6451228,273,273,3548772,1799047,1799040,273,273,273,912771,912767,1760371,0,1,1,0.2572,0.5074,0.9785,69888,69888,69888,233669376,233668096,233668096,0,0,0,226886656,226886144,226886144,69888,69888,69888,460556032,460554240,460554240,401Out
19331,262144,4194304,8388608,262144,4194304,8388608,512,512,512,512,512,512,4,4,4,4,4,4,l,l,l,l,l,l,d,d,d,d,d,d,a,a,a,a,a,a,6451228,184,184,3548772,1759761,1759755,184,184,184,886526,886523,1734122,0,1,1,0.2498,0.5038,0.9854,94208,94208,94208,453901312,453899264,453899264,0,0,0,447096320,447095296,447095296,94208,94208,94208,900997632,900994560,900994560,401Out
19415,262144,4194304,8388608,262144,4194304,8388608,8,8,8,8,8,8,8,8,8,8,8,8,l,l,l,l,l,l,d,d,d,d,d,d,a,a,a,a,a,a,6451228,4101,4101,3548772,4227453,4227446,4101,4101,4101,2534033,2534029,3389493,0.0006,1,1,0.7141,0.5994,0.8018,32808,32808,32808,20272264,20272232,20272232,0,0,0,13547360,13547336,13547336,32808,32808,32808,33819624,33819568,33819568,401Out
19499,262144,4194304,8388608,262144,4194304,8388608,16,16,16,16,16,16,8,8,8,8,8,8,l,l,l,l,l,l,d,d,d,d,d,d,a,a,a,a,a,a,6451228,2193,2193,3548772,2975820,2975816,2193,2193,2193,1698851,1698849,2554301,0.0003,1,1,0.4787,0.5709,0.8584,35088,35088,35088,27181616,27181584,27181584,0,0,0,20431504,20431472,20431472,35088,35088,35088,47613120,47613056,47613056,401Out
19583,262144,4194304,8388608,262144,4194304,8388608,32,32,32,32,32,32,8,8,8,8,8,8,l,l,l,l,l,l,d,d,d,d,d,d,a,a,a,a,a,a,6451228,1236,1236,3548772,2348496,2348492,1236,1236,1236,1279798,1279796,2135231,0.0002,1,1,0.3606,0.5449,0.9092,39552,39552,39552,40953536,40953472,40953472,0,0,0,34198336,34198272,34198272,39552,39552,39552,75151872,75151744,75151744,401Out
19667,262144,4194304,8388608,262144,4194304,8388608,64,64,64,64,64,64,8,8,8,8,8,8,l,l,l,l,l,l,d,d,d,d,d,d,a,a,a,a,a,a,6451228,718,718,3548772,2034631,2034629,718,718,718,1070147,1070146,1925580,0.0001,1,1,0.3016,0.526,0.9464,45952,45952,45952,68489408,68489344,68489344,0,0,0,61726976,61726912,61726912,45952,45952,45952,130216384,130216256,130216256,401Out
19751,262144,4194304,8388608,262144,4194304,8388608,128,128,128,128,128,128,8,8,8,8,8,8,l,l,l,l,l,l,d,d,d,d,d,d,a,a,a,a,a,a,6451228,435,435,3548772,1877592,1877590,435,435,435,965245,965244,1820675,0.0001,1,1,0.272,0.5141,0.9697,55680,55680,55680,123551360,123551232,123551232,0,0,0,116780416,116780288,116780288,55680,55680,55680,240331776,240331520,240331520,401Out
19835,262144,4194304,8388608,262144,4194304,8388608,256,256,256,256,256,256,8,8,8,8,8,8,l,l,l,l,l,l,d,d,d,d,d,d,a,a,a,a,a,a,6451228,273,273,3548772,1799042,1799040,273,273,273,912767,912767,1768158,0,1,1,0.2572,0.5074,0.9828,69888,69888,69888,233668352,233668096,233668096,0,0,0,226886400,226886144,226886144,69888,69888,69888,460554752,460554240,460554240,401Out
19919,262144,4194304,8388608,262144,4194304,8388608,512,512,512,512,512,512,8,8,8,8,8,8,l,l,l,l,l,l,d,d,d,d,d,d,a,a,a,a,a,a,6451228,184,184,3548772,1759757,1759755,184,184,184,886523,886523,1741863,0,1,1,0.2498,0.5038,0.9898,94208,94208,94208,453899776,453899264,453899264,0,0,0,447095808,447095296,447095296,94208,94208,94208,900995584,900994560,900994560,401Out
20003,262144,4194304,8388608,262144,4194304,8388608,8,8,8,8,8,8,1,1,1,1,1,1,l,l,l,l,l,l,d,d,d,d,d,d,a,a,a,a,a,a,7790192,10142,9578,2209808,113398,111411,10142,9578,9578,62876,70385,61795,0.0013,0.9444,1,0.0285,0.6207,0.5547,81136,76624,76624,503008,490552,490184,0,0,0,404176,400736,400184,81136,76624,76624,907184,891288,890368,403gcc
20087,262144,4194304,8388608,262144,4194304,8388608,16,16,16,16,16,16,1,1,1,1,1,1,l,l,l,l,l,l,d,d,d,d,d,d,a,a,a,a,a,a,7790192,5533,5208,2209808,64959,63109,5533,5208,5208,36678,40524,35710,0.0007,0.9413,1,0.0166,0.6238,0.5658,88528,83328,83328,586848,564016,563216,0,0,0,452496,445728,444672,88528,83328,83328,1039344,1009744,1007888,403gcc
20171,262144,4194304,8388608,262144,4194304,8388608,32,32,32,32,32,32,1,1,1,1,1,1,l,l,l,l,l,l,d,d,d,d,d,d,a,a,a,a,a,a,7790192,3472,2954,2209808,33970,32245,3472,2954,2954,19399,20757,18344,0.0004,0.8508,1,0.0088,0.611,0.5689,111104,94528,94528,620768,579360,578336,0,0,0,466272,452480,451040,111104,94528,94528,1087040,1031840,1029376,403gcc
20255,262144,4194304,8388608,262144,4194304,8388608,64,64,64,64,64,64,1,1,1,1,1,1,l,l,l,l,l,l,d,d,d,d,d,d,a,a,a,a,a,a,7790192,2653,1715,2209808,18381,16598,2653,1715,1715,10673,10723,9500,0.0003,0.6464,1,0.0048,0.5834,0.5724,169792,109760,109760,683072,600640,598720,0,0,0,493312,461632,459264,169792,109760,109760,1176384,1062272,1057984,403gcc
20339,262144,4194304,8388608,262144,4194304,8388608,128,128,128,128,128,128,1,1,1,1,1,1,l,l,l,l,l,l,d,d,d,d,d,d,a,a,a,a,a,a,7790192,3313,1044,2209808,11393,8632,3313,1044,1044,7076,5600,4972,0.0004,0.3151,1,0.0032,0.4915,0.576,424064,133632,133632,905728,630144,626304,0,0,0,552576,474752,470016,424064,133632,133632,1458304,1104896,1096320,403gcc
20423,262144,4194304,8388608,262144,4194304,8388608,256,256,256,256,256,256,1,1,1,1,1,1,l,l,l,l,l,l,d,d,d,d,d,d,a,a,a,a,a,a,7790192,3650,659,2209808,14662,4591,3650,659,659,11129,3009,2647,0.0005,0.1805,1,0.005,0.2052,0.5766,934400,168704,168704,2849024,677632,666368,0,0,0,904448,497664,486912,934400,168704,168704,3753472,1175296,1153280,403gcc
20507,262144,4194304,8388608,262144,4194304,8388608,512,512,512,512,512,512,1,1,1,1,1,1,l,l,l,l,l,l,d,d,d,d,d,d,a,a,a,a,a,a,7790192,4769,436,2209808,15811,2600,4769,436,436,12124,1748,1468,0.0006,0.0914,1,0.0055,0.1106,0.5646,2441728,223232,223232,6207488,773120,734208,0,0,0,1887744,558080,518656,2441728,223232,223232,8095232,1331200,1252864,403gcc
20591,262144,4194304,8388608,262144,4194304,8388608,8,8,8,8,8,8,2,2,2,2,2,2,l,l,l,l,l,l,d,d,d,d,d,d,a,a,a,a,a,a,7790192,9580,9578,2209808,111701,111212,9580,9578,9578,61611,61263,61263,0.0012,0.9998,1,0.0279,0.5485,0.5509,76640,76624,76624,492888,490104,490104,0,0,0,400720,399592,399592,76640,76624,76624,893608,889696,889696,403gcc
20675,262144,4194304,8388608,262144,4194304,8388608,16,16,16,16,16,16,2,2,2,2,2,2,l,l,l,l,l,l,d,d,d,d,d,d,a,a,a,a,a,a,7790192,5210,5208,2209808,63351,62904,5210,5208,5208,35489,35185,35185,0.0007,0.9996,1,0.0161,0.5554,0.5593,83360,83328,83328,567824,562960,562960,0,0,0,445792,443504,443504,83360,83328,83328,1013616,1006464,1006464,403gcc
20759,262144,4194304,8388608,262144,4194304,8388608,32,32,32,32,32,32,2,2,2,2,2,2,l,l,l,l,l,l,d,d,d,d,d,d,a,a,a,a,a,a,7790192,2955,2954,2209808,32427,32111,2955,2954,2954,18280,18059,18059,0.0004,0.9997,1,0.0083,0.5569,0.5624,94560,94528,94528,584960,577888,577888,0,0,0,452704,449664,449664,94560,94528,94528,1037664,1027552,1027552,403gcc
20843,262144,4194304,8388608,262144,4194304,8388608,64,64,64,64,64,64,2,2,2,2,2,2,l,l,l,l,l,l,d,d,d,d,d,d,a,a,a,a,a,a,7790192,1717,1715,2209808,16732,16482,1717,1715,1715,9511,9331,9331,0.0002,0.9988,1,0.0043,0.5577,0.5661,109888,109760,109760,608704,597184,597184,0,0,0,462144,457664,457664,109888,109760,109760,1070848,1054848,1054848,403gcc
20927,262144,4194304,8388608,262144,4194304,8388608,128,128,128,128,128,128,2,2,2,2,2,2,l,l,l,l,l,l,d,d,d,d,d,d,a,a,a,a,a,a,7790192,1046,1044,2209808,8953,8525,1046,1044,1044,5246,4868,4867,0.0001,0.9981,1,0.0024,0.5437,0.5709,133888,133632,133632,671488,623104,622976,0,0,0,474496,468096,468096,133888,133632,133632,1145984,1091200,1091072,403gcc
21011,262144,4194304,8388608,262144,4194304,8388608,256,256,256,256,256,256,2,2,2,2,2,2,l,l,l,l,l,l,d,d,d,d,d,d,a,a,a,a,a,a,7790192,664,659,2209808,5191,4469,664,659,659,3231,2579,2579,0.0001,0.9925,1,0.0015,0.4968,0.5771,169984,168704,168704,827136,660224,660224,0,0,0,501760,483840,483840,169984,168704,168704,1328896,1144064,1144064,403gcc
21095,262144,4194304,8388608,262144,4194304,8388608,512,512,512,512,512,512,2,2,2,2,2,2,l,l,l,l,l,l,d,d,d,d,d,d,a,a,a,a,a,a,7790192,1617,436,2209808,3284,2397,1617,436,436,2167,1402,1402,0.0002,0.2696,1,0.001,0.4269,0.5849,827904,223232,223232,1109504,717824,717824,0,0,0,571904,509440,509440,827904,223232,223232,1681408,1227264,1227264,403gcc
21179,262144,4194304,8388608,262144,4194304,8388608,8,8,8,8,8,8,4,4,4,4,4,4,l,l,l,l,l,l,d,d,d,d,d,d,a,a,a,a,a,a,7790192,9578,9578,2209808,111474,111212,9578,9578,9578,61446,61263,61263,0.0012,1,1,0.0278,0.5496,0.5509,76624,76624,76624,491568,490104,490104,0,0,0,400224,399592,399592,76624,76624,76624,891792,889696,889696,403gcc
21263,262144,4194304,8388608,262144,4194304,8388608,16,16,16,16,16,16,4,4,4,4,4,4,l,l,l,l,l,l,d,d,d,d,d,d,a,a,a,a,a,a,7790192,5208,5208,2209808,63150,62904,5208,5208,5208,35344,35185,35185,0.0007,1,1,0.016,0.5572,0.5593,83328,83328,83328,565504,562960,562960,0,0,0,444896,443504,443504,83328,83328,83328,1010400,1006464,1006464,403gcc
21347,262144,4194304,8388608,262144,4194304,8388608,32,32,32,32,32,32,4,4,4,4,4,4,l,l,l,l,l,l,d,d,d,d,d,d,a,a,a,a,a,a,7790192,2954,2954,2209808,32277,32111,2954,2954,2954,18169,18059,18059,0.0004,1,1,0.0082,0.5595,0.5624,94528,94528,94528,581408,577888,577888,0,0,0,451456,449664,449664,94528,94528,94528,1032864,1027552,1027552,403gcc
21431,262144,4194304,8388608,262144,4194304,8388608,64,64,64,64,64,64,4,4,4,4,4,4,l,l,l,l,l,l,d,d,d,d,d,d,a,a,a,a,a,a,7790192,1715,1715,2209808,16606,16482,1715,1715,1715,9414,9331,9331,0.0002,1,1,0.0043,0.5619,0.5661,109760,109760,109760,602496,597184,597184,0,0,0,460288,457664,457664,109760,109760,109760,1062784,1054848,1054848,403gcc
21515,262144,4194304,8388608,262144,4194304,8388608,128,128,128,128,128,128,4,4,4,4,4,4,l,l,l,l,l,l,d,d,d,d,d,d,a,a,a,a,a,a,7790192,1044,1044,2209808,8613,8524,1044,1044,1044,4927,4867,4867,0.0001,1,1,0.0022,0.5651,0.571,133632,133632,133632,630656,622976,622976,0,0,0,471808,468096,468096,133632,133632,133632,1102464,1091072,1091072,403gcc
21599,262144,4194304,8388608,262144,4194304,8388608,256,256,256,256,256,256,4,4,4,4,4,4,l,l,l,l,l,l,d,d,d,d,d,d,a,a,a,a,a,a,7790192,659,659,2209808,4547,4469,659,659,659,2634,2579,2579,0.0001,1,1,0.0012,0.5672,0.5771,168704,168704,168704,674304,660224,660224,0,0,0,489728,483840,483840,168704,168704,168704,1164032,1144064,1144064,403gcc
21683,262144,4194304,8388608,262144,4194304,8388608,512,512,512,512,512,512,4,4,4,4,4,4,l,l,l,l,l,l,d,d,d,d,d,d,a,a,a,a,a,a,7790192,438,436,2209808,2461,2397,438,436,436,1446,1402,1402,0.0001,0.9954,1,0.0007,0.5697,0.5849,224256,223232,223232,740352,717824,717824,0,0,0,519680,509440,509440,224256,223232,223232,1260032,1227264,1227264,403gcc
21767,262144,4194304,8388608,262144,4194304,8388608,8,8,8,8,8,8,8,8,8,8,8,8,l,l,l,l,l,l,d,d,d,d,d,d,a,a,a,a,a,a,7790192,9578,9578,2209808,111517,111212,9578,9578,9578,61459,61263,61263,0.0012,1,1,0.0278,0.5494,0.5509,76624,76624,76624,491672,490104,490104,0,0,0,400464,399592,399592,76624,76624,76624,892136,889696,889696,403gcc
21851,262144,4194304,8388608,262144,4194304,8388608,16,16,16,16,16,16,8,8,8,8,8,8,l,l,l,l,l,l,d,d,d,d,d,d,a,a,a,a,a,a,7790192,5208,5208,2209808,63169,62904,5208,5208,5208,35350,35185,35185,0.0007,1,1,0.016,0.557,0.5593,83328,83328,83328,565600,562960,562960,0,0,0,445104,443504,443504,83328,83328,83328,1010704,1006464,1006464,403gcc
21935,262144,4194304,8388608,262144,4194304,8388608,32,32,32,32,32,32,8,8,8,8,8,8,l,l,l,l,l,l,d,d,d,d,d,d,a,a,a,a,a,a,7790192,2954,2954,2209808,32277,32111,2954,2954,2954,18166,18059,18059,0.0004,1,1,0.0082,0.5595,0.5624,94528,94528,94528,581312,577888,577888,0,0,0,451552,449664,449664,94528,94528,94528,1032864,1027552,1027552,403gcc
22019,262144,4194304,8388608,262144,4194304,8388608,64,64,64,64,64,64,8,8,8,8,8,8,l,l,l,l,l,l,d,d,d,d,d,d,a,a,a,a,a,a,7790192,1715,1715,2209808,16596,16482,1715,1715,1715,9405,9331,9331,0.0002,1,1,0.0043,0.5622,0.5661,109760,109760,109760,601920,597184,597184,0,0,0,460224,457664,457664,109760,109760,109760,1062144,1054848,1054848,403gcc
22103,262144,4194304,8388608,262144,4194304,8388608,128,128,128,128,128,128,8,8,8,8,8,8,l,l,l,l,l,l,d,d,d,d,d,d,a,a,a,a,a,a,7790192,1044,1044,2209808,8597,8524,1044,1044,1044,4914,4867,4867,0.0001,1,1,0.0022,0.5661,0.571,133632,133632,133632,628992,622976,622976,0,0,0,471424,468096,468096,133632,133632,133632,1100416,1091072,1091072,403gcc
22187,262144,4194304,8388608,262144,4194304,8388608,256,256,256,256,256,256,8,8,8,8,8,8,l,l,l,l,l,l,d,d,d,d,d,d,a,a,a,a,a,a,7790192,659,659,2209808,4533,4469,659,659,659,2621,2579,2579,0.0001,1,1,0.0012,0.5689,0.5771,168704,168704,168704,670976,660224,660224,0,0,0,489472,483840,483840,168704,168704,168704,1160448,1144064,1144064,403gcc
22271,262144,4194304,8388608,262144,4194304,8388608,512,512,512,512,512,512,8,8,8,8,8,8,l,l,l,l,l,l,d,d,d,d,d,d,a,a,a,a,a,a,7790192,436,436,2209808,2453,2397,436,436,436,1439,1402,1402,0.0001,1,1,0.0007,0.5715,0.5849,223232,223232,223232,736768,717824,717824,0,0,0,519168,509440,509440,223232,223232,223232,1255936,1227264,1227264,403gcc
22355,262144,4194304,8388608,262144,4194304,8388608,8,8,8,8,8,8,1,1,1,1,1,1,l,l,l,l,l,l,d,d,d,d,d,d,a,a,a,a,a,a,6495832,7017,6442,3504168,3630960,3625831,7017,6442,6442,1822304,2267181,2696412,0.0011,0.9181,1,0.52,0.6244,0.7437,56136,51536,51536,14578432,14550768,14549536,0,0,0,14469248,14455880,14454808,56136,51536,51536,29047680,29006648,29004344,410bwaves
22439,262144,4194304,8388608,262144,4194304,8388608,16,16,16,16,16,16,1,1,1,1,1,1,l,l,l,l,l,l,d,d,d,d,d,d,a,a,a,a,a,a,6495832,3847,3482,3504168,1823472,1819144,3847,3482,3482,916466,1137651,1354169,0.0006,0.9051,1,0.2615,0.6239,0.7444,61552,55712,55712,14663456,14616096,14614192,0,0,0,14512096,14490208,14488592,61552,55712,55712,29175552,29106304,29102784,410bwaves
22523,262144,4194304,8388608,262144,4194304,8388608,32,32,32,32,32,32,1,1,1,1,1,1,l,l,l,l,l,l,d,d,d,d,d,d,a,a,a,a,a,a,6495832,2235,1986,3504168,914355,910257,2235,1986,1986,459895,569308,677608,0.0003,0.8886,1,0.1312,0.6226,0.7444,71520,63552,63552,14716640,14631008,14628320,0,0,0,14542720,14497216,14494720,71520,63552,63552,29259360,29128224,29123040,410bwaves
22607,262144,4194304,8388608,262144,4194304,8388608,64,64,64,64,64,64,1,1,1,1,1,1,l,l,l,l,l,l,d,d,d,d,d,d,a,a,a,a,a,a,6495832,1358,1163,3504168,460899,455634,1358,1163,1163,232235,285022,339173,0.0002,0.8564,1,0.0663,0.6184,0.7444,86912,74432,74432,14863040,14652160,14647424,0,0,0,14634496,14508416,14502464,86912,74432,74432,29497536,29160576,29149888,410bwaves
22691,262144,4194304,8388608,262144,4194304,8388608,128,128,128,128,128,128,1,1,1,1,1,1,l,l,l,l,l,l,d,d,d,d,d,d,a,a,a,a,a,a,6495832,936,717,3504168,235497,228228,936,717,717,119046,142837,169856,0.0001,0.766,1,0.034,0.6065,0.7442,119808,91776,91776,15237888,14680704,14672000,0,0,0,14905728,14532480,14515328,119808,91776,91776,30143616,29213184,29187328,410bwaves
22775,262144,4194304,8388608,262144,4194304,8388608,256,256,256,256,256,256,1,1,1,1,1,1,l,l,l,l,l,l,d,d,d,d,d,d,a,a,a,a,a,a,6495832,655,446,3504168,126461,114558,655,446,446,64320,71807,85203,0.0001,0.6809,1,0.0184,0.5678,0.7438,167680,114176,114176,16465920,14724352,14707968,0,0,0,15908096,14602496,14553344,167680,114176,114176,32374016,29326848,29261312,410bwaves
22859,262144,4194304,8388608,262144,4194304,8388608,512,512,512,512,512,512,1,1,1,1,1,1,l,l,l,l,l,l,d,d,d,d,d,d,a,a,a,a,a,a,6495832,536,290,3504168,78486,57900,536,290,290,40271,36477,42960,0.0001,0.541,1,0.0115,0.4648,0.742,274432,148480,148480,20618752,14799360,14768640,0,0,0,19566080,14845440,14682112,274432,148480,148480,40184832,29644800,29450752,410bwaves
22943,262144,4194304,8388608,262144,4194304,8388608,8,8,8,8,8,8,2,2,2,2,2,2,l,l,l,l,l,l,d,d,d,d,d,d,a,a,a,a,a,a,6495832,6442,6442,3504168,3627573,3625566,6442,6442,6442,1820028,1822179,2551767,0.001,1,1,0.5194,0.5023,0.7038,51536,51536,51536,14560224,14549568,14549144,0,0,0,14460360,14454960,14454680,51536,51536,51536,29020584,29004528,29003824,410bwaves
23027,262144,4194304,8388608,262144,4194304,8388608,16,16,16,16,16,16,2,2,2,2,2,2,l,l,l,l,l,l,d,d,d,d,d,d,a,a,a,a,a,a,6495832,3482,3482,3504168,1820507,1818924,3482,3482,3482,914421,915139,1280102,0.0005,1,1,0.261,0.5027,0.7038,55712,55712,55712,14630736,14614224,14613616,0,0,0,14497376,14488560,14488224,55712,55712,55712,29128112,29102784,29101840,410bwaves
23111,262144,4194304,8388608,262144,4194304,8388608,32,32,32,32,32,32,2,2,2,2,2,2,l,l,l,l,l,l,d,d,d,d,d,d,a,a,a,a,a,a,6495832,1986,1986,3504168,911411,910075,1986,1986,1986,457957,458017,640617,0.0003,1,1,0.1307,0.5025,0.7039,63552,63552,63552,14654624,14628320,14627520,0,0,0,14510528,14494080,14493696,63552,63552,63552,29165152,29122400,29121216,410bwaves
23195,262144,4194304,8388608,262144,4194304,8388608,64,64,64,64,64,64,2,2,2,2,2,2,l,l,l,l,l,l,d,d,d,d,d,d,a,a,a,a,a,a,6495832,1163,1163,3504168,457057,455384,1163,1163,1163,229818,229277,320622,0.0002,1,1,0.0656,0.5016,0.7041,74432,74432,74432,14708352,14644800,14643648,0,0,0,14543296,14499776,14499200,74432,74432,74432,29251648,29144576,29142848,410bwaves
23279,262144,4194304,8388608,262144,4194304,8388608,128,128,128,128,128,128,2,2,2,2,2,2,l,l,l,l,l,l,d,d,d,d,d,d,a,a,a,a,a,a,6495832,717,717,3504168,230248,227897,717,717,717,115902,114807,160501,0.0001,1,1,0.0331,0.4986,0.7043,91776,91776,91776,14835456,14665728,14664320,0,0,0,14636288,14505088,14504320,91776,91776,91776,29471744,29170816,29168640,410bwaves
23363,262144,4194304,8388608,262144,4194304,8388608,256,256,256,256,256,256,2,2,2,2,2,2,l,l,l,l,l,l,d,d,d,d,d,d,a,a,a,a,a,a,6495832,446,446,3504168,118027,114087,446,446,446,59540,57523,80377,0.0001,1,1,0.017,0.4874,0.7045,114176,114176,114176,15242240,14694144,14693120,0,0,0,14972672,14512128,14510848,114176,114176,114176,30214912,29206272,29203968,410bwaves
23447,262144,4194304,8388608,262144,4194304,8388608,512,512,512,512,512,512,2,2,2,2,2,2,l,l,l,l,l,l,d,d,d,d,d,d,a,a,a,a,a,a,6495832,295,290,3504168,64060,57146,295,290,290,32413,28846,40279,0,0.9831,1,0.0092,0.4503,0.7048,151040,148480,148480,16595456,14734848,14733824,0,0,0,16203264,14523904,14521856,151040,148480,148480,32798720,29258752,29255680,410bwaves
23531,262144,4194304,8388608,262144,4194304,8388608,8,8,8,8,8,8,4,4,4,4,4,4,l,l,l,l,l,l,d,d,d,d,d,d,a,a,a,a,a,a,6495832,6442,6442,3504168,3625603,3625452,6442,6442,6442,1818766,1818726,2285107,0.001,1,1,0.519,0.5016,0.6303,51536,51536,51536,14550128,14549304,14548944,0,0,0,14454696,14454312,14454216,51536,51536,51536,29004824,29003616,29003160,410bwaves
23615,262144,4194304,8388608,262144,4194304,8388608,16,16,16,16,16,16,4,4,4,4,4,4,l,l,l,l,l,l,d,d,d,d,d,d,a,a,a,a,a,a,6495832,3482,3482,3504168,1818990,1818846,3482,3482,3482,913446,913397,1148518,0.0005,1,1,0.2607,0.5021,0.6315,55712,55712,55712,14615136,14613664,14613216,0,0,0,14488704,14487872,14487792,55712,55712,55712,29103840,29101536,29101008,410bwaves
23699,262144,4194304,8388608,262144,4194304,8388608,32,32,32,32,32,32,4,4,4,4,4,4,l,l,l,l,l,l,d,d,d,d,d,d,a,a,a,a,a,a,6495832,1986,1986,3504168,910098,910021,1986,1986,1986,457154,457131,574788,0.0003,1,1,0.1305,0.5023,0.6316,63552,63552,63552,14628928,14627360,14626848,0,0,0,14494208,14493312,14493216,63552,63552,63552,29123136,29120672,29120064,410bwaves
23783,262144,4194304,8388608,262144,4194304,8388608,64,64,64,64,64,64,4,4,4,4,4,4,l,l,l,l,l,l,d,d,d,d,d,d,a,a,a,a,a,a,6495832,1163,1163,3504168,455392,455341,1163,1163,1163,228838,228820,287685,0.0002,1,1,0.0653,0.5025,0.6318,74432,74432,74432,14645632,14643328,14642560,0,0,0,14499456,14498496,14498368,74432,74432,74432,29145088,29141824,29140928,410bwaves
23867,262144,4194304,8388608,262144,4194304,8388608,128,128,128,128,128,128,4,4,4,4,4,4,l,l,l,l,l,l,d,d,d,d,d,d,a,a,a,a,a,a,6495832,717,717,3504168,227904,227862,717,717,717,114585,114567,144012,0.0001,1,1,0.0327,0.5027,0.632,91776,91776,91776,14666880,14663040,14662272,0,0,0,14504832,14503296,14503168,91776,91776,91776,29171712,29166336,29165440,410bwaves
23951,262144,4194304,8388608,262144,4194304,8388608,256,256,256,256,256,256,4,4,4,4,4,4,l,l,l,l,l,l,d,d,d,d,d,d,a,a,a,a,a,a,6495832,446,446,3504168,114111,114060,446,446,446,57420,57392,72119,0.0001,1,1,0.0164,0.5029,0.6323,114176,114176,114176,14699520,14690048,14689280,0,0,0,14512896,14509312,14509312,114176,114176,114176,29212416,29199360,29198592,410bwaves
24035,262144,4194304,8388608,262144,4194304,8388608,512,512,512,512,512,512,4,4,4,4,4,4,l,l,l,l,l,l,d,d,d,d,d,d,a,a,a,a,a,a,6495832,290,290,3504168,57191,57121,290,290,290,28812,28769,36139,0,1,1,0.0082,0.503,0.6327,148480,148480,148480,14751744,14726656,14726656,0,0,0,14530048,14519296,14519296,148480,148480,148480,29281792,29245952,29245952,410bwaves
24119,262144,4194304,8388608,262144,4194304,8388608,8,8,8,8,8,8,8,8,8,8,8,8,l,l,l,l,l,l,d,d,d,d,d,d,a,a,a,a,a,a,6495832,6442,6442,3504168,3625416,3625416,6442,6442,6442,1818642,1818706,2222823,0.001,1,1,0.519,0.5017,0.6131,51536,51536,51536,14549136,14549136,14548936,0,0,0,14454192,14454192,14454192,51536,51536,51536,29003328,29003328,29003128,410bwaves
24203,262144,4194304,8388608,262144,4194304,8388608,16,16,16,16,16,16,8,8,8,8,8,8,l,l,l,l,l,l,d,d,d,d,d,d,a,a,a,a,a,a,6495832,3482,3482,3504168,1818821,1818820,3482,3482,3482,913343,913385,1117031,0.0005,1,1,0.2606,0.5022,0.6142,55712,55712,55712,14613488,14613472,14613200,0,0,0,14487648,14487648,14487648,55712,55712,55712,29101136,29101120,29100848,410bwaves
24287,262144,4194304,8388608,262144,4194304,8388608,32,32,32,32,32,32,8,8,8,8,8,8,l,l,l,l,l,l,d,d,d,d,d,d,a,a,a,a,a,a,6495832,1986,1986,3504168,910009,910007,1986,1986,1986,457102,457125,559042,0.0003,1,1,0.1304,0.5023,0.6143,63552,63552,63552,14627264,14627200,14626816,0,0,0,14493024,14493024,14493024,63552,63552,63552,29120288,29120224,29119840,410bwaves
24371,262144,4194304,8388608,262144,4194304,8388608,64,64,64,64,64,64,8,8,8,8,8,8,l,l,l,l,l,l,d,d,d,d,d,d,a,a,a,a,a,a,6495832,1163,1163,3504168,455333,455330,1163,1163,1163,228800,228816,279810,0.0002,1,1,0.0653,0.5025,0.6145,74432,74432,74432,14643200,14643008,14642496,0,0,0,14498112,14498112,14498112,74432,74432,74432,29141312,29141120,29140608,410bwaves
24455,262144,4194304,8388608,262144,4194304,8388608,128,128,128,128,128,128,8,8,8,8,8,8,l,l,l,l,l,l,d,d,d,d,d,d,a,a,a,a,a,a,6495832,717,717,3504168,227858,227856,717,717,717,114555,114565,140080,0.0001,1,1,0.0327,0.5028,0.6148,91776,91776,91776,14663040,14662784,14662272,0,0,0,14502784,14502784,14502784,91776,91776,91776,29165824,29165568,29165056,410bwaves
24539,262144,4194304,8388608,262144,4194304,8388608,256,256,256,256,256,256,8,8,8,8,8,8,l,l,l,l,l,l,d,d,d,d,d,d,a,a,a,a,a,a,6495832,446,446,3504168,114059,114054,446,446,446,57386,57390,70153,0.0001,1,1,0.0164,0.5032,0.6151,114176,114176,114176,14690816,14689536,14689280,0,0,0,14508288,14508288,14508288,114176,114176,114176,29199104,29197824,29197568,410bwaves
24623,262144,4194304,8388608,262144,4194304,8388608,512,512,512,512,512,512,8,8,8,8,8,8,l,l,l,l,l,l,d,d,d,d,d,d,a,a,a,a,a,a,6495832,290,290,3504168,57129,57119,290,290,290,28773,28769,35156,0,1,1,0.0082,0.5036,0.6155,148480,148480,148480,14731776,14726656,14726656,0,0,0,14518272,14518272,14518272,148480,148480,148480,29250048,29244928,29244928,410bwaves
24707,262144,4194304,8388608,262144,4194304,8388608,8,8,8,8,8,8,1,1,1,1,1,1,l,l,l,l,l,l,d,d,d,d,d,d,a,a,a,a,a,a,7495681,10947,10702,2504319,177986,151761,10947,10702,10701,105497,91483,91235,0.0015,0.9776,0.9999,0.0421,0.514,0.6012,87576,85616,85608,843976,730056,727400,0,0,0,579912,484032,482928,87576,85616,85608,1423888,1214088,1210328,450soplex
24791,262144,4194304,8388608,262144,4194304,8388608,16,16,16,16,16,16,1,1,1,1,1,1,l,l,l,l,l,l,d,d,d,d,d,d,a,a,a,a,a,a,7495681,5992,5777,2504319,123959,98513,5992,5777,5776,72284,58677,58370,0.0008,0.9641,0.9998,0.0289,0.4734,0.5925,95872,92432,92416,1156544,936240,929440,0,0,0,826800,639968,636880,95872,92432,92416,1983344,1576208,1566320,450soplex
24875,262144,4194304,8388608,262144,4194304,8388608,32,32,32,32,32,32,1,1,1,1,1,1,l,l,l,l,l,l,d,d,d,d,d,d,a,a,a,a,a,a,7495681,3505,3296,2504319,65315,50964,3505,3296,3295,38644,30733,30434,0.0005,0.9404,0.9997,0.0154,0.4705,0.5972,112160,105472,105440,1236608,979264,966784,0,0,0,853472,651584,647072,112160,105472,105440,2090080,1630848,1613856,450soplex
24959,262144,4194304,8388608,262144,4194304,8388608,64,64,64,64,64,64,1,1,1,1,1,1,l,l,l,l,l,l,d,d,d,d,d,d,a,a,a,a,a,a,7495681,2191,1962,2504319,35051,26507,2191,1962,1961,21170,16290,16017,0.0003,0.8955,0.9995,0.0085,0.4648,0.6043,140224,125568,125504,1354880,1035584,1013760,0,0,0,888384,660864,654592,140224,125568,125504,2243264,1696448,1668352,450soplex
25043,262144,4194304,8388608,262144,4194304,8388608,128,128,128,128,128,128,1,1,1,1,1,1,l,l,l,l,l,l,d,d,d,d,d,d,a,a,a,a,a,a,7495681,9055,1229,2504319,19553,13952,9055,1229,1228,12135,8794,8488,0.0012,0.1357,0.9992,0.0048,0.4498,0.6084,1159040,157312,157184,1553280,1113984,1069568,0,0,0,949504,671872,664064,1159040,157312,157184,2502784,1785856,1733632,450soplex
25127,262144,4194304,8388608,262144,4194304,8388608,256,256,256,256,256,256,1,1,1,1,1,1,l,l,l,l,l,l,d,d,d,d,d,d,a,a,a,a,a,a,7495681,8649,813,2504319,11687,7488,8649,813,812,7496,4883,4537,0.0012,0.094,0.9988,0.003,0.4178,0.6059,2214144,208128,207872,1918976,1228032,1134848,0,0,0,1072896,688896,679168,2214144,208128,207872,2991872,1916928,1814016,450soplex
25211,262144,4194304,8388608,262144,4194304,8388608,512,512,512,512,512,512,1,1,1,1,1,1,l,l,l,l,l,l,d,d,d,d,d,d,a,a,a,a,a,a,7495681,8410,549,2504319,10733,4278,8410,549,548,8015,2952,2493,0.0011,0.0653,0.9982,0.0032,0.275,0.5827,4305920,281088,280576,4103680,1464320,1223680,0,0,0,1391616,726016,710656,4305920,281088,280576,5495296,2190336,1934336,450soplex
25295,262144,4194304,8388608,262144,4194304,8388608,8,8,8,8,8,8,2,2,2,2,2,2,l,l,l,l,l,l,d,d,d,d,d,d,a,a,a,a,a,a,7495681,10577,10566,2504319,171110,151171,10577,10566,10566,101771,90828,90829,0.0014,0.999,1,0.0406,0.5308,0.6008,84616,84528,84528,814168,726624,726584,0,0,0,554712,482744,482744,84616,84528,84528,1368880,1209368,1209328,450soplex
25379,262144,4194304,8388608,262144,4194304,8388608,16,16,16,16,16,16,2,2,2,2,2,2,l,l,l,l,l,l,d,d,d,d,d,d,a,a,a,a,a,a,7495681,5707,5700,2504319,118447,97734,5707,5700,5700,69210,57961,57958,0.0008,0.9988,1,0.0276,0.4893,0.593,91312,91200,91200,1107360,927376,927168,0,0,0,787792,636368,636368,91312,91200,91200,1895152,1563744,1563536,450soplex
25463,262144,4194304,8388608,262144,4194304,8388608,32,32,32,32,32,32,2,2,2,2,2,2,l,l,l,l,l,l,d,d,d,d,d,d,a,a,a,a,a,a,7495681,3260,3253,2504319,62173,50294,3260,3253,3253,36753,30105,30107,0.0004,0.9979,1,0.0147,0.4842,0.5986,104320,104096,104096,1176096,963328,962912,0,0,0,813440,646080,646048,104320,104096,104096,1989536,1609408,1608960,450soplex
25547,262144,4194304,8388608,262144,4194304,8388608,64,64,64,64,64,64,2,2,2,2,2,2,l,l,l,l,l,l,d,d,d,d,d,d,a,a,a,a,a,a,7495681,1946,1935,2504319,33080,25920,1946,1935,1935,19887,15727,15722,0.0003,0.9943,1,0.0079,0.4754,0.6066,124544,123840,123840,1272768,1006400,1005376,0,0,0,844352,652480,652288,124544,123840,123840,2117120,1658880,1657664,450soplex
25631,262144,4194304,8388608,262144,4194304,8388608,128,128,128,128,128,128,2,2,2,2,2,2,l,l,l,l,l,l,d,d,d,d,d,d,a,a,a,a,a,a,7495681,1227,1212,2504319,17947,13416,1227,1212,1212,11016,8266,8254,0.0002,0.9878,1,0.0044,0.4606,0.6152,157056,155136,155136,1410048,1057792,1054848,0,0,0,887168,659456,658560,157056,155136,155136,2297216,1717248,1713408,450soplex
25715,262144,4194304,8388608,262144,4194304,8388608,256,256,256,256,256,256,2,2,2,2,2,2,l,l,l,l,l,l,d,d,d,d,d,d,a,a,a,a,a,a,7495681,817,796,2504319,10042,6990,817,796,796,6307,4377,4356,0.0001,0.9743,1,0.0025,0.4359,0.6232,209152,203776,203776,1614592,1118976,1111808,0,0,0,956160,670464,668160,209152,203776,203776,2570752,1789440,1779968,450soplex
25799,262144,4194304,8388608,262144,4194304,8388608,512,512,512,512,512,512,2,2,2,2,2,2,l,l,l,l,l,l,d,d,d,d,d,d,a,a,a,a,a,a,7495681,562,533,2504319,5878,3665,562,533,533,3819,2336,2310,0.0001,0.9484,1,0.0015,0.3974,0.6303,287744,272896,272896,1955328,1191936,1176576,0,0,0,1054208,684544,681472,287744,272896,272896,3009536,1876480,1858048,450soplex
25883,262144,4194304,8388608,262144,4194304,8388608,8,8,8,8,8,8,4,4,4,4,4,4,l,l,l,l,l,l,d,d,d,d,d,d,a,a,a,a,a,a,7495681,10566,10566,2504319,174442,151140,10566,10566,10566,103047,90797,90797,0.0014,1,1,0.0411,0.5205,0.6007,84528,84528,84528,824376,726376,726376,0,0,0,571160,482744,482744,84528,84528,84528,1395536,1209120,1209120,450soplex
25967,262144,4194304,8388608,262144,4194304,8388608,16,16,16,16,16,16,4,4,4,4,4,4,l,l,l,l,l,l,d,d,d,d,d,d,a,a,a,a,a,a,7495681,5700,5700,2504319,121590,97678,5700,5700,5700,70502,57905,57905,0.0008,1,1,0.0282,0.4762,0.5928,91200,91200,91200,1128032,926480,926480,0,0,0,817408,636368,636368,91200,91200,91200,1945440,1562848,1562848,450soplex
26051,262144,4194304,8388608,262144,4194304,8388608,32,32,32,32,32,32,4,4,4,4,4,4,l,l,l,l,l,l,d,d,d,d,d,d,a,a,a,a,a,a,7495681,3254,3253,2504319,63497,50233,3254,3253,3253,37216,30044,30044,0.0004,0.9997,1,0.0149,0.4732,0.5981,104128,104096,104096,1190912,961408,961408,0,0,0,840992,646048,646048,104128,104096,104096,2031904,1607456,1607456,450soplex
26135,262144,4194304,8388608,262144,4194304,8388608,64,64,64,64,64,64,4,4,4,4,4,4,l,l,l,l,l,l,d,d,d,d,d,d,a,a,a,a,a,a,7495681,1936,1935,2504319,33660,25846,1936,1935,1935,20039,15654,15653,0.0003,0.9995,1,0.008,0.4651,0.6056,123904,123840,123840,1282496,1001856,1001792,0,0,0,871744,652288,652288,123904,123840,123840,2154240,1654144,1654080,450soplex
26219,262144,4194304,8388608,262144,4194304,8388608,128,128,128,128,128,128,4,4,4,4,4,4,l,l,l,l,l,l,d,d,d,d,d,d,a,a,a,a,a,a,7495681,1213,1212,2504319,18173,13330,1213,1212,1212,11020,8185,8184,0.0002,0.9992,1,0.0044,0.4504,0.614,155264,155136,155136,1410560,1047680,1047552,0,0,0,915584,658560,658560,155264,155136,155136,2326144,1706240,1706112,450soplex
26303,262144,4194304,8388608,262144,4194304,8388608,256,256,256,256,256,256,4,4,4,4,4,4,l,l,l,l,l,l,d,d,d,d,d,d,a,a,a,a,a,a,7495681,799,796,2504319,10029,6892,799,796,796,6190,4283,4282,0.0001,0.9962,1,0.0025,0.4271,0.6213,204544,203776,203776,1584640,1096448,1096192,0,0,0,982784,667904,667904,204544,203776,203776,2567424,1764352,1764096,450soplex
26387,262144,4194304,8388608,262144,4194304,8388608,512,512,512,512,512,512,4,4,4,4,4,4,l,l,l,l,l,l,d,d,d,d,d,d,a,a,a,a,a,a,7495681,542,533,2504319,5664,3572,542,533,533,3578,2243,2241,0.0001,0.9834,1,0.0014,0.396,0.6274,277504,272896,272896,1831936,1148416,1147392,0,0,0,1068032,680448,680448,277504,272896,272896,2899968,1828864,1827840,450soplex
26471,262144,4194304,8388608,262144,4194304,8388608,8,8,8,8,8,8,8,8,8,8,8,8,l,l,l,l,l,l,d,d,d,d,d,d,a,a,a,a,a,a,7495681,10566,10566,2504319,175349,151140,10566,10566,10566,103315,90797,90797,0.0014,1,1,0.0413,0.5178,0.6007,84528,84528,84528,826520,726376,726376,0,0,0,576272,482744,482744,84528,84528,84528,1402792,1209120,1209120,450soplex
26555,262144,4194304,8388608,262144,4194304,8388608,16,16,16,16,16,16,8,8,8,8,8,8,l,l,l,l,l,l,d,d,d,d,d,d,a,a,a,a,a,a,7495681,5700,5700,2504319,122228,97678,5700,5700,5700,70712,57905,57905,0.0008,1,1,0.0282,0.4737,0.5928,91200,91200,91200,1131392,926480,926480,0,0,0,824256,636368,636368,91200,91200,91200,1955648,1562848,1562848,450soplex
26639,262144,4194304,8388608,262144,4194304,8388608,32,32,32,32,32,32,8,8,8,8,8,8,l,l,l,l,l,l,d,d,d,d,d,d,a,a,a,a,a,a,7495681,3253,3253,2504319,63408,50233,3253,3253,3253,37116,30044,30044,0.0004,1,1,0.0148,0.4738,0.5981,104096,104096,104096,1187712,961408,961408,0,0,0,841344,646048,646048,104096,104096,104096,2029056,1607456,1607456,450soplex
26723,262144,4194304,8388608,262144,4194304,8388608,64,64,64,64,64,64,8,8,8,8,8,8,l,l,l,l,l,l,d,d,d,d,d,d,a,a,a,a,a,a,7495681,1935,1935,2504319,33466,25843,1935,1935,1935,19909,15651,15651,0.0003,1,1,0.0079,0.4677,0.6056,123840,123840,123840,1274176,1001664,1001664,0,0,0,867648,652288,652288,123840,123840,123840,2141824,1653952,1653952,450soplex
26807,262144,4194304,8388608,262144,4194304,8388608,128,128,128,128,128,128,8,8,8,8,8,8,l,l,l,l,l,l,d,d,d,d,d,d,a,a,a,a,a,a,7495681,1212,1212,2504319,18060,13326,1212,1212,1212,10932,8181,8181,0.0002,1,1,0.0044,0.453,0.6139,155136,155136,155136,1399296,1047168,1047168,0,0,0,912384,658560,658560,155136,155136,155136,2311680,1705728,1705728,450soplex
26891,262144,4194304,8388608,262144,4194304,8388608,256,256,256,256,256,256,8,8,8,8,8,8,l,l,l,l,l,l,d,d,d,d,d,d,a,a,a,a,a,a,7495681,796,796,2504319,10028,6887,796,796,796,6155,4278,4278,0.0001,1,1,0.0025,0.4266,0.6212,203776,203776,203776,1575680,1095168,1095168,0,0,0,991488,667904,667904,203776,203776,203776,2567168,1763072,1763072,450soplex
26975,262144,4194304,8388608,262144,4194304,8388608,512,512,512,512,512,512,8,8,8,8,8,8,l,l,l,l,l,l,d,d,d,d,d,d,a,a,a,a,a,a,7495681,535,533,2504319,5631,3569,535,533,533,3517,2240,2240,0.0001,0.9963,1,0.0014,0.3978,0.6276,273920,272896,272896,1800704,1146880,1146880,0,0,0,1082368,680448,680448,273920,272896,272896,2883072,1827328,1827328,450soplex
27059,262144,4194304,8388608,262144,4194304,8388608,8,8,8,8,8,8,1,1,1,1,1,1,l,l,l,l,l,l,d,d,d,d,d,d,a,a,a,a,a,a,8163668,4269,4269,1836332,905271,904974,4269,4269,4269,457862,457701,458494,0.0005,1,1,0.2493,0.5056,0.5066,34152,34152,34152,3662896,3660648,3660632,0,0,0,3579272,3579144,3579112,34152,34152,34152,7242168,7239792,7239744,462libquantum
27143,262144,4194304,8388608,262144,4194304,8388608,16,16,16,16,16,16,1,1,1,1,1,1,l,l,l,l,l,l,d,d,d,d,d,d,a,a,a,a,a,a,8163668,2287,2287,1836332,454832,454474,2287,2287,2287,230888,230626,231071,0.0003,1,1,0.1257,0.5071,0.5084,36592,36592,36592,3694208,3689248,3689216,0,0,0,3583104,3582336,3582304,36592,36592,36592,7277312,7271584,7271520,462libquantum
27227,262144,4194304,8388608,262144,4194304,8388608,32,32,32,32,32,32,1,1,1,1,1,1,l,l,l,l,l,l,d,d,d,d,d,d,a,a,a,a,a,a,8163668,1293,1293,1836332,228178,227678,1293,1293,1293,115986,115627,115856,0.0002,1,1,0.0632,0.5067,0.5089,41376,41376,41376,3711552,3698848,3698784,0,0,0,3590144,3586848,3586784,41376,41376,41376,7301696,7285696,7285568,462libquantum
27311,262144,4194304,8388608,262144,4194304,8388608,64,64,64,64,64,64,1,1,1,1,1,1,l,l,l,l,l,l,d,d,d,d,d,d,a,a,a,a,a,a,8163668,755,755,1836332,114953,114121,755,755,755,58623,58038,58159,0.0001,1,1,0.0319,0.5049,0.5096,48320,48320,48320,3751872,3712256,3712128,0,0,0,3605120,3591488,3591360,48320,48320,48320,7356992,7303744,7303488,462libquantum
27395,262144,4194304,8388608,262144,4194304,8388608,128,128,128,128,128,128,1,1,1,1,1,1,l,l,l,l,l,l,d,d,d,d,d,d,a,a,a,a,a,a,8163668,459,458,1836332,58727,57248,459,458,458,30196,29184,29249,0.0001,0.9978,1,0.0164,0.4969,0.5109,58752,58624,58624,3865088,3730176,3729920,0,0,0,3651968,3597568,3597440,58752,58624,58624,7517056,7327744,7327360,462libquantum
27479,262144,4194304,8388608,262144,4194304,8388608,256,256,256,256,256,256,1,1,1,1,1,1,l,l,l,l,l,l,d,d,d,d,d,d,a,a,a,a,a,a,8163668,291,289,1836332,31792,28807,291,289,289,16823,14764,14795,0,0.9931,1,0.0092,0.4644,0.5136,74496,73984,73984,4306688,3761152,3760640,0,0,0,3832064,3613440,3613184,74496,73984,73984,8138752,7374592,7373824,462libquantum
27563,262144,4194304,8388608,262144,4194304,8388608,512,512,512,512,512,512,1,1,1,1,1,1,l,l,l,l,l,l,d,d,d,d,d,d,a,a,a,a,a,a,8163668,198,194,1836332,20221,14672,198,194,194,11368,7642,7657,0,0.9798,1,0.0062,0.3779,0.5219,101376,99328,99328,5820416,3844096,3843072,0,0,0,4532736,3667968,3667456,101376,99328,99328,10353152,7512064,7510528,462libquantum
27647,262144,4194304,8388608,262144,4194304,8388608,8,8,8,8,8,8,2,2,2,2,2,2,l,l,l,l,l,l,d,d,d,d,d,d,a,a,a,a,a,a,8163668,4269,4269,1836332,905188,904954,4269,4269,4269,457790,457567,457532,0.0005,1,1,0.2493,0.5055,0.5056,34152,34152,34152,3662320,3660528,3660256,0,0,0,3579184,3579104,3579104,34152,34152,34152,7241504,7239632,7239360,462libquantum
27731,262144,4194304,8388608,262144,4194304,8388608,16,16,16,16,16,16,2,2,2,2,2,2,l,l,l,l,l,l,d,d,d,d,d,d,a,a,a,a,a,a,8163668,2287,2287,1836332,454637,454453,2287,2287,2287,230738,230563,230530,0.0003,1,1,0.1257,0.5071,0.5073,36592,36592,36592,3691808,3688992,3688480,0,0,0,3582384,3582256,3582256,36592,36592,36592,7274192,7271248,7270736,462libquantum
27815,262144,4194304,8388608,262144,4194304,8388608,32,32,32,32,32,32,2,2,2,2,2,2,l,l,l,l,l,l,d,d,d,d,d,d,a,a,a,a,a,a,8163668,1293,1293,1836332,227796,227647,1293,1293,1293,115707,115568,115547,0.0002,1,1,0.063,0.5073,0.5076,41376,41376,41376,3702624,3698144,3697504,0,0,0,3586848,3586560,3586560,41376,41376,41376,7289472,7284704,7284064,462libquantum
27899,262144,4194304,8388608,262144,4194304,8388608,64,64,64,64,64,64,2,2,2,2,2,2,l,l,l,l,l,l,d,d,d,d,d,d,a,a,a,a,a,a,8163668,755,755,1836332,114155,114046,755,755,755,58051,57947,57935,0.0001,1,1,0.0316,0.5076,0.508,48320,48320,48320,3715264,3708544,3707840,0,0,0,3590656,3590400,3590400,48320,48320,48320,7305920,7298944,7298240,462libquantum
27983,262144,4194304,8388608,262144,4194304,8388608,128,128,128,128,128,128,2,2,2,2,2,2,l,l,l,l,l,l,d,d,d,d,d,d,a,a,a,a,a,a,8163668,458,458,1836332,57236,57142,458,458,458,29154,29069,29059,0.0001,1,1,0.0159,0.5079,0.5085,58624,58624,58624,3731712,3720704,3719552,0,0,0,3594496,3593472,3593472,58624,58624,58624,7326208,7314176,7313024,462libquantum
28067,262144,4194304,8388608,262144,4194304,8388608,256,256,256,256,256,256,2,2,2,2,2,2,l,l,l,l,l,l,d,d,d,d,d,d,a,a,a,a,a,a,8163668,287,287,1836332,28759,28644,287,287,287,14698,14594,14586,0,1,1,0.008,0.5075,0.5092,73472,73472,73472,3762688,3735808,3734016,0,0,0,3599616,3597056,3597056,73472,73472,73472,7362304,7332864,7331072,462libquantum
28151,262144,4194304,8388608,262144,4194304,8388608,512,512,512,512,512,512,2,2,2,2,2,2,l,l,l,l,l,l,d,d,d,d,d,d,a,a,a,a,a,a,8163668,192,192,1836332,14502,14374,192,192,192,7451,7339,7334,0,1,1,0.0041,0.5061,0.5102,98304,98304,98304,3814912,3757056,3755008,0,0,0,3610112,3602432,3602432,98304,98304,98304,7425024,7359488,7357440,462libquantum
28235,262144,4194304,8388608,262144,4194304,8388608,8,8,8,8,8,8,4,4,4,4,4,4,l,l,l,l,l,l,d,d,d,d,d,d,a,a,a,a,a,a,8163668,4269,4269,1836332,905082,904928,4269,4269,4269,457694,457540,457532,0.0005,1,1,0.2492,0.5055,0.5056,34152,34152,34152,3661552,3660320,3660256,0,0,0,3579104,3579104,3579104,34152,34152,34152,7240656,7239424,7239360,462libquantum
28319,262144,4194304,8388608,262144,4194304,8388608,16,16,16,16,16,16,4,4,4,4,4,4,l,l,l,l,l,l,d,d,d,d,d,d,a,a,a,a,a,a,8163668,2287,2287,1836332,454535,454431,2287,2287,2287,230644,230540,230530,0.0003,1,1,0.1256,0.5072,0.5073,36592,36592,36592,3690304,3688640,3688480,0,0,0,3582256,3582256,3582256,36592,36592,36592,7272560,7270896,7270736,462libquantum
28403,262144,4194304,8388608,262144,4194304,8388608,32,32,32,32,32,32,4,4,4,4,4,4,l,l,l,l,l,l,d,d,d,d,d,d,a,a,a,a,a,a,8163668,1293,1293,1836332,227712,227638,1293,1293,1293,115632,115558,115547,0.0002,1,1,0.063,0.5075,0.5076,41376,41376,41376,3700224,3697856,3697504,0,0,0,3586560,3586560,3586560,41376,41376,41376,7286784,7284416,7284064,462libquantum
28487,262144,4194304,8388608,262144,4194304,8388608,64,64,64,64,64,64,4,4,4,4,4,4,l,l,l,l,l,l,d,d,d,d,d,d,a,a,a,a,a,a,8163668,755,755,1836332,114098,114043,755,755,755,57998,57943,57935,0.0001,1,1,0.0316,0.5078,0.508,48320,48320,48320,3711872,3708352,3707840,0,0,0,3590400,3590400,3590400,48320,48320,48320,7302272,7298752,7298240,462libquantum
28571,262144,4194304,8388608,262144,4194304,8388608,128,128,128,128,128,128,4,4,4,4,4,4,l,l,l,l,l,l,d,d,d,d,d,d,a,a,a,a,a,a,8163668,458,458,1836332,57182,57141,458,458,458,29108,29067,29059,0.0001,1,1,0.0159,0.5083,0.5085,58624,58624,58624,3725824,3720576,3719552,0,0,0,3593472,3593472,3593472,58624,58624,58624,7319296,7314048,7313024,462libquantum
28655,262144,4194304,8388608,262144,4194304,8388608,256,256,256,256,256,256,4,4,4,4,4,4,l,l,l,l,l,l,d,d,d,d,d,d,a,a,a,a,a,a,8163668,287,287,1836332,28675,28643,287,287,287,14623,14592,14586,0,1,1,0.008,0.5089,0.5092,73472,73472,73472,3743488,3735552,3734016,0,0,0,3597312,3597056,3597056,73472,73472,73472,7340800,7332608,7331072,462libquantum
28739,262144,4194304,8388608,262144,4194304,8388608,512,512,512,512,512,512,4,4,4,4,4,4,l,l,l,l,l,l,d,d,d,d,d,d,a,a,a,a,a,a,8163668,192,192,1836332,14396,14372,192,192,192,7360,7336,7334,0,1,1,0.004,0.5096,0.5103,98304,98304,98304,3768320,3756032,3755008,0,0,0,3602432,3602432,3602432,98304,98304,98304,7370752,7358464,7357440,462libquantum
28823,262144,4194304,8388608,262144,4194304,8388608,8,8,8,8,8,8,8,8,8,8,8,8,l,l,l,l,l,l,d,d,d,d,d,d,a,a,a,a,a,a,8163668,4269,4269,1836332,905078,904920,4269,4269,4269,457690,457532,457532,0.0005,1,1,0.2492,0.5055,0.5056,34152,34152,34152,3661520,3660256,3660256,0,0,0,3579104,3579104,3579104,34152,34152,34152,7240624,7239360,7239360,462libquantum
28907,262144,4194304,8388608,262144,4194304,8388608,16,16,16,16,16,16,8,8,8,8,8,8,l,l,l,l,l,l,d,d,d,d,d,d,a,a,a,a,a,a,8163668,2287,2287,1836332,454525,454421,2287,2287,2287,230634,230530,230530,0.0003,1,1,0.1256,0.5072,0.5073,36592,36592,36592,3690144,3688480,3688480,0,0,0,3582256,3582256,3582256,36592,36592,36592,7272400,7270736,7270736,462libquantum
28991,262144,4194304,8388608,262144,4194304,8388608,32,32,32,32,32,32,8,8,8,8,8,8,l,l,l,l,l,l,d,d,d,d,d,d,a,a,a,a,a,a,8163668,1293,1293,1836332,227693,227627,1293,1293,1293,115613,115547,115547,0.0002,1,1,0.063,0.5075,0.5076,41376,41376,41376,3699616,3697504,3697504,0,0,0,3586560,3586560,3586560,41376,41376,41376,7286176,7284064,7284064,462libquantum
29075,262144,4194304,8388608,262144,4194304,8388608,64,64,64,64,64,64,8,8,8,8,8,8,l,l,l,l,l,l,d,d,d,d,d,d,a,a,a,a,a,a,8163668,755,755,1836332,114081,114035,755,755,755,57981,57935,57935,0.0001,1,1,0.0316,0.5078,0.508,48320,48320,48320,3710784,3707840,3707840,0,0,0,3590400,3590400,3590400,48320,48320,48320,7301184,7298240,7298240,462libquantum
29159,262144,4194304,8388608,262144,4194304,8388608,128,128,128,128,128,128,8,8,8,8,8,8,l,l,l,l,l,l,d,d,d,d,d,d,a,a,a,a,a,a,8163668,458,458,1836332,57168,57133,458,458,458,29094,29059,29059,0.0001,1,1,0.0158,0.5083,0.5086,58624,58624,58624,3724032,3719552,3719552,0,0,0,3593472,3593472,3593472,58624,58624,58624,7317504,7313024,7313024,462libquantum
29243,262144,4194304,8388608,262144,4194304,8388608,256,256,256,256,256,256,8,8,8,8,8,8,l,l,l,l,l,l,d,d,d,d,d,d,a,a,a,a,a,a,8163668,287,287,1836332,28664,28637,287,287,287,14613,14586,14586,0,1,1,0.008,0.5089,0.5093,73472,73472,73472,3740928,3734016,3734016,0,0,0,3597056,3597056,3597056,73472,73472,73472,7337984,7331072,7331072,462libquantum
29327,262144,4194304,8388608,262144,4194304,8388608,512,512,512,512,512,512,8,8,8,8,8,8,l,l,l,l,l,l,d,d,d,d,d,d,a,a,a,a,a,a,8163668,192,192,1836332,14389,14370,192,192,192,7353,7334,7334,0,1,1,0.004,0.5097,0.5104,98304,98304,98304,3764736,3755008,3755008,0,0,0,3602432,3602432,3602432,98304,98304,98304,7367168,7357440,7357440,462libquantum
29411,262144,4194304,8388608,262144,4194304,8388608,8,8,8,8,8,8,1,1,1,1,1,1,l,l,l,l,l,l,d,d,d,d,d,d,a,a,a,a,a,a,7301736,14527,14314,2698264,338486,329490,14527,14314,14314,177860,173220,173333,0.002,0.9853,1,0.0659,0.5117,0.5261,116216,114512,114512,1422880,1378696,1377112,0,0,0,1285008,1257224,1256536,116216,114512,114512,2707888,2635920,2633648,464h264ref
29495,262144,4194304,8388608,262144,4194304,8388608,16,16,16,16,16,16,1,1,1,1,1,1,l,l,l,l,l,l,d,d,d,d,d,d,a,a,a,a,a,a,7301736,7788,7652,2698264,263057,254324,7788,7652,7652,136611,132173,132989,0.0011,0.9825,1,0.0506,0.5025,0.5229,124608,122432,122432,2185776,2102480,2098240,0,0,0,2023136,1966704,1964592,124608,122432,122432,4208912,4069184,4062832,464h264ref
29579,262144,4194304,8388608,262144,4194304,8388608,32,32,32,32,32,32,1,1,1,1,1,1,l,l,l,l,l,l,d,d,d,d,d,d,a,a,a,a,a,a,7301736,4362,4264,2698264,137465,130809,4362,4264,4264,71863,68375,68923,0.0006,0.9775,1,0.0266,0.4974,0.5269,139584,136448,136448,2299616,2167360,2159872,0,0,0,2099264,2018528,2015040,139584,136448,136448,4398880,4185888,4174912,464h264ref
29663,262144,4194304,8388608,262144,4194304,8388608,64,64,64,64,64,64,1,1,1,1,1,1,l,l,l,l,l,l,d,d,d,d,d,d,a,a,a,a,a,a,7301736,2549,2464,2698264,74225,68548,2549,2464,2464,39169,36114,36560,0.0003,0.9667,1,0.0145,0.4865,0.5333,163136,157696,157696,2506816,2277696,2262848,0,0,0,2243584,2109376,2102464,163136,157696,157696,4750400,4387072,4365312,464h264ref
29747,262144,4194304,8388608,262144,4194304,8388608,128,128,128,128,128,128,1,1,1,1,1,1,l,l,l,l,l,l,d,d,d,d,d,d,a,a,a,a,a,a,7301736,1561,1467,2698264,45079,37195,1561,1467,1467,24789,19756,20197,0.0002,0.9398,1,0.0092,0.4383,0.543,199808,187776,187776,3172992,2476672,2448128,0,0,0,2597120,2284288,2271360,199808,187776,187776,5770112,4760960,4719488,464h264ref
29831,262144,4194304,8388608,262144,4194304,8388608,256,256,256,256,256,256,1,1,1,1,1,1,l,l,l,l,l,l,d,d,d,d,d,d,a,a,a,a,a,a,7301736,999,890,2698264,30338,21510,999,890,890,17497,11485,11965,0.0001,0.8909,1,0.0065,0.3786,0.5563,255744,227840,227840,4479232,2871296,2802688,0,0,0,3287296,2635264,2605056,255744,227840,227840,7766528,5506560,5407744,464h264ref
29915,262144,4194304,8388608,262144,4194304,8388608,512,512,512,512,512,512,1,1,1,1,1,1,l,l,l,l,l,l,d,d,d,d,d,d,a,a,a,a,a,a,7301736,1045,563,2698264,26438,13584,1045,563,563,16379,7203,7600,0.0001,0.5388,1,0.0061,0.2724,0.5595,535040,288256,288256,8386048,3625984,3512320,0,0,0,5150208,3329024,3273728,535040,288256,288256,13536256,6955008,6786048,464h264ref
29999,262144,4194304,8388608,262144,4194304,8388608,8,8,8,8,8,8,2,2,2,2,2,2,l,l,l,l,l,l,d,d,d,d,d,d,a,a,a,a,a,a,7301736,14350,14310,2698264,337875,329180,14350,14310,14310,177181,172147,172185,0.002,0.9972,1,0.0657,0.5095,0.5231,114800,114480,114480,1417448,1377016,1376912,0,0,0,1285552,1256424,1256344,114800,114480,114480,2703000,2633440,2633256,464h264ref
30083,262144,4194304,8388608,262144,4194304,8388608,16,16,16,16,16,16,2,2,2,2,2,2,l,l,l,l,l,l,d,d,d,d,d,d,a,a,a,a,a,a,7301736,7676,7649,2698264,263190,253885,7676,7649,7649,136316,131136,131348,0.0011,0.9965,1,0.0505,0.4983,0.5174,122816,122384,122384,2181056,2098112,2097888,0,0,0,2029984,1964048,1963904,122816,122384,122384,4211040,4062160,4061792,464h264ref
30167,262144,4194304,8388608,262144,4194304,8388608,32,32,32,32,32,32,2,2,2,2,2,2,l,l,l,l,l,l,d,d,d,d,d,d,a,a,a,a,a,a,7301736,4283,4261,2698264,136796,130422,4283,4261,4261,71121,67490,67654,0.0006,0.9949,1,0.0264,0.4934,0.5187,137056,136352,136352,2275872,2159328,2158816,0,0,0,2101600,2014176,2013920,137056,136352,136352,4377472,4173504,4172736,464h264ref
30251,262144,4194304,8388608,262144,4194304,8388608,64,64,64,64,64,64,2,2,2,2,2,2,l,l,l,l,l,l,d,d,d,d,d,d,a,a,a,a,a,a,7301736,2481,2462,2698264,72518,68150,2481,2462,2462,37808,35331,35477,0.0003,0.9923,1,0.014,0.4872,0.5206,158784,157568,157568,2419712,2260544,2259264,0,0,0,2221440,2101056,2100224,158784,157568,157568,4641152,4361600,4359488,464h264ref
30335,262144,4194304,8388608,262144,4194304,8388608,128,128,128,128,128,128,2,2,2,2,2,2,l,l,l,l,l,l,d,d,d,d,d,d,a,a,a,a,a,a,7301736,1481,1464,2698264,39798,36816,1481,1464,1464,20814,19107,19217,0.0002,0.9885,1,0.0077,0.4801,0.522,189568,187392,187392,2664192,2443904,2441344,0,0,0,2429952,2268544,2266752,189568,187392,187392,5094144,4712448,4708096,464h264ref
30419,262144,4194304,8388608,262144,4194304,8388608,256,256,256,256,256,256,2,2,2,2,2,2,l,l,l,l,l,l,d,d,d,d,d,d,a,a,a,a,a,a,7301736,901,888,2698264,23154,21122,901,888,888,12163,11003,11012,0.0001,0.9856,1,0.0045,0.4752,0.5214,230656,227328,227328,3113728,2802944,2788096,0,0,0,2813696,2604288,2594816,230656,227328,227328,5927424,5407232,5382912,464h264ref
30503,262144,4194304,8388608,262144,4194304,8388608,512,512,512,512,512,512,2,2,2,2,2,2,l,l,l,l,l,l,d,d,d,d,d,d,a,a,a,a,a,a,7301736,583,562,2698264,14619,13296,583,562,562,7693,7468,7011,0.0001,0.964,1,0.0029,0.5108,0.5273,298496,287744,287744,3938816,3520000,3477504,0,0,0,3546112,3287552,3256832,298496,287744,287744,7484928,6807552,6734336,464h264ref
30587,262144,4194304,8388608,262144,4194304,8388608,8,8,8,8,8,8,4,4,4,4,4,4,l,l,l,l,l,l,d,d,d,d,d,d,a,a,a,a,a,a,7301736,14310,14310,2698264,335521,329154,14310,14310,14310,175925,172111,172111,0.002,1,1,0.0652,0.513,0.5229,114480,114480,114480,1407400,1376888,1376888,0,0,0,1276768,1256344,1256344,114480,114480,114480,2684168,2633232,2633232,464h264ref
30671,262144,4194304,8388608,262144,4194304,8388608,16,16,16,16,16,16,4,4,4,4,4,4,l,l,l,l,l,l,d,d,d,d,d,d,a,a,a,a,a,a,7301736,7649,7649,2698264,260727,253857,7649,7649,7649,135032,131113,131113,0.001,1,1,0.05,0.5029,0.5165,122384,122384,122384,2160512,2097808,2097808,0,0,0,2011120,1963904,1963904,122384,122384,122384,4171632,4061712,4061712,464h264ref
30755,262144,4194304,8388608,262144,4194304,8388608,32,32,32,32,32,32,4,4,4,4,4,4,l,l,l,l,l,l,d,d,d,d,d,d,a,a,a,a,a,a,7301736,4261,4261,2698264,135695,130395,4261,4261,4261,70515,67460,67460,0.0006,1,1,0.0261,0.4971,0.5174,136352,136352,136352,2256480,2158720,2158720,0,0,0,2085760,2013920,2013920,136352,136352,136352,4342240,4172640,4172640,464h264ref
30839,262144,4194304,8388608,262144,4194304,8388608,64,64,64,64,64,64,4,4,4,4,4,4,l,l,l,l,l,l,d,d,d,d,d,d,a,a,a,a,a,a,7301736,2462,2462,2698264,72215,68113,2462,2462,2462,37606,35297,35297,0.0003,1,1,0.0139,0.4888,0.5182,157568,157568,157568,2406784,2259008,2259008,0,0,0,2214976,2100224,2100224,157568,157568,157568,4621760,4359232,4359232,464h264ref
30923,262144,4194304,8388608,262144,4194304,8388608,128,128,128,128,128,128,4,4,4,4,4,4,l,l,l,l,l,l,d,d,d,d,d,d,a,a,a,a,a,a,7301736,1464,1464,2698264,39503,36777,1464,1464,1464,20627,19068,19071,0.0002,1,1,0.0076,0.4827,0.5186,187392,187392,187392,2640256,2440704,2440704,0,0,0,2416128,2266752,2266752,187392,187392,187392,5056384,4707456,4707456,464h264ref
31007,262144,4194304,8388608,262144,4194304,8388608,256,256,256,256,256,256,4,4,4,4,4,4,l,l,l,l,l,l,d,d,d,d,d,d,a,a,a,a,a,a,7301736,889,888,2698264,22824,21021,889,888,888,11941,10888,10891,0.0001,0.9989,1,0.0044,0.477,0.5181,227584,227328,227328,3056896,2787072,2786560,0,0,0,2786048,2594304,2594048,227584,227328,227328,5842944,5381376,5380608,464h264ref
31091,262144,4194304,8388608,262144,4194304,8388608,512,512,512,512,512,512,4,4,4,4,4,4,l,l,l,l,l,l,d,d,d,d,d,d,a,a,a,a,a,a,7301736,563,562,2698264,14324,13132,563,562,562,7487,6789,6892,0.0001,0.9982,1,0.0028,0.474,0.5248,288256,287744,287744,3833344,3473920,3464704,0,0,0,3500544,3249664,3246592,288256,287744,287744,7333888,6723584,6711296,464h264ref
31175,262144,4194304,8388608,262144,4194304,8388608,8,8,8,8,8,8,8,8,8,8,8,8,l,l,l,l,l,l,d,d,d,d,d,d,a,a,a,a,a,a,7301736,14310,14310,2698264,334857,329154,14310,14310,14310,175569,172111,172111,0.002,1,1,0.0651,0.514,0.5229,114480,114480,114480,1404552,1376888,1376888,0,0,0,1274304,1256344,1256344,114480,114480,114480,2678856,2633232,2633232,464h264ref
31259,262144,4194304,8388608,262144,4194304,8388608,16,16,16,16,16,16,8,8,8,8,8,8,l,l,l,l,l,l,d,d,d,d,d,d,a,a,a,a,a,a,7301736,7649,7649,2698264,260437,253857,7649,7649,7649,134881,131113,131113,0.001,1,1,0.05,0.5034,0.5165,122384,122384,122384,2158096,2097808,2097808,0,0,0,2008896,1963904,1963904,122384,122384,122384,4166992,4061712,4061712,464h264ref
31343,262144,4194304,8388608,262144,4194304,8388608,32,32,32,32,32,32,8,8,8,8,8,8,l,l,l,l,l,l,d,d,d,d,d,d,a,a,a,a,a,a,7301736,4261,4261,2698264,136236,130395,4261,4261,4261,70780,67460,67460,0.0006,1,1,0.0262,0.4952,0.5174,136352,136352,136352,2264960,2158720,2158720,0,0,0,2094592,2013920,2013920,136352,136352,136352,4359552,4172640,4172640,464h264ref
31427,262144,4194304,8388608,262144,4194304,8388608,64,64,64,64,64,64,8,8,8,8,8,8,l,l,l,l,l,l,d,d,d,d,d,d,a,a,a,a,a,a,7301736,2462,2462,2698264,72455,68113,2462,2462,2462,37720,35297,35297,0.0003,1,1,0.014,0.4872,0.5182,157568,157568,157568,2414080,2259008,2259008,0,0,0,2223040,2100224,2100224,157568,157568,157568,4637120,4359232,4359232,464h264ref
31511,262144,4194304,8388608,262144,4194304,8388608,128,128,128,128,128,128,8,8,8,8,8,8,l,l,l,l,l,l,d,d,d,d,d,d,a,a,a,a,a,a,7301736,1464,1464,2698264,39472,36777,1464,1464,1464,20606,19068,19068,0.0002,1,1,0.0076,0.4831,0.5185,187392,187392,187392,2637568,2440704,2440704,0,0,0,2414848,2266752,2266752,187392,187392,187392,5052416,4707456,4707456,464h264ref
31595,262144,4194304,8388608,262144,4194304,8388608,256,256,256,256,256,256,8,8,8,8,8,8,l,l,l,l,l,l,d,d,d,d,d,d,a,a,a,a,a,a,7301736,888,888,2698264,22769,21018,888,888,888,11903,10885,10885,0.0001,1,1,0.0044,0.4781,0.5179,227328,227328,227328,3047168,2786560,2786560,0,0,0,2781696,2594048,2594048,227328,227328,227328,5828864,5380608,5380608,464h264ref
31679,262144,4194304,8388608,262144,4194304,8388608,512,512,512,512,512,512,8,8,8,8,8,8,l,l,l,l,l,l,d,d,d,d,d,d,a,a,a,a,a,a,7301736,562,562,2698264,14252,13104,562,562,562,7438,6767,6766,0.0001,1,1,0.0028,0.4748,0.5163,287744,287744,287744,3808256,3464192,3464192,0,0,0,3488768,3245056,3245056,287744,287744,287744,7297024,6709248,6709248,464h264ref
31763,262144,4194304,8388608,262144,4194304,8388608,8,8,8,8,8,8,1,1,1,1,1,1,l,l,l,l,l,l,d,d,d,d,d,d,a,a,a,a,a,a,6837979,4446,4446,3162021,6216036,6215818,4446,4446,4446,3113205,3113051,3114003,0.0007,1,1,0.9846,0.5008,0.501,35568,35568,35568,24905640,24904408,24904408,0,0,0,24822648,24822136,24822136,35568,35568,35568,49728288,49726544,49726544,470lbm
31847,262144,4194304,8388608,262144,4194304,8388608,16,16,16,16,16,16,1,1,1,1,1,1,l,l,l,l,l,l,d,d,d,d,d,d,a,a,a,a,a,a,6837979,2398,2398,3162021,3110121,3109892,2398,2398,2398,1558478,1558314,1558826,0.0004,1,1,0.4929,0.501,0.5012,38368,38368,38368,24935648,24933024,24933024,0,0,0,24826288,24825248,24825248,38368,38368,38368,49761936,49758272,49758272,470lbm
31931,262144,4194304,8388608,262144,4194304,8388608,32,32,32,32,32,32,1,1,1,1,1,1,l,l,l,l,l,l,d,d,d,d,d,d,a,a,a,a,a,a,6837979,1362,1362,3162021,1555594,1555384,1362,1362,1362,779614,779462,779732,0.0002,1,1,0.2466,0.5011,0.5013,43584,43584,43584,24947648,24942784,24942784,0,0,0,24831360,24829504,24829504,43584,43584,43584,49779008,49772288,49772288,470lbm
32015,262144,4194304,8388608,262144,4194304,8388608,64,64,64,64,64,64,1,1,1,1,1,1,l,l,l,l,l,l,d,d,d,d,d,d,a,a,a,a,a,a,6837979,807,807,3162021,778199,777953,807,807,807,390105,389932,390078,0.0001,1,1,0.1234,0.5011,0.5014,51648,51648,51648,24966720,24955648,24955648,0,0,0,24838016,24833344,24833344,51648,51648,51648,49804736,49788992,49788992,470lbm
32099,262144,4194304,8388608,262144,4194304,8388608,128,128,128,128,128,128,1,1,1,1,1,1,l,l,l,l,l,l,d,d,d,d,d,d,a,a,a,a,a,a,6837979,494,494,3162021,389348,389120,494,494,494,195241,195085,195163,0.0001,1,1,0.0617,0.5011,0.5015,63232,63232,63232,24990848,24970880,24970880,0,0,0,24845696,24836480,24836480,63232,63232,63232,49836544,49807360,49807360,470lbm
32183,262144,4194304,8388608,262144,4194304,8388608,256,256,256,256,256,256,1,1,1,1,1,1,l,l,l,l,l,l,d,d,d,d,d,d,a,a,a,a,a,a,6837979,311,311,3162021,194868,194647,311,311,311,97767,97616,97656,0,1,1,0.0309,0.5009,0.5017,79616,79616,79616,25028352,24989696,24989696,0,0,0,24857856,24839936,24839936,79616,79616,79616,49886208,49829632,49829632,470lbm
32267,262144,4194304,8388608,262144,4194304,8388608,512,512,512,512,512,512,1,1,1,1,1,1,l,l,l,l,l,l,d,d,d,d,d,d,a,a,a,a,a,a,6837979,208,208,3162021,97716,97396,208,208,208,49087,48870,48894,0,1,1,0.0155,0.5001,0.502,106496,106496,106496,25132544,25021440,25021440,0,0,0,24898048,24845312,24845312,106496,106496,106496,50030592,49866752,49866752,470lbm
32351,262144,4194304,8388608,262144,4194304,8388608,8,8,8,8,8,8,2,2,2,2,2,2,l,l,l,l,l,l,d,d,d,d,d,d,a,a,a,a,a,a,6837979,4446,4446,3162021,6215827,6215815,4446,4446,4446,3113059,3113048,5167239,0.0007,1,1,0.9845,0.5008,0.8313,35568,35568,35568,24904472,24904384,24904384,0,0,0,24822144,24822136,24822136,35568,35568,35568,49726616,49726520,49726520,470lbm
32435,262144,4194304,8388608,262144,4194304,8388608,16,16,16,16,16,16,2,2,2,2,2,2,l,l,l,l,l,l,d,d,d,d,d,d,a,a,a,a,a,a,6837979,2398,2398,3162021,3109905,3109886,2398,2398,2398,1558325,1558308,2585598,0.0004,1,1,0.4928,0.5011,0.8314,38368,38368,38368,24933200,24932928,24932928,0,0,0,24825280,24825248,24825248,38368,38368,38368,49758480,49758176,49758176,470lbm
32519,262144,4194304,8388608,262144,4194304,8388608,32,32,32,32,32,32,2,2,2,2,2,2,l,l,l,l,l,l,d,d,d,d,d,d,a,a,a,a,a,a,6837979,1362,1362,3162021,1555399,1555376,1362,1362,1362,779473,779454,1293232,0.0002,1,1,0.2465,0.5011,0.8315,43584,43584,43584,24943136,24942528,24942528,0,0,0,24829632,24829504,24829504,43584,43584,43584,49772768,49772032,49772032,470lbm
32603,262144,4194304,8388608,262144,4194304,8388608,64,64,64,64,64,64,2,2,2,2,2,2,l,l,l,l,l,l,d,d,d,d,d,d,a,a,a,a,a,a,6837979,807,807,3162021,777945,777919,807,807,807,389919,389898,646847,0.0001,1,1,0.1233,0.5012,0.8315,51648,51648,51648,24954816,24953472,24953472,0,0,0,24833664,24833344,24833344,51648,51648,51648,49788480,49786816,49786816,470lbm
32687,262144,4194304,8388608,262144,4194304,8388608,128,128,128,128,128,128,2,2,2,2,2,2,l,l,l,l,l,l,d,d,d,d,d,d,a,a,a,a,a,a,6837979,494,494,3162021,389114,389084,494,494,494,195074,195049,323548,0.0001,1,1,0.0617,0.5013,0.8316,63232,63232,63232,24969472,24966272,24966272,0,0,0,24837120,24836480,24836480,63232,63232,63232,49806592,49802752,49802752,470lbm
32771,262144,4194304,8388608,262144,4194304,8388608,256,256,256,256,256,256,2,2,2,2,2,2,l,l,l,l,l,l,d,d,d,d,d,d,a,a,a,a,a,a,6837979,311,311,3162021,194646,194617,311,311,311,97609,97586,161849,0,1,1,0.0309,0.5014,0.8316,79616,79616,79616,24987904,24982016,24982016,0,0,0,24841472,24839936,24839936,79616,79616,79616,49829376,49821952,49821952,470lbm
32855,262144,4194304,8388608,262144,4194304,8388608,512,512,512,512,512,512,2,2,2,2,2,2,l,l,l,l,l,l,d,d,d,d,d,d,a,a,a,a,a,a,6837979,208,208,3162021,97391,97363,208,208,208,48857,48837,80979,0,1,1,0.0155,0.5015,0.8317,106496,106496,106496,25014784,25004544,25004544,0,0,0,24849408,24845312,24845312,106496,106496,106496,49864192,49849856,49849856,470lbm
32939,262144,4194304,8388608,262144,4194304,8388608,8,8,8,8,8,8,4,4,4,4,4,4,l,l,l,l,l,l,d,d,d,d,d,d,a,a,a,a,a,a,6837979,4446,4446,3162021,6215815,6215815,4446,4446,4446,3113048,3113048,5167239,0.0007,1,1,0.9845,0.5008,0.8313,35568,35568,35568,24904384,24904384,24904384,0,0,0,24822136,24822136,24822136,35568,35568,35568,49726520,49726520,49726520,470lbm
33023,262144,4194304,8388608,262144,4194304,8388608,16,16,16,16,16,16,4,4,4,4,4,4,l,l,l,l,l,l,d,d,d,d,d,d,a,a,a,a,a,a,6837979,2398,2398,3162021,3109886,3109886,2398,2398,2398,1558308,1558308,2585598,0.0004,1,1,0.4928,0.5011,0.8314,38368,38368,38368,24932928,24932928,24932928,0,0,0,24825248,24825248,24825248,38368,38368,38368,49758176,49758176,49758176,470lbm
33107,262144,4194304,8388608,262144,4194304,8388608,32,32,32,32,32,32,4,4,4,4,4,4,l,l,l,l,l,l,d,d,d,d,d,d,a,a,a,a,a,a,6837979,1362,1362,3162021,1555376,1555376,1362,1362,1362,779454,779454,1293232,0.0002,1,1,0.2465,0.5011,0.8315,43584,43584,43584,24942528,24942528,24942528,0,0,0,24829504,24829504,24829504,43584,43584,43584,49772032,49772032,49772032,470lbm
33191,262144,4194304,8388608,262144,4194304,8388608,64,64,64,64,64,64,4,4,4,4,4,4,l,l,l,l,l,l,d,d,d,d,d,d,a,a,a,a,a,a,6837979,807,807,3162021,777919,777919,807,807,807,389898,389898,646847,0.0001,1,1,0.1233,0.5012,0.8315,51648,51648,51648,24953472,24953472,24953472,0,0,0,24833344,24833344,24833344,51648,51648,51648,49786816,49786816,49786816,470lbm
33275,262144,4194304,8388608,262144,4194304,8388608,128,128,128,128,128,128,4,4,4,4,4,4,l,l,l,l,l,l,d,d,d,d,d,d,a,a,a,a,a,a,6837979,494,494,3162021,389084,389084,494,494,494,195049,195049,323548,0.0001,1,1,0.0617,0.5013,0.8316,63232,63232,63232,24966272,24966272,24966272,0,0,0,24836480,24836480,24836480,63232,63232,63232,49802752,49802752,49802752,470lbm
33359,262144,4194304,8388608,262144,4194304,8388608,256,256,256,256,256,256,4,4,4,4,4,4,l,l,l,l,l,l,d,d,d,d,d,d,a,a,a,a,a,a,6837979,311,311,3162021,194617,194617,311,311,311,97586,97586,161849,0,1,1,0.0309,0.5014,0.8316,79616,79616,79616,24982016,24982016,24982016,0,0,0,24839936,24839936,24839936,79616,79616,79616,49821952,49821952,49821952,470lbm
33443,262144,4194304,8388608,262144,4194304,8388608,512,512,512,512,512,512,4,4,4,4,4,4,l,l,l,l,l,l,d,d,d,d,d,d,a,a,a,a,a,a,6837979,208,208,3162021,97365,97363,208,208,208,48838,48837,80979,0,1,1,0.0154,0.5016,0.8317,106496,106496,106496,25005056,25004544,25004544,0,0,0,24845824,24845312,24845312,106496,106496,106496,49850880,49849856,49849856,470lbm
33527,262144,4194304,8388608,262144,4194304,8388608,8,8,8,8,8,8,8,8,8,8,8,8,l,l,l,l,l,l,d,d,d,d,d,d,a,a,a,a,a,a,6837979,4446,4446,3162021,6215815,6215815,4446,4446,4446,3113048,3113048,5167220,0.0007,1,1,0.9845,0.5008,0.8313,35568,35568,35568,24904384,24904384,24904384,0,0,0,24822136,24822136,24822136,35568,35568,35568,49726520,49726520,49726520,470lbm
33611,262144,4194304,8388608,262144,4194304,8388608,16,16,16,16,16,16,8,8,8,8,8,8,l,l,l,l,l,l,d,d,d,d,d,d,a,a,a,a,a,a,6837979,2398,2398,3162021,3109886,3109886,2398,2398,2398,1558308,1558308,2585587,0.0004,1,1,0.4928,0.5011,0.8314,38368,38368,38368,24932928,24932928,24932928,0,0,0,24825248,24825248,24825248,38368,38368,38368,49758176,49758176,49758176,470lbm
33695,262144,4194304,8388608,262144,4194304,8388608,32,32,32,32,32,32,8,8,8,8,8,8,l,l,l,l,l,l,d,d,d,d,d,d,a,a,a,a,a,a,6837979,1362,1362,3162021,1555376,1555376,1362,1362,1362,779454,779454,1293226,0.0002,1,1,0.2465,0.5011,0.8315,43584,43584,43584,24942528,24942528,24942528,0,0,0,24829504,24829504,24829504,43584,43584,43584,49772032,49772032,49772032,470lbm
33779,262144,4194304,8388608,262144,4194304,8388608,64,64,64,64,64,64,8,8,8,8,8,8,l,l,l,l,l,l,d,d,d,d,d,d,a,a,a,a,a,a,6837979,807,807,3162021,777919,777919,807,807,807,389898,389898,646844,0.0001,1,1,0.1233,0.5012,0.8315,51648,51648,51648,24953472,24953472,24953472,0,0,0,24833344,24833344,24833344,51648,51648,51648,49786816,49786816,49786816,470lbm
33863,262144,4194304,8388608,262144,4194304,8388608,128,128,128,128,128,128,8,8,8,8,8,8,l,l,l,l,l,l,d,d,d,d,d,d,a,a,a,a,a,a,6837979,494,494,3162021,389084,389084,494,494,494,195049,195049,323546,0.0001,1,1,0.0617,0.5013,0.8316,63232,63232,63232,24966272,24966272,24966272,0,0,0,24836480,24836480,24836480,63232,63232,63232,49802752,49802752,49802752,470lbm
33947,262144,4194304,8388608,262144,4194304,8388608,256,256,256,256,256,256,8,8,8,8,8,8,l,l,l,l,l,l,d,d,d,d,d,d,a,a,a,a,a,a,6837979,311,311,3162021,194617,194617,311,311,311,97586,97586,161848,0,1,1,0.0309,0.5014,0.8316,79616,79616,79616,24982016,24982016,24982016,0,0,0,24839936,24839936,24839936,79616,79616,79616,49821952,49821952,49821952,470lbm
34031,262144,4194304,8388608,262144,4194304,8388608,512,512,512,512,512,512,8,8,8,8,8,8,l,l,l,l,l,l,d,d,d,d,d,d,a,a,a,a,a,a,6837979,208,208,3162021,97363,97363,208,208,208,48837,48837,80978,0,1,1,0.0154,0.5016,0.8317,106496,106496,106496,25004544,25004544,25004544,0,0,0,24845312,24845312,24845312,106496,106496,106496,49849856,49849856,49849856,470lbm
34115,262144,4194304,8388608,262144,4194304,8388608,8,8,8,8,8,8,1,1,1,1,1,1,l,l,l,l,l,l,d,d,d,d,d,d,a,a,a,a,a,a,7129127,7499,7461,2870873,3466422,3465142,7499,7461,7461,1774719,1777123,1781517,0.0011,0.9949,1,0.6182,0.5127,0.5141,59992,59688,59688,14197752,14188496,14186352,0,0,0,13533624,13532640,13530976,59992,59688,59688,27731376,27721136,27717328,473astar
34199,262144,4194304,8388608,262144,4194304,8388608,16,16,16,16,16,16,1,1,1,1,1,1,l,l,l,l,l,l,d,d,d,d,d,d,a,a,a,a,a,a,7129127,4036,4012,2870873,3314913,3313540,4036,4012,4012,1679942,1681093,1686063,0.0006,0.9941,1,0.5852,0.5071,0.5088,64576,64192,64192,26879072,26859664,26855120,0,0,0,26159536,26156976,26153648,64576,64192,64192,53038608,53016640,53008768,473astar
34283,262144,4194304,8388608,262144,4194304,8388608,32,32,32,32,32,32,1,1,1,1,1,1,l,l,l,l,l,l,d,d,d,d,d,d,a,a,a,a,a,a,7129127,2307,2290,2870873,1663680,1662325,2307,2290,2290,843734,843795,844482,0.0003,0.9926,1,0.2939,0.5072,0.508,73824,73280,73280,26999488,26961984,26890336,0,0,0,26238272,26232416,26163616,73824,73280,73280,53237760,53194400,53053952,473astar
34367,262144,4194304,8388608,262144,4194304,8388608,64,64,64,64,64,64,1,1,1,1,1,1,l,l,l,l,l,l,d,d,d,d,d,d,a,a,a,a,a,a,7129127,1370,1359,2870873,837510,836153,1370,1359,1359,425238,424768,424047,0.0002,0.992,1,0.1481,0.5072,0.5071,87680,86976,86976,27215232,27141760,26998208,0,0,0,26385408,26372032,26234432,87680,86976,86976,53600640,53513792,53232640,473astar
34451,262144,4194304,8388608,262144,4194304,8388608,128,128,128,128,128,128,1,1,1,1,1,1,l,l,l,l,l,l,d,d,d,d,d,d,a,a,a,a,a,a,7129127,872,862,2870873,424370,422857,872,862,862,215892,215088,213609,0.0001,0.9885,1,0.0752,0.5068,0.5052,111616,110336,110336,27634176,27474304,27184768,0,0,0,26685184,26651392,26376064,111616,110336,110336,54319360,54125696,53560832,473astar
34535,262144,4194304,8388608,262144,4194304,8388608,256,256,256,256,256,256,1,1,1,1,1,1,l,l,l,l,l,l,d,d,d,d,d,d,a,a,a,a,a,a,7129127,575,563,2870873,218339,216262,575,563,563,111565,110310,108405,0.0001,0.9791,1,0.0389,0.5052,0.5013,147200,144128,144128,28560640,28131584,27538176,0,0,0,27334144,27231488,26680832,147200,144128,144128,55894784,55363072,54219008,473astar
34619,262144,4194304,8388608,262144,4194304,8388608,512,512,512,512,512,512,1,1,1,1,1,1,l,l,l,l,l,l,d,d,d,d,d,d,a,a,a,a,a,a,7129127,392,371,2870873,116699,113365,392,371,371,60340,58329,56107,0.0001,0.9464,1,0.021,0.4998,0.4949,200704,189952,189952,30894080,29558784,28307968,0,0,0,28855808,28484096,27383296,200704,189952,189952,59749888,58042880,55691264,473astar
34703,262144,4194304,8388608,262144,4194304,8388608,8,8,8,8,8,8,2,2,2,2,2,2,l,l,l,l,l,l,d,d,d,d,d,d,a,a,a,a,a,a,7129127,7460,7460,2870873,3465715,3465061,7460,7460,7460,1774090,1773485,2881355,0.001,1,1,0.618,0.5117,0.8315,59680,59680,59680,14192720,14187880,14186200,0,0,0,13533000,13532608,13530968,59680,59680,59680,27725720,27720488,27717168,473astar
34787,262144,4194304,8388608,262144,4194304,8388608,16,16,16,16,16,16,2,2,2,2,2,2,l,l,l,l,l,l,d,d,d,d,d,d,a,a,a,a,a,a,7129127,4010,4010,2870873,3314108,3313423,4010,4010,4010,1679256,1678624,2788788,0.0006,1,1,0.5849,0.5065,0.8417,64160,64160,64160,26868096,26857984,26854608,0,0,0,26157632,26156784,26153504,64160,64160,64160,53025728,53014768,53008112,473astar
34871,262144,4194304,8388608,262144,4194304,8388608,32,32,32,32,32,32,2,2,2,2,2,2,l,l,l,l,l,l,d,d,d,d,d,d,a,a,a,a,a,a,7129127,2288,2288,2870873,1662818,1662167,2288,2288,2288,843019,842432,1395750,0.0003,1,1,0.2936,0.5066,0.8397,73216,73216,73216,26976608,26957824,26888960,0,0,0,26233568,26231520,26166208,73216,73216,73216,53210176,53189344,53055168,473astar
34955,262144,4194304,8388608,262144,4194304,8388608,64,64,64,64,64,64,2,2,2,2,2,2,l,l,l,l,l,l,d,d,d,d,d,d,a,a,a,a,a,a,7129127,1357,1357,2870873,836494,835894,1357,1357,1357,424426,423891,700522,0.0002,1,1,0.1478,0.5067,0.8381,86848,86848,86848,27163264,27129024,26991360,0,0,0,26372352,26368192,26237568,86848,86848,86848,53535616,53497216,53228928,473astar
35039,262144,4194304,8388608,262144,4194304,8388608,128,128,128,128,128,128,2,2,2,2,2,2,l,l,l,l,l,l,d,d,d,d,d,d,a,a,a,a,a,a,7129127,860,860,2870873,422964,422452,860,860,860,214817,214363,352598,0.0001,1,1,0.0748,0.5068,0.8346,110080,110080,110080,27496576,27438464,27162240,0,0,0,26642816,26635392,26374144,110080,110080,110080,54139392,54073856,53536384,473astar
35123,262144,4194304,8388608,262144,4194304,8388608,256,256,256,256,256,256,2,2,2,2,2,2,l,l,l,l,l,l,d,d,d,d,d,d,a,a,a,a,a,a,7129127,561,561,2870873,215989,215549,561,561,561,109815,109429,178461,0.0001,1,1,0.0383,0.5066,0.8279,143616,143616,143616,28112640,28013824,27462656,0,0,0,27180544,27166720,26644224,143616,143616,143616,55293184,55180544,54106880,473astar
35207,262144,4194304,8388608,262144,4194304,8388608,512,512,512,512,512,512,2,2,2,2,2,2,l,l,l,l,l,l,d,d,d,d,d,d,a,a,a,a,a,a,7129127,370,369,2870873,112420,112005,370,369,369,57248,56881,91294,0.0001,0.9973,1,0.0199,0.506,0.8151,189440,188928,188928,29310976,29123072,28020224,0,0,0,28248064,28223488,27179520,189440,188928,188928,57559040,57346560,55199744,473astar
35291,262144,4194304,8388608,262144,4194304,8388608,8,8,8,8,8,8,4,4,4,4,4,4,l,l,l,l,l,l,d,d,d,d,d,d,a,a,a,a,a,a,7129127,7460,7460,2870873,3465358,3465053,7460,7460,7460,1773771,1773477,2906879,0.001,1,1,0.6179,0.5118,0.8389,59680,59680,59680,14190168,14187816,14186144,0,0,0,13532696,13532608,13530936,59680,59680,59680,27722864,27720424,27717080,473astar
35375,262144,4194304,8388608,262144,4194304,8388608,16,16,16,16,16,16,4,4,4,4,4,4,l,l,l,l,l,l,d,d,d,d,d,d,a,a,a,a,a,a,7129127,4010,4010,2870873,3313798,3313408,4010,4010,4010,1678981,1678609,2814179,0.0006,1,1,0.5848,0.5066,0.8493,64160,64160,64160,26863696,26857744,26854400,0,0,0,26157072,26156784,26153440,64160,64160,64160,53020768,53014528,53007840,473astar
35459,262144,4194304,8388608,262144,4194304,8388608,32,32,32,32,32,32,4,4,4,4,4,4,l,l,l,l,l,l,d,d,d,d,d,d,a,a,a,a,a,a,7129127,2288,2288,2870873,1662554,1662143,2288,2288,2288,842799,842408,1408417,0.0003,1,1,0.2936,0.5067,0.8474,73216,73216,73216,26969568,26957056,26888288,0,0,0,26232160,26231520,26169632,73216,73216,73216,53201728,53188576,53057920,473astar
35543,262144,4194304,8388608,262144,4194304,8388608,64,64,64,64,64,64,4,4,4,4,4,4,l,l,l,l,l,l,d,d,d,d,d,d,a,a,a,a,a,a,7129127,1357,1357,2870873,836294,835865,1357,1357,1357,424262,423862,706833,0.0002,1,1,0.1478,0.5068,0.8456,86848,86848,86848,27152768,27127168,26989632,0,0,0,26370048,26368192,26244416,86848,86848,86848,53522816,53495360,53234048,473astar
35627,262144,4194304,8388608,262144,4194304,8388608,128,128,128,128,128,128,4,4,4,4,4,4,l,l,l,l,l,l,d,d,d,d,d,d,a,a,a,a,a,a,7129127,860,860,2870873,422828,422418,860,860,860,214706,214329,355735,0.0001,1,1,0.0748,0.5069,0.8421,110080,110080,110080,27482368,27434112,27159040,0,0,0,26639616,26635392,26387840,110080,110080,110080,54121984,54069504,53546880,473astar
35711,262144,4194304,8388608,262144,4194304,8388608,256,256,256,256,256,256,4,4,4,4,4,4,l,l,l,l,l,l,d,d,d,d,d,d,a,a,a,a,a,a,7129127,561,561,2870873,215855,215514,561,561,561,109703,109394,180005,0.0001,1,1,0.0382,0.5068,0.8352,143616,143616,143616,28083968,28004864,27454720,0,0,0,27174912,27166720,26671616,143616,143616,143616,55258880,55171584,54126336,473astar
35795,262144,4194304,8388608,262144,4194304,8388608,512,512,512,512,512,512,4,4,4,4,4,4,l,l,l,l,l,l,d,d,d,d,d,d,a,a,a,a,a,a,7129127,369,369,2870873,112259,111968,369,369,369,57108,56844,92040,0.0001,1,1,0.0199,0.5064,0.822,188928,188928,188928,29239296,29104128,28004352,0,0,0,28237312,28223488,27234816,188928,188928,188928,57476608,57327616,55239168,473astar
35879,262144,4194304,8388608,262144,4194304,8388608,8,8,8,8,8,8,8,8,8,8,8,8,l,l,l,l,l,l,d,d,d,d,d,d,a,a,a,a,a,a,7129127,7460,7460,2870873,3465268,3465053,7460,7460,7460,1773682,1773477,2905308,0.001,1,1,0.6178,0.5118,0.8385,59680,59680,59680,14189456,14187816,14186144,0,0,0,13532688,13532608,13530936,59680,59680,59680,27722144,27720424,27717080,473astar
35963,262144,4194304,8388608,262144,4194304,8388608,16,16,16,16,16,16,8,8,8,8,8,8,l,l,l,l,l,l,d,d,d,d,d,d,a,a,a,a,a,a,7129127,4010,4010,2870873,3313748,3313408,4010,4010,4010,1678935,1678609,2812606,0.0006,1,1,0.5848,0.5066,0.8489,64160,64160,64160,26862960,26857744,26854400,0,0,0,26157008,26156784,26153440,64160,64160,64160,53019968,53014528,53007840,473astar
36047,262144,4194304,8388608,262144,4194304,8388608,32,32,32,32,32,32,8,8,8,8,8,8,l,l,l,l,l,l,d,d,d,d,d,d,a,a,a,a,a,a,7129127,2288,2288,2870873,1662531,1662143,2288,2288,2288,842776,842408,1407609,0.0003,1,1,0.2936,0.5067,0.8469,73216,73216,73216,26968832,26957056,26888288,0,0,0,26232160,26231520,26169504,73216,73216,73216,53200992,53188576,53057792,473astar
36131,262144,4194304,8388608,262144,4194304,8388608,64,64,64,64,64,64,8,8,8,8,8,8,l,l,l,l,l,l,d,d,d,d,d,d,a,a,a,a,a,a,7129127,1357,1357,2870873,836297,835865,1357,1357,1357,424256,423862,706401,0.0002,1,1,0.1478,0.5068,0.8451,86848,86848,86848,27152384,27127168,26989632,0,0,0,26370624,26368192,26244160,86848,86848,86848,53523008,53495360,53233792,473astar
36215,262144,4194304,8388608,262144,4194304,8388608,128,128,128,128,128,128,8,8,8,8,8,8,l,l,l,l,l,l,d,d,d,d,d,d,a,a,a,a,a,a,7129127,860,860,2870873,422807,422418,860,860,860,214681,214329,355492,0.0001,1,1,0.0748,0.5069,0.8416,110080,110080,110080,27479168,27434112,27159040,0,0,0,26640128,26635392,26387328,110080,110080,110080,54119296,54069504,53546368,473astar
36299,262144,4194304,8388608,262144,4194304,8388608,256,256,256,256,256,256,8,8,8,8,8,8,l,l,l,l,l,l,d,d,d,d,d,d,a,a,a,a,a,a,7129127,561,561,2870873,215827,215514,561,561,561,109675,109394,179855,0.0001,1,1,0.0382,0.5069,0.8345,143616,143616,143616,28076800,28004864,27454720,0,0,0,27174912,27166720,26670592,143616,143616,143616,55251712,55171584,54125312,473astar
36383,262144,4194304,8388608,262144,4194304,8388608,512,512,512,512,512,512,8,8,8,8,8,8,l,l,l,l,l,l,d,d,d,d,d,d,a,a,a,a,a,a,7129127,369,369,2870873,112217,111968,369,369,369,57072,56844,91933,0.0001,1,1,0.0199,0.5066,0.8211,188928,188928,188928,29220864,29104128,28004352,0,0,0,28234240,28223488,27232768,188928,188928,188928,57455104,57327616,55237120,473astar
36467,262144,4194304,8388608,262144,4194304,8388608,8,8,8,8,8,8,1,1,1,1,1,1,l,l,l,l,l,l,d,d,d,d,d,d,a,a,a,a,a,a,8021445,13254,12157,1978555,1226073,1214500,13254,12157,12137,620953,616384,639158,0.0017,0.9172,0.9984,0.3138,0.5027,0.5263,106032,97256,97096,4967624,4912192,4911320,0,0,0,4840960,4803808,4803568,106032,97256,97096,9808584,9716000,9714888,481wrf
36551,262144,4194304,8388608,262144,4194304,8388608,16,16,16,16,16,16,1,1,1,1,1,1,l,l,l,l,l,l,d,d,d,d,d,d,a,a,a,a,a,a,8021445,7178,6487,1978555,620332,612109,7178,6487,6475,315437,311984,325382,0.0009,0.9037,0.9982,0.1594,0.5029,0.5316,114848,103792,103600,5046992,4964944,4962848,0,0,0,4878320,4828800,4828080,114848,103792,103600,9925312,9793744,9790928,481wrf
36635,262144,4194304,8388608,262144,4194304,8388608,32,32,32,32,32,32,1,1,1,1,1,1,l,l,l,l,l,l,d,d,d,d,d,d,a,a,a,a,a,a,8021445,4117,3541,1978555,312851,306819,4117,3541,3534,159473,156621,163290,0.0005,0.8601,0.998,0.0806,0.5006,0.5322,131744,113312,113088,5103136,4982080,4978176,0,0,0,4908096,4836128,4834624,131744,113312,113088,10011232,9818208,9812800,481wrf
36719,262144,4194304,8388608,262144,4194304,8388608,64,64,64,64,64,64,1,1,1,1,1,1,l,l,l,l,l,l,d,d,d,d,d,d,a,a,a,a,a,a,8021445,2390,1977,1978555,158708,153966,2390,1977,1971,81305,78789,81951,0.0003,0.8272,0.997,0.0411,0.4964,0.5323,152960,126528,126144,5203520,5009088,4996544,0,0,0,4953792,4844736,4839744,152960,126528,126144,10157312,9853824,9836288,481wrf
36803,262144,4194304,8388608,262144,4194304,8388608,128,128,128,128,128,128,1,1,1,1,1,1,l,l,l,l,l,l,d,d,d,d,d,d,a,a,a,a,a,a,8021445,2512,1148,1978555,82176,77717,2512,1148,1143,42721,40080,41164,0.0003,0.457,0.9956,0.0216,0.4877,0.5297,321536,146944,146304,5468288,5084544,5020672,0,0,0,5050240,4863232,4844672,321536,146944,146304,10518528,9947776,9865344,481wrf
36887,262144,4194304,8388608,262144,4194304,8388608,256,256,256,256,256,256,1,1,1,1,1,1,l,l,l,l,l,l,d,d,d,d,d,d,a,a,a,a,a,a,8021445,2092,678,1978555,44018,39916,2092,678,674,23562,21077,20707,0.0003,0.3241,0.9941,0.0119,0.4788,0.5188,535552,173568,172544,6031872,5321984,5052928,0,0,0,5236736,4896512,4849920,535552,173568,172544,11268608,10218496,9902848,481wrf
36971,262144,4194304,8388608,262144,4194304,8388608,512,512,512,512,512,512,1,1,1,1,1,1,l,l,l,l,l,l,d,d,d,d,d,d,a,a,a,a,a,a,8021445,2062,419,1978555,25455,20724,2062,419,415,14340,11285,10447,0.0003,0.2032,0.9905,0.0072,0.4433,0.5041,1055744,214528,212480,7342080,5658112,5103104,0,0,0,5690880,4952576,4858880,1055744,214528,212480,13032960,10610688,9961984,481wrf
37055,262144,4194304,8388608,262144,4194304,8388608,8,8,8,8,8,8,2,2,2,2,2,2,l,l,l,l,l,l,d,d,d,d,d,d,a,a,a,a,a,a,8021445,12137,12137,1978555,1216009,1214363,12137,12137,12137,615130,615895,615803,0.0015,1,1,0.3109,0.5065,0.5071,97096,97096,97096,4921040,4911328,4911216,0,0,0,4807032,4803576,4803480,97096,97096,97096,9728072,9714904,9714696,481wrf
37139,262144,4194304,8388608,262144,4194304,8388608,16,16,16,16,16,16,2,2,2,2,2,2,l,l,l,l,l,l,d,d,d,d,d,d,a,a,a,a,a,a,8021445,6475,6475,1978555,612984,611928,6475,6475,6475,310964,311866,311698,0.0008,1,1,0.1572,0.5088,0.5094,103600,103600,103600,4975424,4962832,4962624,0,0,0,4832320,4828016,4827824,103600,103600,103600,9807744,9790848,9790448,481wrf
37223,262144,4194304,8388608,262144,4194304,8388608,32,32,32,32,32,32,2,2,2,2,2,2,l,l,l,l,l,l,d,d,d,d,d,d,a,a,a,a,a,a,8021445,3534,3534,1978555,307361,306642,3534,3534,3534,156087,156477,156437,0.0004,1,1,0.0789,0.5091,0.5102,113088,113088,113088,4994784,4977984,4977760,0,0,0,4840768,4834560,4834368,113088,113088,113088,9835552,9812544,9812128,481wrf
37307,262144,4194304,8388608,262144,4194304,8388608,64,64,64,64,64,64,2,2,2,2,2,2,l,l,l,l,l,l,d,d,d,d,d,d,a,a,a,a,a,a,8021445,1971,1971,1978555,154199,153660,1971,1971,1971,78436,78472,78524,0.0002,1,1,0.0396,0.5089,0.511,126144,126144,126144,5019904,4994560,4994304,0,0,0,4848832,4839680,4839488,126144,126144,126144,9868736,9834240,9833792,481wrf
37391,262144,4194304,8388608,262144,4194304,8388608,128,128,128,128,128,128,2,2,2,2,2,2,l,l,l,l,l,l,d,d,d,d,d,d,a,a,a,a,a,a,8021445,1147,1143,1978555,77477,77043,1147,1143,1143,39522,39394,39455,0.0001,0.9965,1,0.02,0.5085,0.5121,146816,146304,146304,5058816,5016960,5016320,0,0,0,4858240,4844544,4844288,146816,146304,146304,9917056,9861504,9860608,481wrf
37475,262144,4194304,8388608,262144,4194304,8388608,256,256,256,256,256,256,2,2,2,2,2,2,l,l,l,l,l,l,d,d,d,d,d,d,a,a,a,a,a,a,8021445,677,674,1978555,39054,38656,677,674,674,20014,19792,19848,0.0001,0.9956,1,0.0101,0.5068,0.5135,173312,172544,172544,5123584,5045760,5044992,0,0,0,4874240,4850176,4849664,173312,172544,172544,9997824,9895936,9894656,481wrf
37559,262144,4194304,8388608,262144,4194304,8388608,512,512,512,512,512,512,2,2,2,2,2,2,l,l,l,l,l,l,d,d,d,d,d,d,a,a,a,a,a,a,8021445,422,415,1978555,19994,19421,422,415,415,10370,9964,10006,0.0001,0.9834,1,0.0052,0.4983,0.5152,216064,212480,212480,5309440,5084672,5083136,0,0,0,4927488,4858880,4857856,216064,212480,212480,10236928,9943552,9940992,481wrf
37643,262144,4194304,8388608,262144,4194304,8388608,8,8,8,8,8,8,4,4,4,4,4,4,l,l,l,l,l,l,d,d,d,d,d,d,a,a,a,a,a,a,8021445,12137,12137,1978555,1214821,1214344,12137,12137,12137,614226,613908,616105,0.0015,1,1,0.3104,0.5053,0.5074,97096,97096,97096,4913808,4911264,4911216,0,0,0,4804760,4803488,4803440,97096,97096,97096,9718568,9714752,9714656,481wrf
37727,262144,4194304,8388608,262144,4194304,8388608,16,16,16,16,16,16,4,4,4,4,4,4,l,l,l,l,l,l,d,d,d,d,d,d,a,a,a,a,a,a,8021445,6475,6475,1978555,612297,611911,6475,6475,6475,310433,310170,312243,0.0008,1,1,0.1569,0.5066,0.5103,103600,103600,103600,4966928,4962720,4962624,0,0,0,4829824,4827856,4827760,103600,103600,103600,9796752,9790576,9790384,481wrf
37811,262144,4194304,8388608,262144,4194304,8388608,32,32,32,32,32,32,4,4,4,4,4,4,l,l,l,l,l,l,d,d,d,d,d,d,a,a,a,a,a,a,8021445,3534,3534,1978555,306931,306631,3534,3534,3534,155774,155558,156756,0.0004,1,1,0.0787,0.5068,0.5112,113088,113088,113088,4984768,4977856,4977760,0,0,0,4837024,4834336,4834240,113088,113088,113088,9821792,9812192,9812000,481wrf
37895,262144,4194304,8388608,262144,4194304,8388608,64,64,64,64,64,64,4,4,4,4,4,4,l,l,l,l,l,l,d,d,d,d,d,d,a,a,a,a,a,a,8021445,1971,1971,1978555,153910,153654,1971,1971,1971,78232,78038,78687,0.0002,1,1,0.0395,0.507,0.5121,126144,126144,126144,5006848,4994432,4994304,0,0,0,4843392,4839424,4839296,126144,126144,126144,9850240,9833856,9833600,481wrf
37979,262144,4194304,8388608,262144,4194304,8388608,128,128,128,128,128,128,4,4,4,4,4,4,l,l,l,l,l,l,d,d,d,d,d,d,a,a,a,a,a,a,8021445,1143,1143,1978555,77247,77033,1143,1143,1143,39363,39189,39538,0.0001,1,1,0.0199,0.5073,0.5133,146304,146304,146304,5038464,5016192,5016064,0,0,0,4849152,4844032,4843904,146304,146304,146304,9887616,9860224,9859968,481wrf
38063,262144,4194304,8388608,262144,4194304,8388608,256,256,256,256,256,256,4,4,4,4,4,4,l,l,l,l,l,l,d,d,d,d,d,d,a,a,a,a,a,a,8021445,675,674,1978555,38852,38642,675,674,674,19872,19701,19885,0.0001,0.9985,1,0.01,0.5071,0.5146,172800,172544,172544,5087232,5043456,5043200,0,0,0,4858880,4848896,4848640,172800,172544,172544,9946112,9892352,9891840,481wrf
38147,262144,4194304,8388608,262144,4194304,8388608,512,512,512,512,512,512,4,4,4,4,4,4,l,l,l,l,l,l,d,d,d,d,d,d,a,a,a,a,a,a,8021445,417,415,1978555,19628,19408,417,415,415,10100,9922,10021,0.0001,0.9952,1,0.0051,0.5055,0.5163,213504,212480,212480,5171200,5080064,5080064,0,0,0,4878336,4856832,4856832,213504,212480,212480,10049536,9936896,9936896,481wrf
38231,262144,4194304,8388608,262144,4194304,8388608,8,8,8,8,8,8,8,8,8,8,8,8,l,l,l,l,l,l,d,d,d,d,d,d,a,a,a,a,a,a,8021445,12137,12137,1978555,1214781,1214344,12137,12137,12137,614193,613908,613902,0.0015,1,1,0.3104,0.5054,0.5055,97096,97096,97096,4913544,4911264,4911216,0,0,0,4804704,4803488,4803440,97096,97096,97096,9718248,9714752,9714656,481wrf
38315,262144,4194304,8388608,262144,4194304,8388608,16,16,16,16,16,16,8,8,8,8,8,8,l,l,l,l,l,l,d,d,d,d,d,d,a,a,a,a,a,a,8021445,6475,6475,1978555,612245,611911,6475,6475,6475,310392,310170,310164,0.0008,1,1,0.1569,0.5066,0.5069,103600,103600,103600,4966272,4962720,4962624,0,0,0,4829648,4827856,4827760,103600,103600,103600,9795920,9790576,9790384,481wrf
38399,262144,4194304,8388608,262144,4194304,8388608,32,32,32,32,32,32,8,8,8,8,8,8,l,l,l,l,l,l,d,d,d,d,d,d,a,a,a,a,a,a,8021445,3534,3534,1978555,306869,306631,3534,3534,3534,155725,155558,155555,0.0004,1,1,0.0787,0.5069,0.5073,113088,113088,113088,4983200,4977856,4977760,0,0,0,4836608,4834336,4834240,113088,113088,113088,9819808,9812192,9812000,481wrf
38483,262144,4194304,8388608,262144,4194304,8388608,64,64,64,64,64,64,8,8,8,8,8,8,l,l,l,l,l,l,d,d,d,d,d,d,a,a,a,a,a,a,8021445,1971,1971,1978555,153843,153654,1971,1971,1971,78178,78038,78036,0.0002,1,1,0.0395,0.5073,0.5079,126144,126144,126144,5003392,4994432,4994304,0,0,0,4842560,4839424,4839296,126144,126144,126144,9845952,9833856,9833600,481wrf
38567,262144,4194304,8388608,262144,4194304,8388608,128,128,128,128,128,128,8,8,8,8,8,8,l,l,l,l,l,l,d,d,d,d,d,d,a,a,a,a,a,a,8021445,1143,1143,1978555,77184,77033,1143,1143,1143,39310,39189,39188,0.0001,1,1,0.0199,0.5077,0.5087,146304,146304,146304,5031680,5016192,5016064,0,0,0,4847872,4844032,4843904,146304,146304,146304,9879552,9860224,9859968,481wrf
38651,262144,4194304,8388608,262144,4194304,8388608,256,256,256,256,256,256,8,8,8,8,8,8,l,l,l,l,l,l,d,d,d,d,d,d,a,a,a,a,a,a,8021445,674,674,1978555,38777,38642,674,674,674,19813,19701,19700,0.0001,1,1,0.01,0.5081,0.5098,172544,172544,172544,5072128,5043456,5043200,0,0,0,4854784,4848896,4848640,172544,172544,172544,9926912,9892352,9891840,481wrf
38735,262144,4194304,8388608,262144,4194304,8388608,512,512,512,512,512,512,8,8,8,8,8,8,l,l,l,l,l,l,d,d,d,d,d,d,a,a,a,a,a,a,8021445,415,415,1978555,19535,19408,415,415,415,10030,9922,9922,0.0001,1,1,0.0051,0.5079,0.5112,212480,212480,212480,5135360,5080064,5080064,0,0,0,4866560,4856832,4856832,212480,212480,212480,10001920,9936896,9936896,481wrf
38819,262144,4194304,8388608,262144,4194304,8388608,8,8,8,8,8,8,1,1,1,1,1,1,l,l,l,l,l,l,d,d,d,d,d,d,a,a,a,a,a,a,7302028,9194,8328,2697972,32344,31148,9194,8328,8328,22983,21907,21907,0.0013,0.9058,1,0.0085,0.6773,0.7033,73552,66624,66624,183864,175256,175256,0,0,0,74888,73928,73928,73552,66624,66624,258752,249184,249184,482sphinx3
38903,262144,4194304,8388608,262144,4194304,8388608,16,16,16,16,16,16,1,1,1,1,1,1,l,l,l,l,l,l,d,d,d,d,d,d,a,a,a,a,a,a,7302028,4938,4493,2697972,22130,20901,4938,4493,4493,15581,14475,14475,0.0007,0.9099,1,0.0058,0.6541,0.6926,79008,71888,71888,249296,231600,231600,0,0,0,104784,102816,102816,79008,71888,71888,354080,334416,334416,482sphinx3
38987,262144,4194304,8388608,262144,4194304,8388608,32,32,32,32,32,32,1,1,1,1,1,1,l,l,l,l,l,l,d,d,d,d,d,d,a,a,a,a,a,a,7302028,2964,2558,2697972,11814,10966,2964,2558,2558,8335,7610,7610,0.0004,0.863,1,0.0031,0.6442,0.694,94848,81856,81856,266720,243520,243520,0,0,0,111328,107392,107392,94848,81856,81856,378048,350912,350912,482sphinx3
39071,262144,4194304,8388608,262144,4194304,8388608,64,64,64,64,64,64,1,1,1,1,1,1,l,l,l,l,l,l,d,d,d,d,d,d,a,a,a,a,a,a,7302028,1786,1498,2697972,6468,5779,1786,1498,1498,4587,4033,4033,0.0002,0.8387,1,0.0017,0.6235,0.6979,114304,95872,95872,293568,258112,258112,0,0,0,120384,111744,111744,114304,95872,95872,413952,369856,369856,482sphinx3
39155,262144,4194304,8388608,262144,4194304,8388608,128,128,128,128,128,128,1,1,1,1,1,1,l,l,l,l,l,l,d,d,d,d,d,d,a,a,a,a,a,a,7302028,1189,910,2697972,3796,3065,1189,910,910,2706,2162,2162,0.0002,0.7653,1,0.001,0.5695,0.7054,152192,116480,116480,346368,276736,276736,0,0,0,139520,115584,115584,152192,116480,116480,485888,392320,392320,482sphinx3
39239,262144,4194304,8388608,262144,4194304,8388608,256,256,256,256,256,256,1,1,1,1,1,1,l,l,l,l,l,l,d,d,d,d,d,d,a,a,a,a,a,a,7302028,995,570,2697972,2510,1658,995,570,570,1793,1191,1191,0.0001,0.5729,1,0.0007,0.4745,0.7183,254720,145920,145920,459008,304896,304896,0,0,0,183552,119552,119552,254720,145920,145920,642560,424448,424448,482sphinx3
39323,262144,4194304,8388608,262144,4194304,8388608,512,512,512,512,512,512,1,1,1,1,1,1,l,l,l,l,l,l,d,d,d,d,d,d,a,a,a,a,a,a,7302028,604,368,2697972,2150,921,604,368,368,1526,676,676,0.0001,0.6093,1,0.0006,0.3144,0.734,309248,188416,188416,781312,346112,346112,0,0,0,319488,125440,125440,309248,188416,188416,1100800,471552,471552,482sphinx3
39407,262144,4194304,8388608,262144,4194304,8388608,8,8,8,8,8,8,2,2,2,2,2,2,l,l,l,l,l,l,d,d,d,d,d,d,a,a,a,a,a,a,7302028,8330,8318,2697972,31222,31144,8330,8318,8318,21960,21906,21900,0.0011,0.9986,1,0.0081,0.7016,0.7032,66640,66544,66544,175680,175224,175200,0,0,0,74096,73928,73928,66640,66544,66544,249776,249152,249128,482sphinx3
39491,262144,4194304,8388608,262144,4194304,8388608,16,16,16,16,16,16,2,2,2,2,2,2,l,l,l,l,l,l,d,d,d,d,d,d,a,a,a,a,a,a,7302028,4497,4487,2697972,21008,20895,4497,4487,4487,14558,14473,14465,0.0006,0.9978,1,0.0054,0.6889,0.6923,71952,71792,71792,232928,231504,231440,0,0,0,103200,102816,102816,71952,71792,71792,336128,334320,334256,482sphinx3
39575,262144,4194304,8388608,262144,4194304,8388608,32,32,32,32,32,32,2,2,2,2,2,2,l,l,l,l,l,l,d,d,d,d,d,d,a,a,a,a,a,a,7302028,2561,2555,2697972,11071,10959,2561,2555,2555,7696,7605,7601,0.0004,0.9977,1,0.0029,0.6869,0.6936,81952,81760,81760,246272,243296,243232,0,0,0,108000,107392,107392,81952,81760,81760,354272,350688,350624,482sphinx3
39659,262144,4194304,8388608,262144,4194304,8388608,64,64,64,64,64,64,2,2,2,2,2,2,l,l,l,l,l,l,d,d,d,d,d,d,a,a,a,a,a,a,7302028,1501,1496,2697972,5861,5755,1501,1496,1496,4100,4010,4006,0.0002,0.9967,1,0.0015,0.6842,0.6961,96064,95744,95744,262400,256576,256384,0,0,0,112704,111744,111744,96064,95744,95744,375104,368320,368128,482sphinx3
39743,262144,4194304,8388608,262144,4194304,8388608,128,128,128,128,128,128,2,2,2,2,2,2,l,l,l,l,l,l,d,d,d,d,d,d,a,a,a,a,a,a,7302028,913,909,2697972,3142,3038,913,909,909,2223,2136,2130,0.0001,0.9956,1,0.0008,0.6798,0.7011,116864,116352,116352,284544,273280,272640,0,0,0,117632,115584,115584,116864,116352,116352,402176,388864,388224,482sphinx3
39827,262144,4194304,8388608,262144,4194304,8388608,256,256,256,256,256,256,2,2,2,2,2,2,l,l,l,l,l,l,d,d,d,d,d,d,a,a,a,a,a,a,7302028,567,564,2697972,1710,1617,567,564,564,1228,1150,1146,0.0001,0.9947,1,0.0005,0.6725,0.7087,145152,144384,144384,314368,294400,293376,0,0,0,123392,119552,119552,145152,144384,144384,437760,413952,412928,482sphinx3
39911,262144,4194304,8388608,262144,4194304,8388608,512,512,512,512,512,512,2,2,2,2,2,2,l,l,l,l,l,l,d,d,d,d,d,d,a,a,a,a,a,a,7302028,367,362,2697972,965,875,367,362,362,702,631,626,0.0001,0.9864,1,0.0003,0.6539,0.7154,187904,185344,185344,359424,322560,320512,0,0,0,134656,125440,125440,187904,185344,185344,494080,448000,445952,482sphinx3
39995,262144,4194304,8388608,262144,4194304,8388608,8,8,8,8,8,8,4,4,4,4,4,4,l,l,l,l,l,l,d,d,d,d,d,d,a,a,a,a,a,a,7302028,8318,8318,2697972,31141,31141,8318,8318,8318,21900,21900,21900,0.0011,1,1,0.0081,0.7033,0.7033,66544,66544,66544,175200,175200,175200,0,0,0,73928,73928,73928,66544,66544,66544,249128,249128,249128,482sphinx3
40079,262144,4194304,8388608,262144,4194304,8388608,16,16,16,16,16,16,4,4,4,4,4,4,l,l,l,l,l,l,d,d,d,d,d,d,a,a,a,a,a,a,7302028,4487,4487,2697972,20895,20891,4487,4487,4487,14468,14465,14465,0.0006,1,1,0.0054,0.6923,0.6924,71792,71792,71792,231488,231440,231440,0,0,0,102832,102816,102816,71792,71792,71792,334320,334256,334256,482sphinx3
40163,262144,4194304,8388608,262144,4194304,8388608,32,32,32,32,32,32,4,4,4,4,4,4,l,l,l,l,l,l,d,d,d,d,d,d,a,a,a,a,a,a,7302028,2555,2555,2697972,10960,10957,2555,2555,2555,7603,7601,7601,0.0003,1,1,0.0028,0.6935,0.6937,81760,81760,81760,243296,243232,243232,0,0,0,107424,107392,107392,81760,81760,81760,350720,350624,350624,482sphinx3
40247,262144,4194304,8388608,262144,4194304,8388608,64,64,64,64,64,64,4,4,4,4,4,4,l,l,l,l,l,l,d,d,d,d,d,d,a,a,a,a,a,a,7302028,1496,1496,2697972,5753,5752,1496,1496,1496,4007,4006,4006,0.0002,1,1,0.0015,0.6963,0.6965,95744,95744,95744,256448,256384,256384,0,0,0,111744,111744,111744,95744,95744,95744,368192,368128,368128,482sphinx3
40331,262144,4194304,8388608,262144,4194304,8388608,128,128,128,128,128,128,4,4,4,4,4,4,l,l,l,l,l,l,d,d,d,d,d,d,a,a,a,a,a,a,7302028,909,909,2697972,3038,3033,909,909,909,2135,2130,2130,0.0001,1,1,0.0008,0.7011,0.7023,116352,116352,116352,273280,272640,272640,0,0,0,115584,115584,115584,116352,116352,116352,388864,388224,388224,482sphinx3
40415,262144,4194304,8388608,262144,4194304,8388608,256,256,256,256,256,256,4,4,4,4,4,4,l,l,l,l,l,l,d,d,d,d,d,d,a,a,a,a,a,a,7302028,564,564,2697972,1624,1613,564,564,564,1157,1146,1146,0.0001,1,1,0.0004,0.7057,0.7105,144384,144384,144384,296192,293376,293376,0,0,0,119552,119552,119552,144384,144384,144384,415744,412928,412928,482sphinx3
40499,262144,4194304,8388608,262144,4194304,8388608,512,512,512,512,512,512,4,4,4,4,4,4,l,l,l,l,l,l,d,d,d,d,d,d,a,a,a,a,a,a,7302028,362,362,2697972,882,871,362,362,362,637,626,626,0,1,1,0.0002,0.7098,0.7187,185344,185344,185344,326144,320512,320512,0,0,0,125440,125440,125440,185344,185344,185344,451584,445952,445952,482sphinx3
40583,262144,4194304,8388608,262144,4194304,8388608,8,8,8,8,8,8,8,8,8,8,8,8,l,l,l,l,l,l,d,d,d,d,d,d,a,a,a,a,a,a,7302028,8318,8318,2697972,31141,31141,8318,8318,8318,21900,21900,21900,0.0011,1,1,0.0081,0.7033,0.7033,66544,66544,66544,175200,175200,175200,0,0,0,73928,73928,73928,66544,66544,66544,249128,249128,249128,482sphinx3
40667,262144,4194304,8388608,262144,4194304,8388608,16,16,16,16,16,16,8,8,8,8,8,8,l,l,l,l,l,l,d,d,d,d,d,d,a,a,a,a,a,a,7302028,4487,4487,2697972,20891,20891,4487,4487,4487,14465,14465,14465,0.0006,1,1,0.0054,0.6924,0.6924,71792,71792,71792,231440,231440,231440,0,0,0,102816,102816,102816,71792,71792,71792,334256,334256,334256,482sphinx3
40751,262144,4194304,8388608,262144,4194304,8388608,32,32,32,32,32,32,8,8,8,8,8,8,l,l,l,l,l,l,d,d,d,d,d,d,a,a,a,a,a,a,7302028,2555,2555,2697972,10958,10957,2555,2555,2555,7602,7601,7601,0.0003,1,1,0.0028,0.6936,0.6937,81760,81760,81760,243264,243232,243232,0,0,0,107392,107392,107392,81760,81760,81760,350656,350624,350624,482sphinx3
40835,262144,4194304,8388608,262144,4194304,8388608,64,64,64,64,64,64,8,8,8,8,8,8,l,l,l,l,l,l,d,d,d,d,d,d,a,a,a,a,a,a,7302028,1496,1496,2697972,5753,5752,1496,1496,1496,4007,4006,4006,0.0002,1,1,0.0015,0.6963,0.6965,95744,95744,95744,256448,256384,256384,0,0,0,111744,111744,111744,95744,95744,95744,368192,368128,368128,482sphinx3
40919,262144,4194304,8388608,262144,4194304,8388608,128,128,128,128,128,128,8,8,8,8,8,8,l,l,l,l,l,l,d,d,d,d,d,d,a,a,a,a,a,a,7302028,909,909,2697972,3035,3033,909,909,909,2132,2130,2130,0.0001,1,1,0.0008,0.7018,0.7023,116352,116352,116352,272896,272640,272640,0,0,0,115584,115584,115584,116352,116352,116352,388480,388224,388224,482sphinx3
41003,262144,4194304,8388608,262144,4194304,8388608,256,256,256,256,256,256,8,8,8,8,8,8,l,l,l,l,l,l,d,d,d,d,d,d,a,a,a,a,a,a,7302028,564,564,2697972,1615,1613,564,564,564,1148,1146,1146,0.0001,1,1,0.0004,0.7096,0.7105,144384,144384,144384,293888,293376,293376,0,0,0,119552,119552,119552,144384,144384,144384,413440,412928,412928,482sphinx3
41087,262144,4194304,8388608,262144,4194304,8388608,512,512,512,512,512,512,8,8,8,8,8,8,l,l,l,l,l,l,d,d,d,d,d,d,a,a,a,a,a,a,7302028,362,362,2697972,874,871,362,362,362,629,626,626,0,1,1,0.0002,0.7162,0.7187,185344,185344,185344,322048,320512,320512,0,0,0,125440,125440,125440,185344,185344,185344,447488,445952,445952,482sphinx3
