simIndex,l1_I_size,l2_I_size,l3_I_size,l1_D_size,l2_D_size,l3_D_size,l1_I_Bsize,l2_I_Bsize,l3_I_Bsize,l1_D_Bsize,l2_D_Bsize,l3_D_Bsize,l1_I_Assoc,l2_I_Assoc,l3_I_Assoc,l1_D_Assoc,l2_D_Assoc,l3_D_Assoc,l1_I_Repl,l2_I_Repl,l3_I_Repl,l1_D_Repl,l2_D_Repl,l3_D_Repl,l1_I_Fetch,l2_I_Fetch,l3_I_Fetch,l1_D_Fetch,l2_D_Fetch,l3_D_Fetch,l1_D_WAlloc,l2_D_WAlloc,l3_D_WAlloc,l1_D_WBack,l2_D_WBack,l3_D_WBack,l1_I_Demand_Fetches,l2_I_Demand_Fetches,l3_I_Demand_Fetches,l1_D_Demand_Fetches,l2_D_Demand_Fetches,l3_D_Demand_Fetches,l1_I_Demand_Misses,l2_I_Demand_Misses,l3_I_Demand_Misses,l1_D_Demand_Misses,l2_D_Demand_Misses,l3_D_Demand_Misses,l1_I_Demand_Miss_Rate,l2_I_Demand_Miss_Rate,l3_I_Demand_Miss_Rate,l1_D_Demand_Miss_Rate,l2_D_Demand_Miss_Rate,l3_D_Demand_Miss_Rate,l1_I_Bytes_From_Mem,l2_I_Bytes_From_Mem,l3_I_Bytes_From_Mem,l1_D_Bytes_From_Mem,l2_D_Bytes_From_Mem,l3_D_Bytes_From_Mem,l1_I_Bytes_To_Mem,l2_I_Bytes_To_Mem,l3_I_Bytes_To_Mem,l1_D_Bytes_To_Mem,l2_D_Bytes_To_Mem,l3_D_Bytes_To_Mem,l1_I_Total_Bytes,l2_I_Total_Bytes,l3_I_Total_Bytes,l1_D_Total_Bytes,l2_D_Total_Bytes,l3_D_Total_Bytes,specbenchmark
17652,524288,4194304,8388608,524288,4194304,8388608,8,8,8,8,8,8,1,1,1,1,1,1,l,l,l,l,l,l,d,d,d,d,d,d,a,a,a,a,a,a,6451228,4101,4101,3548772,4227734,4227627,4101,4101,4101,2534250,2534707,3192392,0.0006,1,1,0.7141,0.5995,0.7551,32808,32808,32808,20274000,20273232,20272288,0,0,0,13547872,13547784,13547784,32808,32808,32808,33821872,33821016,33820072,401Out
17736,524288,4194304,8388608,524288,4194304,8388608,16,16,16,16,16,16,1,1,1,1,1,1,l,l,l,l,l,l,d,d,d,d,d,d,a,a,a,a,a,a,6451228,2193,2193,3548772,2976049,2975962,2193,2193,2193,1699037,1699334,2031188,0.0003,1,1,0.4788,0.571,0.6825,35088,35088,35088,27184592,27183328,27181776,0,0,0,20432192,20432064,20432048,35088,35088,35088,47616784,47615392,47613824,401Out
17820,524288,4194304,8388608,524288,4194304,8388608,32,32,32,32,32,32,1,1,1,1,1,1,l,l,l,l,l,l,d,d,d,d,d,d,a,a,a,a,a,a,6451228,1236,1236,3548772,2348695,2348615,1236,1236,1236,1279964,1280135,1449109,0.0002,1,1,0.3607,0.545,0.617,39552,39552,39552,40958848,40956576,40954048,0,0,0,34199392,34199104,34199008,39552,39552,39552,75158240,75155680,75153056,401Out
17904,524288,4194304,8388608,524288,4194304,8388608,64,64,64,64,64,64,1,1,1,1,1,1,l,l,l,l,l,l,d,d,d,d,d,d,a,a,a,a,a,a,6451228,718,718,3548772,2034841,2034751,718,718,718,1070326,1070401,1157957,0.0001,1,1,0.3016,0.526,0.5691,45952,45952,45952,68500864,68495680,68492160,0,0,0,61728960,61728384,61727936,45952,45952,45952,130229824,130224064,130220096,401Out
17988,524288,4194304,8388608,524288,4194304,8388608,128,128,128,128,128,128,1,1,1,1,1,1,l,l,l,l,l,l,d,d,d,d,d,d,a,a,a,a,a,a,6451228,435,435,3548772,1877796,1877685,435,435,435,965418,965420,1012270,0.0001,1,1,0.272,0.5141,0.5391,55680,55680,55680,123573504,123560960,123556352,0,0,0,116784384,116782720,116781824,55680,55680,55680,240357888,240343680,240338176,401Out
18072,524288,4194304,8388608,524288,4194304,8388608,256,256,256,256,256,256,1,1,1,1,1,1,l,l,l,l,l,l,d,d,d,d,d,d,a,a,a,a,a,a,6451228,274,274,3548772,1799809,1799249,274,274,274,913505,913093,939502,0,1,1,0.2574,0.5073,0.5222,70144,70144,70144,233857280,233717504,233693696,0,0,0,226893824,226890240,226888448,70144,70144,70144,460751104,460607744,460582144,401Out
18156,524288,4194304,8388608,524288,4194304,8388608,512,512,512,512,512,512,1,1,1,1,1,1,l,l,l,l,l,l,d,d,d,d,d,d,a,a,a,a,a,a,6451228,187,185,3548772,1761791,1760283,187,185,185,888506,887290,903276,0,0.9893,1,0.2504,0.5036,0.5131,95744,94720,94720,454915072,454150144,454021632,0,0,0,447121920,447114752,447099392,95744,94720,94720,902036992,901264896,901121024,401Out
18240,524288,4194304,8388608,524288,4194304,8388608,8,8,8,8,8,8,2,2,2,2,2,2,l,l,l,l,l,l,d,d,d,d,d,d,a,a,a,a,a,a,6451228,4101,4101,3548772,4227567,4227446,4101,4101,4101,2534135,2534029,3384971,0.0006,1,1,0.7141,0.5994,0.8007,32808,32808,32808,20273080,20272232,20272232,0,0,0,13547456,13547336,13547336,32808,32808,32808,33820536,33819568,33819568,401Out
18324,524288,4194304,8388608,524288,4194304,8388608,16,16,16,16,16,16,2,2,2,2,2,2,l,l,l,l,l,l,d,d,d,d,d,d,a,a,a,a,a,a,6451228,2193,2193,3548772,2975945,2975816,2193,2193,2193,1698963,1698849,2549664,0.0003,1,1,0.4787,0.5709,0.8568,35088,35088,35088,27183408,27181584,27181584,0,0,0,20431712,20431472,20431472,35088,35088,35088,47615120,47613056,47613056,401Out
18408,524288,4194304,8388608,524288,4194304,8388608,32,32,32,32,32,32,2,2,2,2,2,2,l,l,l,l,l,l,d,d,d,d,d,d,a,a,a,a,a,a,6451228,1236,1236,3548772,2348591,2348492,1236,1236,1236,1279886,1279796,2130533,0.0002,1,1,0.3607,0.5449,0.9072,39552,39552,39552,40956352,40953472,40953472,0,0,0,34198560,34198272,34198272,39552,39552,39552,75154912,75151744,75151744,401Out
18492,524288,4194304,8388608,524288,4194304,8388608,64,64,64,64,64,64,2,2,2,2,2,2,l,l,l,l,l,l,d,d,d,d,d,d,a,a,a,a,a,a,6451228,718,718,3548772,2034700,2034630,718,718,718,1070210,1070147,1920831,0.0001,1,1,0.3016,0.5259,0.9441,45952,45952,45952,68493440,68489408,68489408,0,0,0,61727360,61726912,61726912,45952,45952,45952,130220800,130216320,130216320,401Out
18576,524288,4194304,8388608,524288,4194304,8388608,128,128,128,128,128,128,2,2,2,2,2,2,l,l,l,l,l,l,d,d,d,d,d,d,a,a,a,a,a,a,6451228,435,435,3548772,1877640,1877591,435,435,435,965287,965245,1815900,0.0001,1,1,0.272,0.5141,0.9671,55680,55680,55680,123556736,123551360,123551360,0,0,0,116781184,116780288,116780288,55680,55680,55680,240337920,240331648,240331648,401Out
18660,524288,4194304,8388608,524288,4194304,8388608,256,256,256,256,256,256,2,2,2,2,2,2,l,l,l,l,l,l,d,d,d,d,d,d,a,a,a,a,a,a,6451228,273,273,3548772,1799075,1799041,273,273,273,912794,912768,1763409,0,1,1,0.2572,0.5074,0.9802,69888,69888,69888,233675264,233668352,233668352,0,0,0,226887936,226886144,226886144,69888,69888,69888,460563200,460554496,460554496,401Out
18744,524288,4194304,8388608,524288,4194304,8388608,512,512,512,512,512,512,2,2,2,2,2,2,l,l,l,l,l,l,d,d,d,d,d,d,a,a,a,a,a,a,6451228,185,184,3548772,1759783,1759756,185,184,184,886543,886524,1737160,0,0.9946,1,0.2498,0.5038,0.9872,94720,94208,94208,453910016,453899776,453899776,0,0,0,447098880,447095296,447095296,94720,94208,94208,901008896,900995072,900995072,401Out
18828,524288,4194304,8388608,524288,4194304,8388608,8,8,8,8,8,8,4,4,4,4,4,4,l,l,l,l,l,l,d,d,d,d,d,d,a,a,a,a,a,a,6451228,4101,4101,3548772,4227453,4227446,4101,4101,4101,2534033,2534029,3381790,0.0006,1,1,0.7141,0.5994,0.8,32808,32808,32808,20272264,20272232,20272232,0,0,0,13547360,13547336,13547336,32808,32808,32808,33819624,33819568,33819568,401Out
18912,524288,4194304,8388608,524288,4194304,8388608,16,16,16,16,16,16,4,4,4,4,4,4,l,l,l,l,l,l,d,d,d,d,d,d,a,a,a,a,a,a,6451228,2193,2193,3548772,2975820,2975816,2193,2193,2193,1698851,1698849,2546549,0.0003,1,1,0.4787,0.5709,0.8557,35088,35088,35088,27181616,27181584,27181584,0,0,0,20431504,20431472,20431472,35088,35088,35088,47613120,47613056,47613056,401Out
18996,524288,4194304,8388608,524288,4194304,8388608,32,32,32,32,32,32,4,4,4,4,4,4,l,l,l,l,l,l,d,d,d,d,d,d,a,a,a,a,a,a,6451228,1236,1236,3548772,2348496,2348492,1236,1236,1236,1279798,1279796,2127452,0.0002,1,1,0.3606,0.5449,0.9059,39552,39552,39552,40953536,40953472,40953472,0,0,0,34198336,34198272,34198272,39552,39552,39552,75151872,75151744,75151744,401Out
19080,524288,4194304,8388608,524288,4194304,8388608,64,64,64,64,64,64,4,4,4,4,4,4,l,l,l,l,l,l,d,d,d,d,d,d,a,a,a,a,a,a,6451228,718,718,3548772,2034631,2034629,718,718,718,1070147,1070146,1917774,0.0001,1,1,0.3016,0.526,0.9426,45952,45952,45952,68489408,68489344,68489344,0,0,0,61726976,61726912,61726912,45952,45952,45952,130216384,130216256,130216256,401Out
19164,524288,4194304,8388608,524288,4194304,8388608,128,128,128,128,128,128,4,4,4,4,4,4,l,l,l,l,l,l,d,d,d,d,d,d,a,a,a,a,a,a,6451228,435,435,3548772,1877592,1877590,435,435,435,965245,965244,1812856,0.0001,1,1,0.272,0.5141,0.9655,55680,55680,55680,123551360,123551232,123551232,0,0,0,116780416,116780288,116780288,55680,55680,55680,240331776,240331520,240331520,401Out
19248,524288,4194304,8388608,524288,4194304,8388608,256,256,256,256,256,256,4,4,4,4,4,4,l,l,l,l,l,l,d,d,d,d,d,d,a,a,a,a,a,a,6451228,273,273,3548772,1799042,1799040,273,273,273,912767,912767,1760371,0,1,1,0.2572,0.5074,0.9785,69888,69888,69888,233668352,233668096,233668096,0,0,0,226886400,226886144,226886144,69888,69888,69888,460554752,460554240,460554240,401Out
19332,524288,4194304,8388608,524288,4194304,8388608,512,512,512,512,512,512,4,4,4,4,4,4,l,l,l,l,l,l,d,d,d,d,d,d,a,a,a,a,a,a,6451228,184,184,3548772,1759757,1759755,184,184,184,886523,886523,1734122,0,1,1,0.2498,0.5038,0.9854,94208,94208,94208,453899776,453899264,453899264,0,0,0,447095808,447095296,447095296,94208,94208,94208,900995584,900994560,900994560,401Out
19416,524288,4194304,8388608,524288,4194304,8388608,8,8,8,8,8,8,8,8,8,8,8,8,l,l,l,l,l,l,d,d,d,d,d,d,a,a,a,a,a,a,6451228,4101,4101,3548772,4227453,4227446,4101,4101,4101,2534033,2534029,3389493,0.0006,1,1,0.7141,0.5994,0.8018,32808,32808,32808,20272264,20272232,20272232,0,0,0,13547360,13547336,13547336,32808,32808,32808,33819624,33819568,33819568,401Out
19500,524288,4194304,8388608,524288,4194304,8388608,16,16,16,16,16,16,8,8,8,8,8,8,l,l,l,l,l,l,d,d,d,d,d,d,a,a,a,a,a,a,6451228,2193,2193,3548772,2975820,2975816,2193,2193,2193,1698851,1698849,2554301,0.0003,1,1,0.4787,0.5709,0.8584,35088,35088,35088,27181616,27181584,27181584,0,0,0,20431504,20431472,20431472,35088,35088,35088,47613120,47613056,47613056,401Out
19584,524288,4194304,8388608,524288,4194304,8388608,32,32,32,32,32,32,8,8,8,8,8,8,l,l,l,l,l,l,d,d,d,d,d,d,a,a,a,a,a,a,6451228,1236,1236,3548772,2348496,2348492,1236,1236,1236,1279798,1279796,2135231,0.0002,1,1,0.3606,0.5449,0.9092,39552,39552,39552,40953536,40953472,40953472,0,0,0,34198336,34198272,34198272,39552,39552,39552,75151872,75151744,75151744,401Out
19668,524288,4194304,8388608,524288,4194304,8388608,64,64,64,64,64,64,8,8,8,8,8,8,l,l,l,l,l,l,d,d,d,d,d,d,a,a,a,a,a,a,6451228,718,718,3548772,2034631,2034629,718,718,718,1070147,1070146,1925580,0.0001,1,1,0.3016,0.526,0.9464,45952,45952,45952,68489408,68489344,68489344,0,0,0,61726976,61726912,61726912,45952,45952,45952,130216384,130216256,130216256,401Out
19752,524288,4194304,8388608,524288,4194304,8388608,128,128,128,128,128,128,8,8,8,8,8,8,l,l,l,l,l,l,d,d,d,d,d,d,a,a,a,a,a,a,6451228,435,435,3548772,1877592,1877590,435,435,435,965245,965244,1820675,0.0001,1,1,0.272,0.5141,0.9697,55680,55680,55680,123551360,123551232,123551232,0,0,0,116780416,116780288,116780288,55680,55680,55680,240331776,240331520,240331520,401Out
19836,524288,4194304,8388608,524288,4194304,8388608,256,256,256,256,256,256,8,8,8,8,8,8,l,l,l,l,l,l,d,d,d,d,d,d,a,a,a,a,a,a,6451228,273,273,3548772,1799042,1799040,273,273,273,912767,912767,1768161,0,1,1,0.2572,0.5074,0.9828,69888,69888,69888,233668352,233668096,233668096,0,0,0,226886400,226886144,226886144,69888,69888,69888,460554752,460554240,460554240,401Out
19920,524288,4194304,8388608,524288,4194304,8388608,512,512,512,512,512,512,8,8,8,8,8,8,l,l,l,l,l,l,d,d,d,d,d,d,a,a,a,a,a,a,6451228,184,184,3548772,1759757,1759755,184,184,184,886523,886523,1741867,0,1,1,0.2498,0.5038,0.9898,94208,94208,94208,453899776,453899264,453899264,0,0,0,447095808,447095296,447095296,94208,94208,94208,900995584,900994560,900994560,401Out
20004,524288,4194304,8388608,524288,4194304,8388608,8,8,8,8,8,8,1,1,1,1,1,1,l,l,l,l,l,l,d,d,d,d,d,d,a,a,a,a,a,a,7790192,10090,9578,2209808,112240,111351,10090,9578,9578,62045,71083,61795,0.0013,0.9493,1,0.0281,0.6333,0.555,80720,76624,76624,496360,490256,490184,0,0,0,401560,400552,400184,80720,76624,76624,897920,890808,890368,403gcc
20088,524288,4194304,8388608,524288,4194304,8388608,16,16,16,16,16,16,1,1,1,1,1,1,l,l,l,l,l,l,d,d,d,d,d,d,a,a,a,a,a,a,7790192,5502,5208,2209808,63952,63060,5502,5208,5208,35963,41054,35710,0.0007,0.9466,1,0.0163,0.642,0.5663,88032,83328,83328,575408,563392,563216,0,0,0,447824,445568,444672,88032,83328,83328,1023232,1008960,1007888,403gcc
20172,524288,4194304,8388608,524288,4194304,8388608,32,32,32,32,32,32,1,1,1,1,1,1,l,l,l,l,l,l,d,d,d,d,d,d,a,a,a,a,a,a,7790192,3169,2954,2209808,33024,32221,3169,2954,2954,18746,21043,18344,0.0004,0.9322,1,0.0085,0.6372,0.5693,101408,94528,94528,599872,578656,578336,0,0,0,456896,452416,451040,101408,94528,94528,1056768,1031072,1029376,403gcc
20256,524288,4194304,8388608,524288,4194304,8388608,64,64,64,64,64,64,1,1,1,1,1,1,l,l,l,l,l,l,d,d,d,d,d,d,a,a,a,a,a,a,7790192,1930,1715,2209808,17411,16586,1930,1715,1715,10016,10893,9500,0.0002,0.8886,1,0.0045,0.6256,0.5728,123520,109760,109760,641024,599616,598720,0,0,0,473280,461888,459264,123520,109760,109760,1114304,1061504,1057984,403gcc
20340,524288,4194304,8388608,524288,4194304,8388608,128,128,128,128,128,128,1,1,1,1,1,1,l,l,l,l,l,l,d,d,d,d,d,d,a,a,a,a,a,a,7790192,2422,1044,2209808,10188,8626,2422,1044,1044,6204,5709,4972,0.0003,0.431,1,0.0028,0.5604,0.5764,310016,133632,133632,794112,628992,626304,0,0,0,509952,475136,470016,310016,133632,133632,1304064,1104128,1096320,403gcc
20424,524288,4194304,8388608,524288,4194304,8388608,256,256,256,256,256,256,1,1,1,1,1,1,l,l,l,l,l,l,d,d,d,d,d,d,a,a,a,a,a,a,7790192,2748,659,2209808,11281,4586,2748,659,659,8707,3080,2647,0.0004,0.2398,1,0.0039,0.273,0.5772,703488,168704,168704,2228992,675840,666368,0,0,0,658944,498176,486912,703488,168704,168704,2887936,1174016,1153280,403gcc
20508,524288,4194304,8388608,524288,4194304,8388608,512,512,512,512,512,512,1,1,1,1,1,1,l,l,l,l,l,l,d,d,d,d,d,d,a,a,a,a,a,a,7790192,3729,436,2209808,10219,2594,3729,436,436,8189,1797,1468,0.0005,0.1169,1,0.0037,0.1758,0.5659,1909248,223232,223232,4192768,770560,734208,0,0,0,1039360,557568,518656,1909248,223232,223232,5232128,1328128,1252864,403gcc
20592,524288,4194304,8388608,524288,4194304,8388608,8,8,8,8,8,8,2,2,2,2,2,2,l,l,l,l,l,l,d,d,d,d,d,d,a,a,a,a,a,a,7790192,9580,9578,2209808,111429,111212,9580,9578,9578,61399,61270,61263,0.0012,0.9998,1,0.0278,0.5499,0.5509,76640,76624,76624,491192,490104,490104,0,0,0,400240,399592,399592,76640,76624,76624,891432,889696,889696,403gcc
20676,524288,4194304,8388608,524288,4194304,8388608,16,16,16,16,16,16,2,2,2,2,2,2,l,l,l,l,l,l,d,d,d,d,d,d,a,a,a,a,a,a,7790192,5210,5208,2209808,63127,62904,5210,5208,5208,35326,35192,35185,0.0007,0.9996,1,0.016,0.5575,0.5593,83360,83328,83328,565216,562960,562960,0,0,0,444816,443504,443504,83360,83328,83328,1010032,1006464,1006464,403gcc
20760,524288,4194304,8388608,524288,4194304,8388608,32,32,32,32,32,32,2,2,2,2,2,2,l,l,l,l,l,l,d,d,d,d,d,d,a,a,a,a,a,a,7790192,2955,2954,2209808,32260,32111,2955,2954,2954,18160,18063,18059,0.0004,0.9997,1,0.0082,0.5599,0.5624,94560,94528,94528,581120,577888,577888,0,0,0,451200,449664,449664,94560,94528,94528,1032320,1027552,1027552,403gcc
20844,524288,4194304,8388608,524288,4194304,8388608,64,64,64,64,64,64,2,2,2,2,2,2,l,l,l,l,l,l,d,d,d,d,d,d,a,a,a,a,a,a,7790192,1716,1715,2209808,16603,16482,1716,1715,1715,9416,9332,9331,0.0002,0.9994,1,0.0043,0.5621,0.5661,109824,109760,109760,602624,597184,597184,0,0,0,459968,457664,457664,109824,109760,109760,1062592,1054848,1054848,403gcc
20928,524288,4194304,8388608,524288,4194304,8388608,128,128,128,128,128,128,2,2,2,2,2,2,l,l,l,l,l,l,d,d,d,d,d,d,a,a,a,a,a,a,7790192,1045,1044,2209808,8613,8526,1045,1044,1044,4931,4870,4867,0.0001,0.999,1,0.0022,0.5654,0.5708,133760,133632,133632,631168,623232,622976,0,0,0,471296,468096,468096,133760,133632,133632,1102464,1091328,1091072,403gcc
21012,524288,4194304,8388608,524288,4194304,8388608,256,256,256,256,256,256,2,2,2,2,2,2,l,l,l,l,l,l,d,d,d,d,d,d,a,a,a,a,a,a,7790192,662,659,2209808,4610,4470,662,659,659,2682,2580,2579,0.0001,0.9955,1,0.0012,0.5597,0.577,169472,168704,168704,686592,660480,660224,0,0,0,493568,483840,483840,169472,168704,168704,1180160,1144320,1144064,403gcc
21096,524288,4194304,8388608,524288,4194304,8388608,512,512,512,512,512,512,2,2,2,2,2,2,l,l,l,l,l,l,d,d,d,d,d,d,a,a,a,a,a,a,7790192,439,436,2209808,2676,2398,439,436,436,1599,1403,1402,0.0001,0.9932,1,0.0007,0.5243,0.5847,224768,223232,223232,818688,718336,717824,0,0,0,551424,509440,509440,224768,223232,223232,1370112,1227776,1227264,403gcc
21180,524288,4194304,8388608,524288,4194304,8388608,8,8,8,8,8,8,4,4,4,4,4,4,l,l,l,l,l,l,d,d,d,d,d,d,a,a,a,a,a,a,7790192,9578,9578,2209808,111213,111212,9578,9578,9578,61264,61263,61263,0.0012,1,1,0.0277,0.5509,0.5509,76624,76624,76624,490112,490104,490104,0,0,0,399592,399592,399592,76624,76624,76624,889704,889696,889696,403gcc
21264,524288,4194304,8388608,524288,4194304,8388608,16,16,16,16,16,16,4,4,4,4,4,4,l,l,l,l,l,l,d,d,d,d,d,d,a,a,a,a,a,a,7790192,5208,5208,2209808,62905,62904,5208,5208,5208,35186,35185,35185,0.0007,1,1,0.0159,0.5593,0.5593,83328,83328,83328,562976,562960,562960,0,0,0,443504,443504,443504,83328,83328,83328,1006480,1006464,1006464,403gcc
21348,524288,4194304,8388608,524288,4194304,8388608,32,32,32,32,32,32,4,4,4,4,4,4,l,l,l,l,l,l,d,d,d,d,d,d,a,a,a,a,a,a,7790192,2954,2954,2209808,32112,32111,2954,2954,2954,18060,18059,18059,0.0004,1,1,0.0082,0.5624,0.5624,94528,94528,94528,577920,577888,577888,0,0,0,449664,449664,449664,94528,94528,94528,1027584,1027552,1027552,403gcc
21432,524288,4194304,8388608,524288,4194304,8388608,64,64,64,64,64,64,4,4,4,4,4,4,l,l,l,l,l,l,d,d,d,d,d,d,a,a,a,a,a,a,7790192,1715,1715,2209808,16484,16482,1715,1715,1715,9333,9331,9331,0.0002,1,1,0.0042,0.5661,0.5661,109760,109760,109760,597312,597184,597184,0,0,0,457664,457664,457664,109760,109760,109760,1054976,1054848,1054848,403gcc
21516,524288,4194304,8388608,524288,4194304,8388608,128,128,128,128,128,128,4,4,4,4,4,4,l,l,l,l,l,l,d,d,d,d,d,d,a,a,a,a,a,a,7790192,1044,1044,2209808,8526,8524,1044,1044,1044,4869,4867,4867,0.0001,1,1,0.0022,0.5708,0.571,133632,133632,133632,623232,622976,622976,0,0,0,468096,468096,468096,133632,133632,133632,1091328,1091072,1091072,403gcc
21600,524288,4194304,8388608,524288,4194304,8388608,256,256,256,256,256,256,4,4,4,4,4,4,l,l,l,l,l,l,d,d,d,d,d,d,a,a,a,a,a,a,7790192,659,659,2209808,4471,4469,659,659,659,2581,2579,2579,0.0001,1,1,0.0012,0.5768,0.5771,168704,168704,168704,660736,660224,660224,0,0,0,483840,483840,483840,168704,168704,168704,1144576,1144064,1144064,403gcc
21684,524288,4194304,8388608,524288,4194304,8388608,512,512,512,512,512,512,4,4,4,4,4,4,l,l,l,l,l,l,d,d,d,d,d,d,a,a,a,a,a,a,7790192,436,436,2209808,2402,2397,436,436,436,1405,1402,1402,0.0001,1,1,0.0006,0.5837,0.5849,223232,223232,223232,719360,717824,717824,0,0,0,510464,509440,509440,223232,223232,223232,1229824,1227264,1227264,403gcc
21768,524288,4194304,8388608,524288,4194304,8388608,8,8,8,8,8,8,8,8,8,8,8,8,l,l,l,l,l,l,d,d,d,d,d,d,a,a,a,a,a,a,7790192,9578,9578,2209808,111212,111212,9578,9578,9578,61263,61263,61263,0.0012,1,1,0.0277,0.5509,0.5509,76624,76624,76624,490104,490104,490104,0,0,0,399592,399592,399592,76624,76624,76624,889696,889696,889696,403gcc
21852,524288,4194304,8388608,524288,4194304,8388608,16,16,16,16,16,16,8,8,8,8,8,8,l,l,l,l,l,l,d,d,d,d,d,d,a,a,a,a,a,a,7790192,5208,5208,2209808,62904,62904,5208,5208,5208,35185,35185,35185,0.0007,1,1,0.0159,0.5593,0.5593,83328,83328,83328,562960,562960,562960,0,0,0,443504,443504,443504,83328,83328,83328,1006464,1006464,1006464,403gcc
21936,524288,4194304,8388608,524288,4194304,8388608,32,32,32,32,32,32,8,8,8,8,8,8,l,l,l,l,l,l,d,d,d,d,d,d,a,a,a,a,a,a,7790192,2954,2954,2209808,32111,32111,2954,2954,2954,18059,18059,18059,0.0004,1,1,0.0082,0.5624,0.5624,94528,94528,94528,577888,577888,577888,0,0,0,449664,449664,449664,94528,94528,94528,1027552,1027552,1027552,403gcc
22020,524288,4194304,8388608,524288,4194304,8388608,64,64,64,64,64,64,8,8,8,8,8,8,l,l,l,l,l,l,d,d,d,d,d,d,a,a,a,a,a,a,7790192,1715,1715,2209808,16482,16482,1715,1715,1715,9331,9331,9331,0.0002,1,1,0.0042,0.5661,0.5661,109760,109760,109760,597184,597184,597184,0,0,0,457664,457664,457664,109760,109760,109760,1054848,1054848,1054848,403gcc
22104,524288,4194304,8388608,524288,4194304,8388608,128,128,128,128,128,128,8,8,8,8,8,8,l,l,l,l,l,l,d,d,d,d,d,d,a,a,a,a,a,a,7790192,1044,1044,2209808,8524,8524,1044,1044,1044,4867,4867,4867,0.0001,1,1,0.0022,0.571,0.571,133632,133632,133632,622976,622976,622976,0,0,0,468096,468096,468096,133632,133632,133632,1091072,1091072,1091072,403gcc
22188,524288,4194304,8388608,524288,4194304,8388608,256,256,256,256,256,256,8,8,8,8,8,8,l,l,l,l,l,l,d,d,d,d,d,d,a,a,a,a,a,a,7790192,659,659,2209808,4469,4469,659,659,659,2579,2579,2579,0.0001,1,1,0.0012,0.5771,0.5771,168704,168704,168704,660224,660224,660224,0,0,0,483840,483840,483840,168704,168704,168704,1144064,1144064,1144064,403gcc
22272,524288,4194304,8388608,524288,4194304,8388608,512,512,512,512,512,512,8,8,8,8,8,8,l,l,l,l,l,l,d,d,d,d,d,d,a,a,a,a,a,a,7790192,436,436,2209808,2397,2397,436,436,436,1402,1402,1402,0.0001,1,1,0.0006,0.5849,0.5849,223232,223232,223232,717824,717824,717824,0,0,0,509440,509440,509440,223232,223232,223232,1227264,1227264,1227264,403gcc
22356,524288,4194304,8388608,524288,4194304,8388608,8,8,8,8,8,8,1,1,1,1,1,1,l,l,l,l,l,l,d,d,d,d,d,d,a,a,a,a,a,a,6495832,6547,6442,3504168,3628257,3625828,6547,6442,6442,1820499,2304437,2696691,0.001,0.984,1,0.5195,0.6351,0.7437,52376,51536,51536,14563992,14550744,14549536,0,0,0,14462064,14455880,14454808,52376,51536,51536,29026056,29006624,29004344,410bwaves
22440,524288,4194304,8388608,524288,4194304,8388608,16,16,16,16,16,16,1,1,1,1,1,1,l,l,l,l,l,l,d,d,d,d,d,d,a,a,a,a,a,a,6495832,3552,3482,3504168,1821162,1819142,3552,3482,3482,914902,1156384,1354309,0.0005,0.9803,1,0.2611,0.635,0.7445,56832,55712,55712,14638432,14616064,14614192,0,0,0,14500160,14490208,14488608,56832,55712,55712,29138592,29106272,29102800,410bwaves
22524,524288,4194304,8388608,524288,4194304,8388608,32,32,32,32,32,32,1,1,1,1,1,1,l,l,l,l,l,l,d,d,d,d,d,d,a,a,a,a,a,a,6495832,2042,1986,3504168,912168,910258,2042,1986,1986,458489,578726,677678,0.0003,0.9726,1,0.1308,0.6345,0.7445,65344,63552,63552,14671648,14630976,14628320,0,0,0,14517728,14497280,14494752,65344,63552,63552,29189376,29128256,29123072,410bwaves
22608,524288,4194304,8388608,524288,4194304,8388608,64,64,64,64,64,64,1,1,1,1,1,1,l,l,l,l,l,l,d,d,d,d,d,d,a,a,a,a,a,a,6495832,1214,1163,3504168,458117,455632,1214,1163,1163,230523,289787,339208,0.0002,0.958,1,0.0658,0.6326,0.7445,77696,74432,74432,14753472,14652096,14647424,0,0,0,14566016,14508352,14502464,77696,74432,74432,29319488,29160448,29149888,410bwaves
22692,524288,4194304,8388608,524288,4194304,8388608,128,128,128,128,128,128,1,1,1,1,1,1,l,l,l,l,l,l,d,d,d,d,d,d,a,a,a,a,a,a,6495832,793,717,3504168,231738,228221,793,717,717,116841,145252,169873,0.0001,0.9042,1,0.0333,0.6268,0.7443,101504,91776,91776,14955648,14680576,14672000,0,0,0,14706816,14531712,14515328,101504,91776,91776,29662464,29212288,29187328,410bwaves
22776,524288,4194304,8388608,524288,4194304,8388608,256,256,256,256,256,256,1,1,1,1,1,1,l,l,l,l,l,l,d,d,d,d,d,d,a,a,a,a,a,a,6495832,540,446,3504168,120370,114551,540,446,446,60926,73037,85211,0.0001,0.8259,1,0.0174,0.6068,0.7439,138240,114176,114176,15597056,14724096,14707968,0,0,0,15217664,14600960,14553344,138240,114176,114176,30814720,29325056,29261312,410bwaves
22860,524288,4194304,8388608,524288,4194304,8388608,512,512,512,512,512,512,1,1,1,1,1,1,l,l,l,l,l,l,d,d,d,d,d,d,a,a,a,a,a,a,6495832,452,290,3504168,67962,57896,452,290,290,34633,37113,42964,0.0001,0.6416,1,0.0099,0.5461,0.7421,231424,148480,148480,17732096,14799360,14768640,0,0,0,17064448,14843392,14682112,231424,148480,148480,34796544,29642752,29450752,410bwaves
22944,524288,4194304,8388608,524288,4194304,8388608,8,8,8,8,8,8,2,2,2,2,2,2,l,l,l,l,l,l,d,d,d,d,d,d,a,a,a,a,a,a,6495832,6442,6442,3504168,3625614,3625458,6442,6442,6442,1818777,1823741,2551731,0.001,1,1,0.519,0.503,0.7038,51536,51536,51536,14550216,14549256,14548944,0,0,0,14454696,14454408,14454312,51536,51536,51536,29004912,29003664,29003256,410bwaves
23028,524288,4194304,8388608,524288,4194304,8388608,16,16,16,16,16,16,2,2,2,2,2,2,l,l,l,l,l,l,d,d,d,d,d,d,a,a,a,a,a,a,6495832,3482,3482,3504168,1818943,1818843,3482,3482,3482,913429,915898,1280075,0.0005,1,1,0.2607,0.5035,0.7038,55712,55712,55712,14614864,14613600,14613216,0,0,0,14488224,14487888,14487776,55712,55712,55712,29103088,29101488,29100992,410bwaves
23112,524288,4194304,8388608,524288,4194304,8388608,32,32,32,32,32,32,2,2,2,2,2,2,l,l,l,l,l,l,d,d,d,d,d,d,a,a,a,a,a,a,6495832,1986,1986,3504168,910067,910018,1986,1986,1986,457144,458405,640598,0.0003,1,1,0.1305,0.5037,0.7039,63552,63552,63552,14628608,14627360,14626912,0,0,0,14493536,14493216,14493120,63552,63552,63552,29122144,29120576,29120032,410bwaves
23196,524288,4194304,8388608,524288,4194304,8388608,64,64,64,64,64,64,2,2,2,2,2,2,l,l,l,l,l,l,d,d,d,d,d,d,a,a,a,a,a,a,6495832,1163,1163,3504168,455376,455340,1163,1163,1163,228837,229480,320608,0.0002,1,1,0.0653,0.5039,0.7041,74432,74432,74432,14645568,14643520,14642880,0,0,0,14498496,14498240,14498176,74432,74432,74432,29144064,29141760,29141056,410bwaves
23280,524288,4194304,8388608,524288,4194304,8388608,128,128,128,128,128,128,2,2,2,2,2,2,l,l,l,l,l,l,d,d,d,d,d,d,a,a,a,a,a,a,6495832,717,717,3504168,227888,227865,717,717,717,114584,114910,160493,0.0001,1,1,0.0327,0.5042,0.7043,91776,91776,91776,14666752,14663936,14663424,0,0,0,14502912,14502784,14502784,91776,91776,91776,29169664,29166720,29166208,410bwaves
23364,524288,4194304,8388608,524288,4194304,8388608,256,256,256,256,256,256,2,2,2,2,2,2,l,l,l,l,l,l,d,d,d,d,d,d,a,a,a,a,a,a,6495832,446,446,3504168,114095,114063,446,446,446,57421,57573,80369,0.0001,1,1,0.0164,0.5046,0.7046,114176,114176,114176,14699776,14691840,14691584,0,0,0,14508544,14508288,14508288,114176,114176,114176,29208320,29200128,29199872,410bwaves
23448,524288,4194304,8388608,524288,4194304,8388608,512,512,512,512,512,512,2,2,2,2,2,2,l,l,l,l,l,l,d,d,d,d,d,d,a,a,a,a,a,a,6495832,295,290,3504168,57157,57128,295,290,290,28800,28869,40273,0,0.9831,1,0.0082,0.5051,0.705,151040,148480,148480,14745600,14731776,14731776,0,0,0,14518784,14517760,14517760,151040,148480,148480,29264384,29249536,29249536,410bwaves
23532,524288,4194304,8388608,524288,4194304,8388608,8,8,8,8,8,8,4,4,4,4,4,4,l,l,l,l,l,l,d,d,d,d,d,d,a,a,a,a,a,a,6495832,6442,6442,3504168,3625416,3625416,6442,6442,6442,1818642,1818706,2285112,0.001,1,1,0.519,0.5017,0.6303,51536,51536,51536,14549136,14549136,14548936,0,0,0,14454192,14454192,14454096,51536,51536,51536,29003328,29003328,29003032,410bwaves
23616,524288,4194304,8388608,524288,4194304,8388608,16,16,16,16,16,16,4,4,4,4,4,4,l,l,l,l,l,l,d,d,d,d,d,d,a,a,a,a,a,a,6495832,3482,3482,3504168,1818819,1818819,3482,3482,3482,913342,913385,1148520,0.0005,1,1,0.2606,0.5022,0.6315,55712,55712,55712,14613472,14613472,14613200,0,0,0,14487632,14487632,14487552,55712,55712,55712,29101104,29101104,29100752,410bwaves
23700,524288,4194304,8388608,524288,4194304,8388608,32,32,32,32,32,32,4,4,4,4,4,4,l,l,l,l,l,l,d,d,d,d,d,d,a,a,a,a,a,a,6495832,1986,1986,3504168,910006,910006,1986,1986,1986,457100,457125,574787,0.0003,1,1,0.1304,0.5023,0.6316,63552,63552,63552,14627200,14627200,14626816,0,0,0,14492992,14492992,14492896,63552,63552,63552,29120192,29120192,29119712,410bwaves
23784,524288,4194304,8388608,524288,4194304,8388608,64,64,64,64,64,64,4,4,4,4,4,4,l,l,l,l,l,l,d,d,d,d,d,d,a,a,a,a,a,a,6495832,1163,1163,3504168,455330,455329,1163,1163,1163,228798,228816,287685,0.0002,1,1,0.0653,0.5025,0.6318,74432,74432,74432,14643072,14643008,14642496,0,0,0,14498048,14498048,14497920,74432,74432,74432,29141120,29141056,29140416,410bwaves
23868,524288,4194304,8388608,524288,4194304,8388608,128,128,128,128,128,128,4,4,4,4,4,4,l,l,l,l,l,l,d,d,d,d,d,d,a,a,a,a,a,a,6495832,717,717,3504168,227856,227855,717,717,717,114554,114565,144013,0.0001,1,1,0.0327,0.5028,0.632,91776,91776,91776,14662912,14662784,14662272,0,0,0,14502656,14502656,14502528,91776,91776,91776,29165568,29165440,29164800,410bwaves
23952,524288,4194304,8388608,524288,4194304,8388608,256,256,256,256,256,256,4,4,4,4,4,4,l,l,l,l,l,l,d,d,d,d,d,d,a,a,a,a,a,a,6495832,446,446,3504168,114054,114053,446,446,446,57382,57390,72121,0.0001,1,1,0.0164,0.5032,0.6323,114176,114176,114176,14689792,14689536,14689280,0,0,0,14508032,14508032,14508032,114176,114176,114176,29197824,29197568,29197312,410bwaves
24036,524288,4194304,8388608,524288,4194304,8388608,512,512,512,512,512,512,4,4,4,4,4,4,l,l,l,l,l,l,d,d,d,d,d,d,a,a,a,a,a,a,6495832,290,290,3504168,57119,57118,290,290,290,28764,28769,36139,0,1,1,0.0082,0.5037,0.6327,148480,148480,148480,14727168,14726656,14726656,0,0,0,14517760,14517760,14517760,148480,148480,148480,29244928,29244416,29244416,410bwaves
24120,524288,4194304,8388608,524288,4194304,8388608,8,8,8,8,8,8,8,8,8,8,8,8,l,l,l,l,l,l,d,d,d,d,d,d,a,a,a,a,a,a,6495832,6442,6442,3504168,3625416,3625416,6442,6442,6442,1818642,1818706,2222823,0.001,1,1,0.519,0.5017,0.6131,51536,51536,51536,14549136,14549136,14548936,0,0,0,14454192,14454192,14454192,51536,51536,51536,29003328,29003328,29003128,410bwaves
24204,524288,4194304,8388608,524288,4194304,8388608,16,16,16,16,16,16,8,8,8,8,8,8,l,l,l,l,l,l,d,d,d,d,d,d,a,a,a,a,a,a,6495832,3482,3482,3504168,1818819,1818819,3482,3482,3482,913342,913385,1117031,0.0005,1,1,0.2606,0.5022,0.6142,55712,55712,55712,14613472,14613472,14613200,0,0,0,14487632,14487632,14487632,55712,55712,55712,29101104,29101104,29100832,410bwaves
24288,524288,4194304,8388608,524288,4194304,8388608,32,32,32,32,32,32,8,8,8,8,8,8,l,l,l,l,l,l,d,d,d,d,d,d,a,a,a,a,a,a,6495832,1986,1986,3504168,910006,910006,1986,1986,1986,457100,457125,559042,0.0003,1,1,0.1304,0.5023,0.6143,63552,63552,63552,14627200,14627200,14626816,0,0,0,14492992,14492992,14492992,63552,63552,63552,29120192,29120192,29119808,410bwaves
24372,524288,4194304,8388608,524288,4194304,8388608,64,64,64,64,64,64,8,8,8,8,8,8,l,l,l,l,l,l,d,d,d,d,d,d,a,a,a,a,a,a,6495832,1163,1163,3504168,455329,455329,1163,1163,1163,228797,228816,279810,0.0002,1,1,0.0653,0.5025,0.6145,74432,74432,74432,14643008,14643008,14642496,0,0,0,14498048,14498048,14498048,74432,74432,74432,29141056,29141056,29140544,410bwaves
24456,524288,4194304,8388608,524288,4194304,8388608,128,128,128,128,128,128,8,8,8,8,8,8,l,l,l,l,l,l,d,d,d,d,d,d,a,a,a,a,a,a,6495832,717,717,3504168,227855,227855,717,717,717,114553,114565,140080,0.0001,1,1,0.0327,0.5028,0.6148,91776,91776,91776,14662784,14662784,14662272,0,0,0,14502656,14502656,14502656,91776,91776,91776,29165440,29165440,29164928,410bwaves
24540,524288,4194304,8388608,524288,4194304,8388608,256,256,256,256,256,256,8,8,8,8,8,8,l,l,l,l,l,l,d,d,d,d,d,d,a,a,a,a,a,a,6495832,446,446,3504168,114053,114053,446,446,446,57381,57390,70153,0.0001,1,1,0.0164,0.5032,0.6151,114176,114176,114176,14689536,14689536,14689280,0,0,0,14508032,14508032,14508032,114176,114176,114176,29197568,29197568,29197312,410bwaves
24624,524288,4194304,8388608,524288,4194304,8388608,512,512,512,512,512,512,8,8,8,8,8,8,l,l,l,l,l,l,d,d,d,d,d,d,a,a,a,a,a,a,6495832,290,290,3504168,57118,57118,290,290,290,28763,28769,35157,0,1,1,0.0082,0.5037,0.6155,148480,148480,148480,14726656,14726656,14726656,0,0,0,14517760,14517760,14517760,148480,148480,148480,29244416,29244416,29244416,410bwaves
24708,524288,4194304,8388608,524288,4194304,8388608,8,8,8,8,8,8,1,1,1,1,1,1,l,l,l,l,l,l,d,d,d,d,d,d,a,a,a,a,a,a,7495681,10721,10702,2504319,168184,151762,10721,10702,10701,99690,91554,91235,0.0014,0.9982,0.9999,0.0398,0.5444,0.6012,85768,85616,85608,797520,730056,727400,0,0,0,547952,484040,482928,85768,85616,85608,1345472,1214096,1210328,450soplex
24792,524288,4194304,8388608,524288,4194304,8388608,16,16,16,16,16,16,1,1,1,1,1,1,l,l,l,l,l,l,d,d,d,d,d,d,a,a,a,a,a,a,7495681,5789,5777,2504319,115303,98514,5789,5777,5776,67171,58774,58370,0.0008,0.9979,0.9998,0.0268,0.5097,0.5925,92624,92432,92416,1074736,936240,929440,0,0,0,770112,639984,636880,92624,92432,92416,1844848,1576224,1566320,450soplex
24876,524288,4194304,8388608,524288,4194304,8388608,32,32,32,32,32,32,1,1,1,1,1,1,l,l,l,l,l,l,d,d,d,d,d,d,a,a,a,a,a,a,7495681,3308,3296,2504319,59856,50963,3308,3296,3295,35293,30802,30434,0.0004,0.9964,0.9997,0.0141,0.5146,0.5972,105856,105472,105440,1129376,979264,966784,0,0,0,786016,651552,647072,105856,105472,105440,1915392,1630816,1613856,450soplex
24960,524288,4194304,8388608,524288,4194304,8388608,64,64,64,64,64,64,1,1,1,1,1,1,l,l,l,l,l,l,d,d,d,d,d,d,a,a,a,a,a,a,7495681,1973,1962,2504319,31414,26504,1973,1962,1961,18865,16337,16017,0.0003,0.9944,0.9995,0.0075,0.5201,0.6043,126272,125568,125504,1207360,1035584,1013760,0,0,0,803136,660672,654592,126272,125568,125504,2010496,1696256,1668352,450soplex
25044,524288,4194304,8388608,524288,4194304,8388608,128,128,128,128,128,128,1,1,1,1,1,1,l,l,l,l,l,l,d,d,d,d,d,d,a,a,a,a,a,a,7495681,1240,1229,2504319,16817,13943,1240,1229,1228,10349,8820,8488,0.0002,0.9911,0.9992,0.0041,0.5245,0.6088,158720,157312,157184,1324672,1113472,1069568,0,0,0,827904,671232,664064,158720,157312,157184,2152576,1784704,1733632,450soplex
25128,524288,4194304,8388608,524288,4194304,8388608,256,256,256,256,256,256,1,1,1,1,1,1,l,l,l,l,l,l,d,d,d,d,d,d,a,a,a,a,a,a,7495681,828,813,2504319,9370,7474,828,813,812,5960,4891,4537,0.0001,0.9819,0.9988,0.0024,0.522,0.607,211968,208128,207872,1525760,1226240,1134848,0,0,0,872960,687104,679168,211968,208128,207872,2398720,1913344,1814016,450soplex
25212,524288,4194304,8388608,524288,4194304,8388608,512,512,512,512,512,512,1,1,1,1,1,1,l,l,l,l,l,l,d,d,d,d,d,d,a,a,a,a,a,a,7495681,581,549,2504319,8406,4260,581,549,548,6480,2952,2491,0.0001,0.9449,0.9982,0.0026,0.3512,0.5847,297472,281088,280576,3317760,1459200,1223168,0,0,0,986112,721920,710144,297472,281088,280576,4303872,2181120,1933312,450soplex
25296,524288,4194304,8388608,524288,4194304,8388608,8,8,8,8,8,8,2,2,2,2,2,2,l,l,l,l,l,l,d,d,d,d,d,d,a,a,a,a,a,a,7495681,10571,10566,2504319,153768,151171,10571,10566,10566,92312,90828,90830,0.0014,0.9995,1,0.0369,0.5907,0.6008,84568,84528,84528,738496,726624,726592,0,0,0,491648,482744,482744,84568,84528,84528,1230144,1209368,1209336,450soplex
25380,524288,4194304,8388608,524288,4194304,8388608,16,16,16,16,16,16,2,2,2,2,2,2,l,l,l,l,l,l,d,d,d,d,d,d,a,a,a,a,a,a,7495681,5703,5700,2504319,100855,97733,5703,5700,5700,59774,57960,57959,0.0008,0.9995,1,0.0239,0.5747,0.593,91248,91200,91200,956384,927360,927200,0,0,0,657296,636368,636368,91248,91200,91200,1613680,1563728,1563568,450soplex
25464,524288,4194304,8388608,524288,4194304,8388608,32,32,32,32,32,32,2,2,2,2,2,2,l,l,l,l,l,l,d,d,d,d,d,d,a,a,a,a,a,a,7495681,3255,3253,2504319,52453,50291,3255,3253,3253,31419,30102,30107,0.0004,0.9994,1,0.0125,0.5739,0.5987,104160,104096,104096,1005408,963232,962944,0,0,0,673088,646080,646048,104160,104096,104096,1678496,1609312,1608992,450soplex
25548,524288,4194304,8388608,524288,4194304,8388608,64,64,64,64,64,64,2,2,2,2,2,2,l,l,l,l,l,l,d,d,d,d,d,d,a,a,a,a,a,a,7495681,1938,1935,2504319,27518,25911,1938,1935,1935,16738,15720,15722,0.0003,0.9985,1,0.0067,0.5713,0.6068,124032,123840,123840,1071232,1005952,1005248,0,0,0,689920,652352,652288,124032,123840,123840,1761152,1658304,1657536,450soplex
25632,524288,4194304,8388608,524288,4194304,8388608,128,128,128,128,128,128,2,2,2,2,2,2,l,l,l,l,l,l,d,d,d,d,d,d,a,a,a,a,a,a,7495681,1217,1212,2504319,14595,13404,1217,1212,1212,9038,8258,8255,0.0002,0.9959,1,0.0036,0.5658,0.6159,155776,155136,155136,1156864,1056768,1054720,0,0,0,711296,658944,658560,155776,155136,155136,1868160,1715712,1713280,450soplex
25716,524288,4194304,8388608,524288,4194304,8388608,256,256,256,256,256,256,2,2,2,2,2,2,l,l,l,l,l,l,d,d,d,d,d,d,a,a,a,a,a,a,7495681,800,796,2504319,7845,6963,800,796,796,4944,4354,4341,0.0001,0.995,1,0.002,0.555,0.6234,204800,203776,203776,1265664,1113344,1108224,0,0,0,742656,669184,667904,204800,203776,203776,2008320,1782528,1776128,450soplex
25800,524288,4194304,8388608,524288,4194304,8388608,512,512,512,512,512,512,2,2,2,2,2,2,l,l,l,l,l,l,d,d,d,d,d,d,a,a,a,a,a,a,7495681,539,533,2504319,4374,3638,539,533,533,2814,2309,2293,0.0001,0.9889,1,0.0011,0.5279,0.6303,275968,272896,272896,1440768,1178624,1168384,0,0,0,798720,684032,680960,275968,272896,272896,2239488,1862656,1849344,450soplex
25884,524288,4194304,8388608,524288,4194304,8388608,8,8,8,8,8,8,4,4,4,4,4,4,l,l,l,l,l,l,d,d,d,d,d,d,a,a,a,a,a,a,7495681,10566,10566,2504319,151961,151140,10566,10566,10566,91311,90797,90797,0.0014,1,1,0.0365,0.5975,0.6007,84528,84528,84528,730488,726376,726376,0,0,0,485200,482744,482744,84528,84528,84528,1215688,1209120,1209120,450soplex
25968,524288,4194304,8388608,524288,4194304,8388608,16,16,16,16,16,16,4,4,4,4,4,4,l,l,l,l,l,l,d,d,d,d,d,d,a,a,a,a,a,a,7495681,5700,5700,2504319,98995,97678,5700,5700,5700,58745,57905,57905,0.0008,1,1,0.0235,0.5849,0.5928,91200,91200,91200,939920,926480,926480,0,0,0,644000,636368,636368,91200,91200,91200,1583920,1562848,1562848,450soplex
26052,524288,4194304,8388608,524288,4194304,8388608,32,32,32,32,32,32,4,4,4,4,4,4,l,l,l,l,l,l,d,d,d,d,d,d,a,a,a,a,a,a,7495681,3253,3253,2504319,51362,50233,3253,3253,3253,30791,30044,30044,0.0004,1,1,0.0123,0.5849,0.5981,104096,104096,104096,985312,961408,961408,0,0,0,658272,646048,646048,104096,104096,104096,1643584,1607456,1607456,450soplex
26136,524288,4194304,8388608,524288,4194304,8388608,64,64,64,64,64,64,4,4,4,4,4,4,l,l,l,l,l,l,d,d,d,d,d,d,a,a,a,a,a,a,7495681,1935,1935,2504319,26871,25845,1935,1935,1935,16344,15653,15653,0.0003,1,1,0.0065,0.5825,0.6056,123840,123840,123840,1046016,1001792,1001792,0,0,0,673728,652288,652288,123840,123840,123840,1719744,1654080,1654080,450soplex
26220,524288,4194304,8388608,524288,4194304,8388608,128,128,128,128,128,128,4,4,4,4,4,4,l,l,l,l,l,l,d,d,d,d,d,d,a,a,a,a,a,a,7495681,1212,1212,2504319,14191,13329,1212,1212,1212,8774,8184,8184,0.0002,1,1,0.0035,0.5767,0.614,155136,155136,155136,1123072,1047552,1047552,0,0,0,693376,658560,658560,155136,155136,155136,1816448,1706112,1706112,450soplex
26304,524288,4194304,8388608,524288,4194304,8388608,256,256,256,256,256,256,4,4,4,4,4,4,l,l,l,l,l,l,d,d,d,d,d,d,a,a,a,a,a,a,7495681,796,796,2504319,7615,6891,796,796,796,4778,4282,4282,0.0001,1,1,0.0019,0.5623,0.6214,203776,203776,203776,1223168,1096192,1096192,0,0,0,726272,667904,667904,203776,203776,203776,1949440,1764096,1764096,450soplex
26388,524288,4194304,8388608,524288,4194304,8388608,512,512,512,512,512,512,4,4,4,4,4,4,l,l,l,l,l,l,d,d,d,d,d,d,a,a,a,a,a,a,7495681,533,533,2504319,4174,3570,533,533,533,2657,2241,2241,0.0001,1,1,0.0011,0.5369,0.6277,272896,272896,272896,1360384,1147392,1147392,0,0,0,776704,680448,680448,272896,272896,272896,2137088,1827840,1827840,450soplex
26472,524288,4194304,8388608,524288,4194304,8388608,8,8,8,8,8,8,8,8,8,8,8,8,l,l,l,l,l,l,d,d,d,d,d,d,a,a,a,a,a,a,7495681,10566,10566,2504319,152014,151140,10566,10566,10566,91273,90797,90797,0.0014,1,1,0.0364,0.5973,0.6007,84528,84528,84528,730184,726376,726376,0,0,0,485928,482744,482744,84528,84528,84528,1216112,1209120,1209120,450soplex
26556,524288,4194304,8388608,524288,4194304,8388608,16,16,16,16,16,16,8,8,8,8,8,8,l,l,l,l,l,l,d,d,d,d,d,d,a,a,a,a,a,a,7495681,5700,5700,2504319,98784,97678,5700,5700,5700,58542,57905,57905,0.0008,1,1,0.0234,0.5862,0.5928,91200,91200,91200,936672,926480,926480,0,0,0,643872,636368,636368,91200,91200,91200,1580544,1562848,1562848,450soplex
26640,524288,4194304,8388608,524288,4194304,8388608,32,32,32,32,32,32,8,8,8,8,8,8,l,l,l,l,l,l,d,d,d,d,d,d,a,a,a,a,a,a,7495681,3253,3253,2504319,51011,50233,3253,3253,3253,30528,30044,30044,0.0004,1,1,0.0122,0.589,0.5981,104096,104096,104096,976896,961408,961408,0,0,0,655456,646048,646048,104096,104096,104096,1632352,1607456,1607456,450soplex
26724,524288,4194304,8388608,524288,4194304,8388608,64,64,64,64,64,64,8,8,8,8,8,8,l,l,l,l,l,l,d,d,d,d,d,d,a,a,a,a,a,a,7495681,1935,1935,2504319,26448,25843,1935,1935,1935,16053,15651,15651,0.0003,1,1,0.0064,0.5918,0.6056,123840,123840,123840,1027392,1001664,1001664,0,0,0,665280,652288,652288,123840,123840,123840,1692672,1653952,1653952,450soplex
26808,524288,4194304,8388608,524288,4194304,8388608,128,128,128,128,128,128,8,8,8,8,8,8,l,l,l,l,l,l,d,d,d,d,d,d,a,a,a,a,a,a,7495681,1212,1212,2504319,13870,13326,1212,1212,1212,8553,8181,8181,0.0002,1,1,0.0034,0.5898,0.6139,155136,155136,155136,1094784,1047168,1047168,0,0,0,680576,658560,658560,155136,155136,155136,1775360,1705728,1705728,450soplex
26892,524288,4194304,8388608,524288,4194304,8388608,256,256,256,256,256,256,8,8,8,8,8,8,l,l,l,l,l,l,d,d,d,d,d,d,a,a,a,a,a,a,7495681,796,796,2504319,7405,6887,796,796,796,4635,4278,4278,0.0001,1,1,0.0019,0.5777,0.6212,203776,203776,203776,1186560,1095168,1095168,0,0,0,709120,667904,667904,203776,203776,203776,1895680,1763072,1763072,450soplex
26976,524288,4194304,8388608,524288,4194304,8388608,512,512,512,512,512,512,8,8,8,8,8,8,l,l,l,l,l,l,d,d,d,d,d,d,a,a,a,a,a,a,7495681,533,533,2504319,4084,3569,533,533,533,2583,2240,2240,0.0001,1,1,0.001,0.5485,0.6276,272896,272896,272896,1322496,1146880,1146880,0,0,0,768512,680448,680448,272896,272896,272896,2091008,1827328,1827328,450soplex
27060,524288,4194304,8388608,524288,4194304,8388608,8,8,8,8,8,8,1,1,1,1,1,1,l,l,l,l,l,l,d,d,d,d,d,d,a,a,a,a,a,a,8163668,4269,4269,1836332,905159,904972,4269,4269,4269,457760,457715,458494,0.0005,1,1,0.2493,0.5057,0.5066,34152,34152,34152,3662080,3660648,3660632,0,0,0,3579192,3579128,3579112,34152,34152,34152,7241272,7239776,7239744,462libquantum
27144,524288,4194304,8388608,524288,4194304,8388608,16,16,16,16,16,16,1,1,1,1,1,1,l,l,l,l,l,l,d,d,d,d,d,d,a,a,a,a,a,a,8163668,2287,2287,1836332,454672,454474,2287,2287,2287,230756,230626,231071,0.0003,1,1,0.1257,0.5072,0.5084,36592,36592,36592,3692096,3689248,3689216,0,0,0,3582656,3582336,3582304,36592,36592,36592,7274752,7271584,7271520,462libquantum
27228,524288,4194304,8388608,524288,4194304,8388608,32,32,32,32,32,32,1,1,1,1,1,1,l,l,l,l,l,l,d,d,d,d,d,d,a,a,a,a,a,a,8163668,1293,1293,1836332,227939,227678,1293,1293,1293,115806,115627,115856,0.0002,1,1,0.0631,0.5073,0.5089,41376,41376,41376,3705792,3698848,3698784,0,0,0,3588256,3586848,3586784,41376,41376,41376,7294048,7285696,7285568,462libquantum
27312,524288,4194304,8388608,524288,4194304,8388608,64,64,64,64,64,64,1,1,1,1,1,1,l,l,l,l,l,l,d,d,d,d,d,d,a,a,a,a,a,a,8163668,755,755,1836332,114550,114121,755,755,755,58338,58038,58159,0.0001,1,1,0.0318,0.5067,0.5096,48320,48320,48320,3733632,3712256,3712128,0,0,0,3597568,3591488,3591360,48320,48320,48320,7331200,7303744,7303488,462libquantum
27396,524288,4194304,8388608,524288,4194304,8388608,128,128,128,128,128,128,1,1,1,1,1,1,l,l,l,l,l,l,d,d,d,d,d,d,a,a,a,a,a,a,8163668,459,458,1836332,57998,57248,459,458,458,29697,29184,29249,0.0001,0.9978,1,0.0162,0.5032,0.5109,58752,58624,58624,3801216,3730176,3729920,0,0,0,3622528,3597568,3597440,58752,58624,58624,7423744,7327744,7327360,462libquantum
27480,524288,4194304,8388608,524288,4194304,8388608,256,256,256,256,256,256,1,1,1,1,1,1,l,l,l,l,l,l,d,d,d,d,d,d,a,a,a,a,a,a,8163668,290,289,1836332,30403,28807,290,289,289,15889,14764,14795,0,0.9966,1,0.0087,0.4856,0.5136,74240,73984,73984,4067584,3761152,3760640,0,0,0,3715584,3613440,3613184,74240,73984,73984,7783168,7374592,7373824,462libquantum
27564,524288,4194304,8388608,524288,4194304,8388608,512,512,512,512,512,512,1,1,1,1,1,1,l,l,l,l,l,l,d,d,d,d,d,d,a,a,a,a,a,a,8163668,196,194,1836332,17491,14672,196,194,194,9540,7642,7657,0,0.9898,1,0.0052,0.4369,0.5219,100352,99328,99328,4884480,3844096,3843072,0,0,0,4070912,3667968,3667456,100352,99328,99328,8955392,7512064,7510528,462libquantum
27648,524288,4194304,8388608,524288,4194304,8388608,8,8,8,8,8,8,2,2,2,2,2,2,l,l,l,l,l,l,d,d,d,d,d,d,a,a,a,a,a,a,8163668,4269,4269,1836332,905086,904956,4269,4269,4269,457698,457569,457532,0.0005,1,1,0.2492,0.5056,0.5056,34152,34152,34152,3661584,3660544,3660256,0,0,0,3579104,3579104,3579104,34152,34152,34152,7240688,7239648,7239360,462libquantum
27732,524288,4194304,8388608,524288,4194304,8388608,16,16,16,16,16,16,2,2,2,2,2,2,l,l,l,l,l,l,d,d,d,d,d,d,a,a,a,a,a,a,8163668,2287,2287,1836332,454544,454453,2287,2287,2287,230653,230563,230530,0.0003,1,1,0.1256,0.5072,0.5073,36592,36592,36592,3690448,3688992,3688480,0,0,0,3582256,3582256,3582256,36592,36592,36592,7272704,7271248,7270736,462libquantum
27816,524288,4194304,8388608,524288,4194304,8388608,32,32,32,32,32,32,2,2,2,2,2,2,l,l,l,l,l,l,d,d,d,d,d,d,a,a,a,a,a,a,8163668,1293,1293,1836332,227718,227647,1293,1293,1293,115638,115568,115547,0.0002,1,1,0.063,0.5075,0.5076,41376,41376,41376,3700416,3698144,3697504,0,0,0,3586560,3586560,3586560,41376,41376,41376,7286976,7284704,7284064,462libquantum
27900,524288,4194304,8388608,524288,4194304,8388608,64,64,64,64,64,64,2,2,2,2,2,2,l,l,l,l,l,l,d,d,d,d,d,d,a,a,a,a,a,a,8163668,755,755,1836332,114104,114045,755,755,755,58004,57946,57935,0.0001,1,1,0.0316,0.5078,0.508,48320,48320,48320,3712256,3708480,3707840,0,0,0,3590400,3590400,3590400,48320,48320,48320,7302656,7298880,7298240,462libquantum
27984,524288,4194304,8388608,524288,4194304,8388608,128,128,128,128,128,128,2,2,2,2,2,2,l,l,l,l,l,l,d,d,d,d,d,d,a,a,a,a,a,a,8163668,458,458,1836332,57192,57142,458,458,458,29117,29069,29059,0.0001,1,1,0.0159,0.5083,0.5085,58624,58624,58624,3726976,3720704,3719552,0,0,0,3593600,3593472,3593472,58624,58624,58624,7320576,7314176,7313024,462libquantum
28068,524288,4194304,8388608,524288,4194304,8388608,256,256,256,256,256,256,2,2,2,2,2,2,l,l,l,l,l,l,d,d,d,d,d,d,a,a,a,a,a,a,8163668,287,287,1836332,28715,28644,287,287,287,14663,14594,14586,0,1,1,0.008,0.5082,0.5092,73472,73472,73472,3753728,3735808,3734016,0,0,0,3597312,3597056,3597056,73472,73472,73472,7351040,7332864,7331072,462libquantum
28152,524288,4194304,8388608,524288,4194304,8388608,512,512,512,512,512,512,2,2,2,2,2,2,l,l,l,l,l,l,d,d,d,d,d,d,a,a,a,a,a,a,8163668,192,192,1836332,14457,14374,192,192,192,7416,7339,7334,0,1,1,0.004,0.5076,0.5102,98304,98304,98304,3796992,3757056,3755008,0,0,0,3604992,3602432,3602432,98304,98304,98304,7401984,7359488,7357440,462libquantum
28236,524288,4194304,8388608,524288,4194304,8388608,8,8,8,8,8,8,4,4,4,4,4,4,l,l,l,l,l,l,d,d,d,d,d,d,a,a,a,a,a,a,8163668,4269,4269,1836332,905080,904928,4269,4269,4269,457692,457540,457532,0.0005,1,1,0.2492,0.5055,0.5056,34152,34152,34152,3661536,3660320,3660256,0,0,0,3579104,3579104,3579104,34152,34152,34152,7240640,7239424,7239360,462libquantum
28320,524288,4194304,8388608,524288,4194304,8388608,16,16,16,16,16,16,4,4,4,4,4,4,l,l,l,l,l,l,d,d,d,d,d,d,a,a,a,a,a,a,8163668,2287,2287,1836332,454528,454430,2287,2287,2287,230637,230539,230530,0.0003,1,1,0.1256,0.5072,0.5073,36592,36592,36592,3690192,3688624,3688480,0,0,0,3582256,3582256,3582256,36592,36592,36592,7272448,7270880,7270736,462libquantum
28404,524288,4194304,8388608,524288,4194304,8388608,32,32,32,32,32,32,4,4,4,4,4,4,l,l,l,l,l,l,d,d,d,d,d,d,a,a,a,a,a,a,8163668,1293,1293,1836332,227699,227637,1293,1293,1293,115619,115557,115547,0.0002,1,1,0.063,0.5075,0.5076,41376,41376,41376,3699808,3697824,3697504,0,0,0,3586560,3586560,3586560,41376,41376,41376,7286368,7284384,7284064,462libquantum
28488,524288,4194304,8388608,524288,4194304,8388608,64,64,64,64,64,64,4,4,4,4,4,4,l,l,l,l,l,l,d,d,d,d,d,d,a,a,a,a,a,a,8163668,755,755,1836332,114087,114042,755,755,755,57987,57942,57935,0.0001,1,1,0.0316,0.5079,0.508,48320,48320,48320,3711168,3708288,3707840,0,0,0,3590400,3590400,3590400,48320,48320,48320,7301568,7298688,7298240,462libquantum
28572,524288,4194304,8388608,524288,4194304,8388608,128,128,128,128,128,128,4,4,4,4,4,4,l,l,l,l,l,l,d,d,d,d,d,d,a,a,a,a,a,a,8163668,458,458,1836332,57175,57140,458,458,458,29101,29066,29059,0.0001,1,1,0.0158,0.5084,0.5086,58624,58624,58624,3724928,3720448,3719552,0,0,0,3593472,3593472,3593472,58624,58624,58624,7318400,7313920,7313024,462libquantum
28656,524288,4194304,8388608,524288,4194304,8388608,256,256,256,256,256,256,4,4,4,4,4,4,l,l,l,l,l,l,d,d,d,d,d,d,a,a,a,a,a,a,8163668,287,287,1836332,28667,28642,287,287,287,14616,14591,14586,0,1,1,0.008,0.509,0.5093,73472,73472,73472,3741696,3735296,3734016,0,0,0,3597056,3597056,3597056,73472,73472,73472,7338752,7332352,7331072,462libquantum
28740,524288,4194304,8388608,524288,4194304,8388608,512,512,512,512,512,512,4,4,4,4,4,4,l,l,l,l,l,l,d,d,d,d,d,d,a,a,a,a,a,a,8163668,192,192,1836332,14392,14372,192,192,192,7356,7336,7334,0,1,1,0.004,0.5097,0.5103,98304,98304,98304,3766272,3756032,3755008,0,0,0,3602432,3602432,3602432,98304,98304,98304,7368704,7358464,7357440,462libquantum
28824,524288,4194304,8388608,524288,4194304,8388608,8,8,8,8,8,8,8,8,8,8,8,8,l,l,l,l,l,l,d,d,d,d,d,d,a,a,a,a,a,a,8163668,4269,4269,1836332,905078,904920,4269,4269,4269,457690,457532,457532,0.0005,1,1,0.2492,0.5055,0.5056,34152,34152,34152,3661520,3660256,3660256,0,0,0,3579104,3579104,3579104,34152,34152,34152,7240624,7239360,7239360,462libquantum
28908,524288,4194304,8388608,524288,4194304,8388608,16,16,16,16,16,16,8,8,8,8,8,8,l,l,l,l,l,l,d,d,d,d,d,d,a,a,a,a,a,a,8163668,2287,2287,1836332,454524,454421,2287,2287,2287,230633,230530,230530,0.0003,1,1,0.1256,0.5072,0.5073,36592,36592,36592,3690128,3688480,3688480,0,0,0,3582256,3582256,3582256,36592,36592,36592,7272384,7270736,7270736,462libquantum
28992,524288,4194304,8388608,524288,4194304,8388608,32,32,32,32,32,32,8,8,8,8,8,8,l,l,l,l,l,l,d,d,d,d,d,d,a,a,a,a,a,a,8163668,1293,1293,1836332,227692,227627,1293,1293,1293,115612,115547,115547,0.0002,1,1,0.063,0.5075,0.5076,41376,41376,41376,3699584,3697504,3697504,0,0,0,3586560,3586560,3586560,41376,41376,41376,7286144,7284064,7284064,462libquantum
29076,524288,4194304,8388608,524288,4194304,8388608,64,64,64,64,64,64,8,8,8,8,8,8,l,l,l,l,l,l,d,d,d,d,d,d,a,a,a,a,a,a,8163668,755,755,1836332,114077,114035,755,755,755,57977,57935,57935,0.0001,1,1,0.0316,0.5079,0.508,48320,48320,48320,3710528,3707840,3707840,0,0,0,3590400,3590400,3590400,48320,48320,48320,7300928,7298240,7298240,462libquantum
29160,524288,4194304,8388608,524288,4194304,8388608,128,128,128,128,128,128,8,8,8,8,8,8,l,l,l,l,l,l,d,d,d,d,d,d,a,a,a,a,a,a,8163668,458,458,1836332,57161,57133,458,458,458,29087,29059,29059,0.0001,1,1,0.0158,0.5084,0.5086,58624,58624,58624,3723136,3719552,3719552,0,0,0,3593472,3593472,3593472,58624,58624,58624,7316608,7313024,7313024,462libquantum
29244,524288,4194304,8388608,524288,4194304,8388608,256,256,256,256,256,256,8,8,8,8,8,8,l,l,l,l,l,l,d,d,d,d,d,d,a,a,a,a,a,a,8163668,287,287,1836332,28656,28637,287,287,287,14605,14586,14586,0,1,1,0.008,0.509,0.5093,73472,73472,73472,3738880,3734016,3734016,0,0,0,3597056,3597056,3597056,73472,73472,73472,7335936,7331072,7331072,462libquantum
29328,524288,4194304,8388608,524288,4194304,8388608,512,512,512,512,512,512,8,8,8,8,8,8,l,l,l,l,l,l,d,d,d,d,d,d,a,a,a,a,a,a,8163668,192,192,1836332,14382,14370,192,192,192,7346,7334,7334,0,1,1,0.004,0.5099,0.5104,98304,98304,98304,3761152,3755008,3755008,0,0,0,3602432,3602432,3602432,98304,98304,98304,7363584,7357440,7357440,462libquantum
29412,524288,4194304,8388608,524288,4194304,8388608,8,8,8,8,8,8,1,1,1,1,1,1,l,l,l,l,l,l,d,d,d,d,d,d,a,a,a,a,a,a,7301736,14440,14314,2698264,334381,329444,14440,14314,14314,175314,173808,173333,0.002,0.9913,1,0.065,0.5198,0.5261,115520,114512,114512,1402512,1378392,1377112,0,0,0,1272536,1257160,1256536,115520,114512,114512,2675048,2635552,2633648,464h264ref
29496,524288,4194304,8388608,524288,4194304,8388608,16,16,16,16,16,16,1,1,1,1,1,1,l,l,l,l,l,l,d,d,d,d,d,d,a,a,a,a,a,a,7301736,7731,7652,2698264,259849,254290,7731,7652,7652,134666,132855,132989,0.0011,0.9898,1,0.0499,0.5113,0.523,123696,122432,122432,2154656,2101920,2098240,0,0,0,2002928,1966720,1964592,123696,122432,122432,4157584,4068640,4062832,464h264ref
29580,524288,4194304,8388608,524288,4194304,8388608,32,32,32,32,32,32,1,1,1,1,1,1,l,l,l,l,l,l,d,d,d,d,d,d,a,a,a,a,a,a,7301736,4325,4264,2698264,134680,130776,4325,4264,4264,70087,68924,68923,0.0006,0.9859,1,0.026,0.5118,0.527,138400,136448,136448,2242784,2166336,2159872,0,0,0,2066976,2018496,2015040,138400,136448,136448,4309760,4184832,4174912,464h264ref
29664,524288,4194304,8388608,524288,4194304,8388608,64,64,64,64,64,64,1,1,1,1,1,1,l,l,l,l,l,l,d,d,d,d,d,d,a,a,a,a,a,a,7301736,2519,2464,2698264,71510,68503,2519,2464,2464,37367,36629,36559,0.0003,0.9782,1,0.0138,0.5122,0.5337,161216,157696,157696,2391488,2275008,2262784,0,0,0,2185152,2109184,2102464,161216,157696,157696,4576640,4384192,4365248,464h264ref
29748,524288,4194304,8388608,524288,4194304,8388608,128,128,128,128,128,128,1,1,1,1,1,1,l,l,l,l,l,l,d,d,d,d,d,d,a,a,a,a,a,a,7301736,1521,1467,2698264,39650,37148,1521,1467,1467,20809,20290,20197,0.0002,0.9645,1,0.0077,0.5117,0.5437,194688,187776,187776,2663552,2470656,2448128,0,0,0,2411648,2284288,2271360,194688,187776,187776,5075200,4754944,4719488,464h264ref
29832,524288,4194304,8388608,524288,4194304,8388608,256,256,256,256,256,256,1,1,1,1,1,1,l,l,l,l,l,l,d,d,d,d,d,d,a,a,a,a,a,a,7301736,950,890,2698264,23917,21462,950,890,890,12717,12018,11968,0.0001,0.9368,1,0.0047,0.5025,0.5576,243200,227840,227840,3255552,2859776,2802688,0,0,0,2867200,2634496,2605312,243200,227840,227840,6122752,5494272,5408000,464h264ref
29916,524288,4194304,8388608,524288,4194304,8388608,512,512,512,512,512,512,1,1,1,1,1,1,l,l,l,l,l,l,d,d,d,d,d,d,a,a,a,a,a,a,7301736,630,563,2698264,15647,13567,630,563,563,8421,7500,7597,0.0001,0.8937,1,0.0031,0.4793,0.56,322560,288256,288256,4311552,3616768,3511296,0,0,0,3699712,3329536,3272704,322560,288256,288256,8011264,6946304,6784000,464h264ref
30000,524288,4194304,8388608,524288,4194304,8388608,8,8,8,8,8,8,2,2,2,2,2,2,l,l,l,l,l,l,d,d,d,d,d,d,a,a,a,a,a,a,7301736,14310,14310,2698264,333695,329177,14310,14310,14310,174835,172173,172185,0.002,1,1,0.0648,0.516,0.5231,114480,114480,114480,1398680,1376992,1376912,0,0,0,1270880,1256424,1256344,114480,114480,114480,2669560,2633416,2633256,464h264ref
30084,524288,4194304,8388608,524288,4194304,8388608,16,16,16,16,16,16,2,2,2,2,2,2,l,l,l,l,l,l,d,d,d,d,d,d,a,a,a,a,a,a,7301736,7649,7649,2698264,257925,253885,7649,7649,7649,133536,131144,131348,0.001,1,1,0.0495,0.5085,0.5174,122384,122384,122384,2136576,2098112,2097888,0,0,0,1990224,1964048,1963904,122384,122384,122384,4126800,4062160,4061792,464h264ref
30168,524288,4194304,8388608,524288,4194304,8388608,32,32,32,32,32,32,2,2,2,2,2,2,l,l,l,l,l,l,d,d,d,d,d,d,a,a,a,a,a,a,7301736,4262,4261,2698264,133056,130424,4262,4261,4261,69113,67500,67657,0.0006,0.9998,1,0.0256,0.5073,0.5187,136384,136352,136352,2211616,2159360,2158848,0,0,0,2046176,2014208,2013920,136384,136352,136352,4257792,4173568,4172768,464h264ref
30252,524288,4194304,8388608,524288,4194304,8388608,64,64,64,64,64,64,2,2,2,2,2,2,l,l,l,l,l,l,d,d,d,d,d,d,a,a,a,a,a,a,7301736,2464,2462,2698264,70125,68151,2464,2462,2462,36488,35338,35478,0.0003,0.9992,1,0.0135,0.5039,0.5206,157696,157568,157568,2335232,2260544,2259264,0,0,0,2152768,2101120,2100224,157696,157568,157568,4488000,4361664,4359488,464h264ref
30336,524288,4194304,8388608,524288,4194304,8388608,128,128,128,128,128,128,2,2,2,2,2,2,l,l,l,l,l,l,d,d,d,d,d,d,a,a,a,a,a,a,7301736,1467,1464,2698264,38589,36819,1467,1464,1464,20105,19143,19221,0.0002,0.998,1,0.0075,0.4961,0.522,187776,187392,187392,2573440,2444032,2441472,0,0,0,2365952,2268800,2266752,187776,187392,187392,4939392,4712832,4708224,464h264ref
30420,524288,4194304,8388608,524288,4194304,8388608,256,256,256,256,256,256,2,2,2,2,2,2,l,l,l,l,l,l,d,d,d,d,d,d,a,a,a,a,a,a,7301736,891,888,2698264,22593,21114,891,888,888,11787,11249,11015,0.0001,0.9966,1,0.0044,0.4979,0.5217,228096,227328,227328,3017472,2801408,2788352,0,0,0,2766336,2603776,2594816,228096,227328,227328,5783808,5405184,5383168,464h264ref
30504,524288,4194304,8388608,524288,4194304,8388608,512,512,512,512,512,512,2,2,2,2,2,2,l,l,l,l,l,l,d,d,d,d,d,d,a,a,a,a,a,a,7301736,568,562,2698264,14144,13298,568,562,562,7372,8189,7056,0.0001,0.9894,1,0.0027,0.579,0.5306,290816,287744,287744,3774464,3520512,3473920,0,0,0,3467264,3288064,3255296,290816,287744,287744,7241728,6808576,6729216,464h264ref
30588,524288,4194304,8388608,524288,4194304,8388608,8,8,8,8,8,8,4,4,4,4,4,4,l,l,l,l,l,l,d,d,d,d,d,d,a,a,a,a,a,a,7301736,14310,14310,2698264,333119,329154,14310,14310,14310,174475,172111,172111,0.002,1,1,0.0647,0.5167,0.5229,114480,114480,114480,1395800,1376888,1376888,0,0,0,1269152,1256344,1256344,114480,114480,114480,2664952,2633232,2633232,464h264ref
30672,524288,4194304,8388608,524288,4194304,8388608,16,16,16,16,16,16,4,4,4,4,4,4,l,l,l,l,l,l,d,d,d,d,d,d,a,a,a,a,a,a,7301736,7649,7649,2698264,257680,253857,7649,7649,7649,133396,131113,131113,0.001,1,1,0.0494,0.5088,0.5165,122384,122384,122384,2134336,2097808,2097808,0,0,0,1988544,1963904,1963904,122384,122384,122384,4122880,4061712,4061712,464h264ref
30756,524288,4194304,8388608,524288,4194304,8388608,32,32,32,32,32,32,4,4,4,4,4,4,l,l,l,l,l,l,d,d,d,d,d,d,a,a,a,a,a,a,7301736,4261,4261,2698264,133030,130395,4261,4261,4261,69092,67460,67460,0.0006,1,1,0.0256,0.5071,0.5174,136352,136352,136352,2210944,2158720,2158720,0,0,0,2046016,2013920,2013920,136352,136352,136352,4256960,4172640,4172640,464h264ref
30840,524288,4194304,8388608,524288,4194304,8388608,64,64,64,64,64,64,4,4,4,4,4,4,l,l,l,l,l,l,d,d,d,d,d,d,a,a,a,a,a,a,7301736,2462,2462,2698264,70189,68113,2462,2462,2462,36509,35297,35297,0.0003,1,1,0.0135,0.5029,0.5182,157568,157568,157568,2336576,2259008,2259008,0,0,0,2155520,2100224,2100224,157568,157568,157568,4492096,4359232,4359232,464h264ref
30924,524288,4194304,8388608,524288,4194304,8388608,128,128,128,128,128,128,4,4,4,4,4,4,l,l,l,l,l,l,d,d,d,d,d,d,a,a,a,a,a,a,7301736,1464,1464,2698264,38702,36777,1464,1464,1464,20157,19068,19071,0.0002,1,1,0.0075,0.4927,0.5186,187392,187392,187392,2580096,2440704,2440704,0,0,0,2373760,2266752,2266752,187392,187392,187392,4953856,4707456,4707456,464h264ref
31008,524288,4194304,8388608,524288,4194304,8388608,256,256,256,256,256,256,4,4,4,4,4,4,l,l,l,l,l,l,d,d,d,d,d,d,a,a,a,a,a,a,7301736,888,888,2698264,22544,21021,888,888,888,11756,10889,10891,0.0001,1,1,0.0044,0.483,0.5181,227328,227328,227328,3009536,2787072,2786560,0,0,0,2761728,2594304,2594048,227328,227328,227328,5771264,5381376,5380608,464h264ref
31092,524288,4194304,8388608,524288,4194304,8388608,512,512,512,512,512,512,4,4,4,4,4,4,l,l,l,l,l,l,d,d,d,d,d,d,a,a,a,a,a,a,7301736,562,562,2698264,14062,13132,562,562,562,7318,6792,6893,0.0001,1,1,0.0027,0.483,0.5249,287744,287744,287744,3746816,3474432,3465216,0,0,0,3452928,3249152,3246080,287744,287744,287744,7199744,6723584,6711296,464h264ref
31176,524288,4194304,8388608,524288,4194304,8388608,8,8,8,8,8,8,8,8,8,8,8,8,l,l,l,l,l,l,d,d,d,d,d,d,a,a,a,a,a,a,7301736,14310,14310,2698264,332755,329154,14310,14310,14310,174254,172111,172111,0.002,1,1,0.0646,0.5172,0.5229,114480,114480,114480,1394032,1376888,1376888,0,0,0,1268008,1256344,1256344,114480,114480,114480,2662040,2633232,2633232,464h264ref
31260,524288,4194304,8388608,524288,4194304,8388608,16,16,16,16,16,16,8,8,8,8,8,8,l,l,l,l,l,l,d,d,d,d,d,d,a,a,a,a,a,a,7301736,7649,7649,2698264,257495,253857,7649,7649,7649,133296,131113,131113,0.001,1,1,0.0494,0.5092,0.5165,122384,122384,122384,2132736,2097808,2097808,0,0,0,1987184,1963904,1963904,122384,122384,122384,4119920,4061712,4061712,464h264ref
31344,524288,4194304,8388608,524288,4194304,8388608,32,32,32,32,32,32,8,8,8,8,8,8,l,l,l,l,l,l,d,d,d,d,d,d,a,a,a,a,a,a,7301736,4261,4261,2698264,132735,130395,4261,4261,4261,68935,67460,67460,0.0006,1,1,0.0255,0.5082,0.5174,136352,136352,136352,2205920,2158720,2158720,0,0,0,2041600,2013920,2013920,136352,136352,136352,4247520,4172640,4172640,464h264ref
31428,524288,4194304,8388608,524288,4194304,8388608,64,64,64,64,64,64,8,8,8,8,8,8,l,l,l,l,l,l,d,d,d,d,d,d,a,a,a,a,a,a,7301736,2462,2462,2698264,69731,68113,2462,2462,2462,36270,35297,35297,0.0003,1,1,0.0134,0.5062,0.5182,157568,157568,157568,2321280,2259008,2259008,0,0,0,2141504,2100224,2100224,157568,157568,157568,4462784,4359232,4359232,464h264ref
31512,524288,4194304,8388608,524288,4194304,8388608,128,128,128,128,128,128,8,8,8,8,8,8,l,l,l,l,l,l,d,d,d,d,d,d,a,a,a,a,a,a,7301736,1464,1464,2698264,38568,36777,1464,1464,1464,20078,19068,19068,0.0002,1,1,0.0074,0.4944,0.5185,187392,187392,187392,2569984,2440704,2440704,0,0,0,2366720,2266752,2266752,187392,187392,187392,4936704,4707456,4707456,464h264ref
31596,524288,4194304,8388608,524288,4194304,8388608,256,256,256,256,256,256,8,8,8,8,8,8,l,l,l,l,l,l,d,d,d,d,d,d,a,a,a,a,a,a,7301736,888,888,2698264,22532,21018,888,888,888,11749,10885,10885,0.0001,1,1,0.0044,0.4831,0.5179,227328,227328,227328,3007744,2786560,2786560,0,0,0,2760448,2594048,2594048,227328,227328,227328,5768192,5380608,5380608,464h264ref
31680,524288,4194304,8388608,524288,4194304,8388608,512,512,512,512,512,512,8,8,8,8,8,8,l,l,l,l,l,l,d,d,d,d,d,d,a,a,a,a,a,a,7301736,562,562,2698264,14061,13104,562,562,562,7319,6768,6766,0.0001,1,1,0.0027,0.4813,0.5163,287744,287744,287744,3747328,3464192,3464192,0,0,0,3451904,3245056,3245056,287744,287744,287744,7199232,6709248,6709248,464h264ref
31764,524288,4194304,8388608,524288,4194304,8388608,8,8,8,8,8,8,1,1,1,1,1,1,l,l,l,l,l,l,d,d,d,d,d,d,a,a,a,a,a,a,6837979,4446,4446,3162021,6215861,6215818,4446,4446,4446,3113088,3113053,3114003,0.0007,1,1,0.9845,0.5008,0.501,35568,35568,35568,24904704,24904408,24904408,0,0,0,24822184,24822136,24822136,35568,35568,35568,49726888,49726544,49726544,470lbm
31848,524288,4194304,8388608,524288,4194304,8388608,16,16,16,16,16,16,1,1,1,1,1,1,l,l,l,l,l,l,d,d,d,d,d,d,a,a,a,a,a,a,6837979,2398,2398,3162021,3109937,3109892,2398,2398,2398,1558354,1558316,1558826,0.0004,1,1,0.4928,0.5011,0.5012,38368,38368,38368,24933664,24933024,24933024,0,0,0,24825328,24825248,24825248,38368,38368,38368,49758992,49758272,49758272,470lbm
31932,524288,4194304,8388608,524288,4194304,8388608,32,32,32,32,32,32,1,1,1,1,1,1,l,l,l,l,l,l,d,d,d,d,d,d,a,a,a,a,a,a,6837979,1362,1362,3162021,1555440,1555384,1362,1362,1362,779510,779464,779732,0.0002,1,1,0.2465,0.5011,0.5013,43584,43584,43584,24944320,24942784,24942784,0,0,0,24829760,24829504,24829504,43584,43584,43584,49774080,49772288,49772288,470lbm
32016,524288,4194304,8388608,524288,4194304,8388608,64,64,64,64,64,64,1,1,1,1,1,1,l,l,l,l,l,l,d,d,d,d,d,d,a,a,a,a,a,a,6837979,807,807,3162021,778012,777953,807,807,807,389980,389934,390078,0.0001,1,1,0.1233,0.5012,0.5014,51648,51648,51648,24958720,24955648,24955648,0,0,0,24834048,24833344,24833344,51648,51648,51648,49792768,49788992,49788992,470lbm
32100,524288,4194304,8388608,524288,4194304,8388608,128,128,128,128,128,128,1,1,1,1,1,1,l,l,l,l,l,l,d,d,d,d,d,d,a,a,a,a,a,a,6837979,494,494,3162021,389170,389120,494,494,494,195124,195087,195163,0.0001,1,1,0.0617,0.5013,0.5015,63232,63232,63232,24975872,24970880,24970880,0,0,0,24837888,24836480,24836480,63232,63232,63232,49813760,49807360,49807360,470lbm
32184,524288,4194304,8388608,524288,4194304,8388608,256,256,256,256,256,256,1,1,1,1,1,1,l,l,l,l,l,l,d,d,d,d,d,d,a,a,a,a,a,a,6837979,311,311,3162021,194698,194647,311,311,311,97654,97618,97656,0,1,1,0.0309,0.5014,0.5017,79616,79616,79616,24999424,24989696,24989696,0,0,0,24843264,24839936,24839936,79616,79616,79616,49842688,49829632,49829632,470lbm
32268,524288,4194304,8388608,524288,4194304,8388608,512,512,512,512,512,512,1,1,1,1,1,1,l,l,l,l,l,l,d,d,d,d,d,d,a,a,a,a,a,a,6837979,208,208,3162021,97445,97396,208,208,208,48905,48872,48894,0,1,1,0.0155,0.5015,0.502,106496,106496,106496,25039360,25021440,25021440,0,0,0,24852480,24845312,24845312,106496,106496,106496,49891840,49866752,49866752,470lbm
32352,524288,4194304,8388608,524288,4194304,8388608,8,8,8,8,8,8,2,2,2,2,2,2,l,l,l,l,l,l,d,d,d,d,d,d,a,a,a,a,a,a,6837979,4446,4446,3162021,6215818,6215815,4446,4446,4446,3113050,3113048,5167239,0.0007,1,1,0.9845,0.5008,0.8313,35568,35568,35568,24904400,24904384,24904384,0,0,0,24822144,24822136,24822136,35568,35568,35568,49726544,49726520,49726520,470lbm
32436,524288,4194304,8388608,524288,4194304,8388608,16,16,16,16,16,16,2,2,2,2,2,2,l,l,l,l,l,l,d,d,d,d,d,d,a,a,a,a,a,a,6837979,2398,2398,3162021,3109894,3109886,2398,2398,2398,1558314,1558308,2585598,0.0004,1,1,0.4928,0.5011,0.8314,38368,38368,38368,24933024,24932928,24932928,0,0,0,24825280,24825248,24825248,38368,38368,38368,49758304,49758176,49758176,470lbm
32520,524288,4194304,8388608,524288,4194304,8388608,32,32,32,32,32,32,2,2,2,2,2,2,l,l,l,l,l,l,d,d,d,d,d,d,a,a,a,a,a,a,6837979,1362,1362,3162021,1555389,1555376,1362,1362,1362,779464,779454,1293232,0.0002,1,1,0.2465,0.5011,0.8315,43584,43584,43584,24942848,24942528,24942528,0,0,0,24829600,24829504,24829504,43584,43584,43584,49772448,49772032,49772032,470lbm
32604,524288,4194304,8388608,524288,4194304,8388608,64,64,64,64,64,64,2,2,2,2,2,2,l,l,l,l,l,l,d,d,d,d,d,d,a,a,a,a,a,a,6837979,807,807,3162021,777935,777919,807,807,807,389910,389898,646847,0.0001,1,1,0.1233,0.5012,0.8315,51648,51648,51648,24954240,24953472,24953472,0,0,0,24833600,24833344,24833344,51648,51648,51648,49787840,49786816,49786816,470lbm
32688,524288,4194304,8388608,524288,4194304,8388608,128,128,128,128,128,128,2,2,2,2,2,2,l,l,l,l,l,l,d,d,d,d,d,d,a,a,a,a,a,a,6837979,494,494,3162021,389104,389084,494,494,494,195065,195049,323548,0.0001,1,1,0.0617,0.5013,0.8316,63232,63232,63232,24968320,24966272,24966272,0,0,0,24836992,24836480,24836480,63232,63232,63232,49805312,49802752,49802752,470lbm
32772,524288,4194304,8388608,524288,4194304,8388608,256,256,256,256,256,256,2,2,2,2,2,2,l,l,l,l,l,l,d,d,d,d,d,d,a,a,a,a,a,a,6837979,311,311,3162021,194635,194617,311,311,311,97600,97586,161849,0,1,1,0.0309,0.5014,0.8316,79616,79616,79616,24985600,24982016,24982016,0,0,0,24840960,24839936,24839936,79616,79616,79616,49826560,49821952,49821952,470lbm
32856,524288,4194304,8388608,524288,4194304,8388608,512,512,512,512,512,512,2,2,2,2,2,2,l,l,l,l,l,l,d,d,d,d,d,d,a,a,a,a,a,a,6837979,208,208,3162021,97381,97363,208,208,208,48850,48837,80979,0,1,1,0.0154,0.5015,0.8317,106496,106496,106496,25011200,25004544,25004544,0,0,0,24847872,24845312,24845312,106496,106496,106496,49859072,49849856,49849856,470lbm
32940,524288,4194304,8388608,524288,4194304,8388608,8,8,8,8,8,8,4,4,4,4,4,4,l,l,l,l,l,l,d,d,d,d,d,d,a,a,a,a,a,a,6837979,4446,4446,3162021,6215815,6215815,4446,4446,4446,3113048,3113048,5167239,0.0007,1,1,0.9845,0.5008,0.8313,35568,35568,35568,24904384,24904384,24904384,0,0,0,24822136,24822136,24822136,35568,35568,35568,49726520,49726520,49726520,470lbm
33024,524288,4194304,8388608,524288,4194304,8388608,16,16,16,16,16,16,4,4,4,4,4,4,l,l,l,l,l,l,d,d,d,d,d,d,a,a,a,a,a,a,6837979,2398,2398,3162021,3109886,3109886,2398,2398,2398,1558308,1558308,2585598,0.0004,1,1,0.4928,0.5011,0.8314,38368,38368,38368,24932928,24932928,24932928,0,0,0,24825248,24825248,24825248,38368,38368,38368,49758176,49758176,49758176,470lbm
33108,524288,4194304,8388608,524288,4194304,8388608,32,32,32,32,32,32,4,4,4,4,4,4,l,l,l,l,l,l,d,d,d,d,d,d,a,a,a,a,a,a,6837979,1362,1362,3162021,1555376,1555376,1362,1362,1362,779454,779454,1293232,0.0002,1,1,0.2465,0.5011,0.8315,43584,43584,43584,24942528,24942528,24942528,0,0,0,24829504,24829504,24829504,43584,43584,43584,49772032,49772032,49772032,470lbm
33192,524288,4194304,8388608,524288,4194304,8388608,64,64,64,64,64,64,4,4,4,4,4,4,l,l,l,l,l,l,d,d,d,d,d,d,a,a,a,a,a,a,6837979,807,807,3162021,777919,777919,807,807,807,389898,389898,646847,0.0001,1,1,0.1233,0.5012,0.8315,51648,51648,51648,24953472,24953472,24953472,0,0,0,24833344,24833344,24833344,51648,51648,51648,49786816,49786816,49786816,470lbm
33276,524288,4194304,8388608,524288,4194304,8388608,128,128,128,128,128,128,4,4,4,4,4,4,l,l,l,l,l,l,d,d,d,d,d,d,a,a,a,a,a,a,6837979,494,494,3162021,389084,389084,494,494,494,195049,195049,323548,0.0001,1,1,0.0617,0.5013,0.8316,63232,63232,63232,24966272,24966272,24966272,0,0,0,24836480,24836480,24836480,63232,63232,63232,49802752,49802752,49802752,470lbm
33360,524288,4194304,8388608,524288,4194304,8388608,256,256,256,256,256,256,4,4,4,4,4,4,l,l,l,l,l,l,d,d,d,d,d,d,a,a,a,a,a,a,6837979,311,311,3162021,194617,194617,311,311,311,97586,97586,161849,0,1,1,0.0309,0.5014,0.8316,79616,79616,79616,24982016,24982016,24982016,0,0,0,24839936,24839936,24839936,79616,79616,79616,49821952,49821952,49821952,470lbm
33444,524288,4194304,8388608,524288,4194304,8388608,512,512,512,512,512,512,4,4,4,4,4,4,l,l,l,l,l,l,d,d,d,d,d,d,a,a,a,a,a,a,6837979,208,208,3162021,97363,97363,208,208,208,48837,48837,80979,0,1,1,0.0154,0.5016,0.8317,106496,106496,106496,25004544,25004544,25004544,0,0,0,24845312,24845312,24845312,106496,106496,106496,49849856,49849856,49849856,470lbm
33528,524288,4194304,8388608,524288,4194304,8388608,8,8,8,8,8,8,8,8,8,8,8,8,l,l,l,l,l,l,d,d,d,d,d,d,a,a,a,a,a,a,6837979,4446,4446,3162021,6215815,6215815,4446,4446,4446,3113048,3113048,5167220,0.0007,1,1,0.9845,0.5008,0.8313,35568,35568,35568,24904384,24904384,24904384,0,0,0,24822136,24822136,24822136,35568,35568,35568,49726520,49726520,49726520,470lbm
33612,524288,4194304,8388608,524288,4194304,8388608,16,16,16,16,16,16,8,8,8,8,8,8,l,l,l,l,l,l,d,d,d,d,d,d,a,a,a,a,a,a,6837979,2398,2398,3162021,3109886,3109886,2398,2398,2398,1558308,1558308,2585587,0.0004,1,1,0.4928,0.5011,0.8314,38368,38368,38368,24932928,24932928,24932928,0,0,0,24825248,24825248,24825248,38368,38368,38368,49758176,49758176,49758176,470lbm
33696,524288,4194304,8388608,524288,4194304,8388608,32,32,32,32,32,32,8,8,8,8,8,8,l,l,l,l,l,l,d,d,d,d,d,d,a,a,a,a,a,a,6837979,1362,1362,3162021,1555376,1555376,1362,1362,1362,779454,779454,1293226,0.0002,1,1,0.2465,0.5011,0.8315,43584,43584,43584,24942528,24942528,24942528,0,0,0,24829504,24829504,24829504,43584,43584,43584,49772032,49772032,49772032,470lbm
33780,524288,4194304,8388608,524288,4194304,8388608,64,64,64,64,64,64,8,8,8,8,8,8,l,l,l,l,l,l,d,d,d,d,d,d,a,a,a,a,a,a,6837979,807,807,3162021,777919,777919,807,807,807,389898,389898,646844,0.0001,1,1,0.1233,0.5012,0.8315,51648,51648,51648,24953472,24953472,24953472,0,0,0,24833344,24833344,24833344,51648,51648,51648,49786816,49786816,49786816,470lbm
33864,524288,4194304,8388608,524288,4194304,8388608,128,128,128,128,128,128,8,8,8,8,8,8,l,l,l,l,l,l,d,d,d,d,d,d,a,a,a,a,a,a,6837979,494,494,3162021,389084,389084,494,494,494,195049,195049,323546,0.0001,1,1,0.0617,0.5013,0.8316,63232,63232,63232,24966272,24966272,24966272,0,0,0,24836480,24836480,24836480,63232,63232,63232,49802752,49802752,49802752,470lbm
33948,524288,4194304,8388608,524288,4194304,8388608,256,256,256,256,256,256,8,8,8,8,8,8,l,l,l,l,l,l,d,d,d,d,d,d,a,a,a,a,a,a,6837979,311,311,3162021,194617,194617,311,311,311,97586,97586,161848,0,1,1,0.0309,0.5014,0.8316,79616,79616,79616,24982016,24982016,24982016,0,0,0,24839936,24839936,24839936,79616,79616,79616,49821952,49821952,49821952,470lbm
34032,524288,4194304,8388608,524288,4194304,8388608,512,512,512,512,512,512,8,8,8,8,8,8,l,l,l,l,l,l,d,d,d,d,d,d,a,a,a,a,a,a,6837979,208,208,3162021,97363,97363,208,208,208,48837,48837,80978,0,1,1,0.0154,0.5016,0.8317,106496,106496,106496,25004544,25004544,25004544,0,0,0,24845312,24845312,24845312,106496,106496,106496,49849856,49849856,49849856,470lbm
34116,524288,4194304,8388608,524288,4194304,8388608,8,8,8,8,8,8,1,1,1,1,1,1,l,l,l,l,l,l,d,d,d,d,d,d,a,a,a,a,a,a,7129127,7461,7461,2870873,3465425,3465142,7461,7461,7461,1773835,1777127,1781517,0.001,1,1,0.6179,0.5128,0.5141,59688,59688,59688,14190680,14188496,14186352,0,0,0,13532720,13532640,13530976,59688,59688,59688,27723400,27721136,27717328,473astar
34200,524288,4194304,8388608,524288,4194304,8388608,16,16,16,16,16,16,1,1,1,1,1,1,l,l,l,l,l,l,d,d,d,d,d,d,a,a,a,a,a,a,7129127,4012,4012,2870873,3313850,3313540,4012,4012,4012,1679029,1681098,1686063,0.0006,1,1,0.5848,0.5073,0.5088,64192,64192,64192,26864464,26859664,26855120,0,0,0,26157136,26156976,26153648,64192,64192,64192,53021600,53016640,53008768,473astar
34284,524288,4194304,8388608,524288,4194304,8388608,32,32,32,32,32,32,1,1,1,1,1,1,l,l,l,l,l,l,d,d,d,d,d,d,a,a,a,a,a,a,7129127,2290,2290,2870873,1662650,1662325,2290,2290,2290,842877,843800,844482,0.0003,1,1,0.2936,0.5075,0.508,73280,73280,73280,26972064,26961984,26890336,0,0,0,26232736,26232416,26163616,73280,73280,73280,53204800,53194400,53053952,473astar
34368,524288,4194304,8388608,524288,4194304,8388608,64,64,64,64,64,64,1,1,1,1,1,1,l,l,l,l,l,l,d,d,d,d,d,d,a,a,a,a,a,a,7129127,1359,1359,2870873,836506,836153,1359,1359,1359,424430,424773,424047,0.0002,1,1,0.1478,0.5078,0.5071,86976,86976,86976,27163520,27141760,26998208,0,0,0,26372864,26372032,26234432,86976,86976,86976,53536384,53513792,53232640,473astar
34452,524288,4194304,8388608,524288,4194304,8388608,128,128,128,128,128,128,1,1,1,1,1,1,l,l,l,l,l,l,d,d,d,d,d,d,a,a,a,a,a,a,7129127,862,862,2870873,423250,422857,862,862,862,215019,215093,213609,0.0001,1,1,0.0749,0.5082,0.5052,110336,110336,110336,27522432,27474304,27184768,0,0,0,26653568,26651392,26376064,110336,110336,110336,54176000,54125696,53560832,473astar
34536,524288,4194304,8388608,524288,4194304,8388608,256,256,256,256,256,256,1,1,1,1,1,1,l,l,l,l,l,l,d,d,d,d,d,d,a,a,a,a,a,a,7129127,563,563,2870873,216872,216262,563,563,563,110471,110315,108405,0.0001,1,1,0.0385,0.5087,0.5013,144128,144128,144128,28280576,28131584,27538176,0,0,0,27238656,27231488,26680832,144128,144128,144128,55519232,55363072,54219008,473astar
34620,524288,4194304,8388608,524288,4194304,8388608,512,512,512,512,512,512,1,1,1,1,1,1,l,l,l,l,l,l,d,d,d,d,d,d,a,a,a,a,a,a,7129127,375,371,2870873,114259,113365,375,371,371,58591,58334,56107,0.0001,0.9893,1,0.0204,0.5105,0.4949,192000,189952,189952,29998592,29558784,28307968,0,0,0,28502016,28484096,27383296,192000,189952,189952,58500608,58042880,55691264,473astar
34704,524288,4194304,8388608,524288,4194304,8388608,8,8,8,8,8,8,2,2,2,2,2,2,l,l,l,l,l,l,d,d,d,d,d,d,a,a,a,a,a,a,7129127,7460,7460,2870873,3465152,3465061,7460,7460,7460,1773573,1773486,2881359,0.001,1,1,0.6178,0.5118,0.8315,59680,59680,59680,14188584,14187880,14186200,0,0,0,13532632,13532608,13530968,59680,59680,59680,27721216,27720488,27717168,473astar
34788,524288,4194304,8388608,524288,4194304,8388608,16,16,16,16,16,16,2,2,2,2,2,2,l,l,l,l,l,l,d,d,d,d,d,d,a,a,a,a,a,a,7129127,4010,4010,2870873,3313550,3313422,4010,4010,4010,1678748,1678623,2788793,0.0006,1,1,0.5848,0.5066,0.8417,64160,64160,64160,26859968,26857968,26854608,0,0,0,26156832,26156784,26153504,64160,64160,64160,53016800,53014752,53008112,473astar
34872,524288,4194304,8388608,524288,4194304,8388608,32,32,32,32,32,32,2,2,2,2,2,2,l,l,l,l,l,l,d,d,d,d,d,d,a,a,a,a,a,a,7129127,2288,2288,2870873,1662298,1662166,2288,2288,2288,842561,842431,1395755,0.0003,1,1,0.2935,0.5068,0.8397,73216,73216,73216,26961952,26957792,26888960,0,0,0,26231584,26231520,26166208,73216,73216,73216,53193536,53189312,53055168,473astar
34956,524288,4194304,8388608,524288,4194304,8388608,64,64,64,64,64,64,2,2,2,2,2,2,l,l,l,l,l,l,d,d,d,d,d,d,a,a,a,a,a,a,7129127,1357,1357,2870873,836043,835895,1357,1357,1357,424036,423892,700531,0.0002,1,1,0.1477,0.507,0.8381,86848,86848,86848,27138304,27129088,26991488,0,0,0,26368448,26368192,26237568,86848,86848,86848,53506752,53497280,53229056,473astar
35040,524288,4194304,8388608,524288,4194304,8388608,128,128,128,128,128,128,2,2,2,2,2,2,l,l,l,l,l,l,d,d,d,d,d,d,a,a,a,a,a,a,7129127,860,860,2870873,422586,422453,860,860,860,214491,214364,352611,0.0001,1,1,0.0747,0.5073,0.8347,110080,110080,110080,27454848,27438592,27163008,0,0,0,26636160,26635392,26374144,110080,110080,110080,54091008,54073984,53537152,473astar
35124,524288,4194304,8388608,524288,4194304,8388608,256,256,256,256,256,256,2,2,2,2,2,2,l,l,l,l,l,l,d,d,d,d,d,d,a,a,a,a,a,a,7129127,561,561,2870873,215667,215547,561,561,561,109540,109427,178464,0.0001,1,1,0.0382,0.5074,0.828,143616,143616,143616,28042240,28013312,27461632,0,0,0,27168512,27166720,26644224,143616,143616,143616,55210752,55180032,54105856,473astar
35208,524288,4194304,8388608,524288,4194304,8388608,512,512,512,512,512,512,2,2,2,2,2,2,l,l,l,l,l,l,d,d,d,d,d,d,a,a,a,a,a,a,7129127,369,369,2870873,112120,112003,369,369,369,56990,56879,91298,0.0001,1,1,0.0199,0.5073,0.8151,188928,188928,188928,29178880,29122048,28019200,0,0,0,28226560,28223488,27179520,188928,188928,188928,57405440,57345536,55198720,473astar
35292,524288,4194304,8388608,524288,4194304,8388608,8,8,8,8,8,8,4,4,4,4,4,4,l,l,l,l,l,l,d,d,d,d,d,d,a,a,a,a,a,a,7129127,7460,7460,2870873,3465076,3465053,7460,7460,7460,1773498,1773477,2906882,0.001,1,1,0.6178,0.5118,0.8389,59680,59680,59680,14187984,14187816,14186144,0,0,0,13532624,13532608,13530936,59680,59680,59680,27720608,27720424,27717080,473astar
35376,524288,4194304,8388608,524288,4194304,8388608,16,16,16,16,16,16,4,4,4,4,4,4,l,l,l,l,l,l,d,d,d,d,d,d,a,a,a,a,a,a,7129127,4010,4010,2870873,3313461,3313408,4010,4010,4010,1678660,1678609,2814187,0.0006,1,1,0.5847,0.5066,0.8493,64160,64160,64160,26858560,26857744,26854400,0,0,0,26156816,26156784,26153440,64160,64160,64160,53015376,53014528,53007840,473astar
35460,524288,4194304,8388608,524288,4194304,8388608,32,32,32,32,32,32,4,4,4,4,4,4,l,l,l,l,l,l,d,d,d,d,d,d,a,a,a,a,a,a,7129127,2288,2288,2870873,1662214,1662143,2288,2288,2288,842478,842408,1408424,0.0003,1,1,0.2935,0.5068,0.8474,73216,73216,73216,26959296,26957056,26888288,0,0,0,26231552,26231520,26169632,73216,73216,73216,53190848,53188576,53057920,473astar
35544,524288,4194304,8388608,524288,4194304,8388608,64,64,64,64,64,64,4,4,4,4,4,4,l,l,l,l,l,l,d,d,d,d,d,d,a,a,a,a,a,a,7129127,1357,1357,2870873,835950,835865,1357,1357,1357,423945,423862,706839,0.0002,1,1,0.1477,0.507,0.8456,86848,86848,86848,27132480,27127168,26989632,0,0,0,26368320,26368192,26244416,86848,86848,86848,53500800,53495360,53234048,473astar
35628,524288,4194304,8388608,524288,4194304,8388608,128,128,128,128,128,128,4,4,4,4,4,4,l,l,l,l,l,l,d,d,d,d,d,d,a,a,a,a,a,a,7129127,860,860,2870873,422494,422418,860,860,860,214403,214329,355738,0.0001,1,1,0.0747,0.5073,0.8421,110080,110080,110080,27443584,27434112,27159040,0,0,0,26635648,26635392,26387840,110080,110080,110080,54079232,54069504,53546880,473astar
35712,524288,4194304,8388608,524288,4194304,8388608,256,256,256,256,256,256,4,4,4,4,4,4,l,l,l,l,l,l,d,d,d,d,d,d,a,a,a,a,a,a,7129127,561,561,2870873,215574,215514,561,561,561,109451,109394,180008,0.0001,1,1,0.0381,0.5075,0.8352,143616,143616,143616,28019456,28004864,27454720,0,0,0,27167488,27166720,26671616,143616,143616,143616,55186944,55171584,54126336,473astar
35796,524288,4194304,8388608,524288,4194304,8388608,512,512,512,512,512,512,4,4,4,4,4,4,l,l,l,l,l,l,d,d,d,d,d,d,a,a,a,a,a,a,7129127,369,369,2870873,112015,111968,369,369,369,56888,56844,92043,0.0001,1,1,0.0198,0.5075,0.822,188928,188928,188928,29126656,29104128,28004352,0,0,0,28225024,28223488,27234816,188928,188928,188928,57351680,57327616,55239168,473astar
35880,524288,4194304,8388608,524288,4194304,8388608,8,8,8,8,8,8,8,8,8,8,8,8,l,l,l,l,l,l,d,d,d,d,d,d,a,a,a,a,a,a,7129127,7460,7460,2870873,3465053,3465053,7460,7460,7460,1773477,1773477,2905312,0.001,1,1,0.6177,0.5118,0.8385,59680,59680,59680,14187816,14187816,14186144,0,0,0,13532608,13532608,13530936,59680,59680,59680,27720424,27720424,27717080,473astar
35964,524288,4194304,8388608,524288,4194304,8388608,16,16,16,16,16,16,8,8,8,8,8,8,l,l,l,l,l,l,d,d,d,d,d,d,a,a,a,a,a,a,7129127,4010,4010,2870873,3313408,3313408,4010,4010,4010,1678609,1678609,2812612,0.0006,1,1,0.5847,0.5066,0.8489,64160,64160,64160,26857744,26857744,26854400,0,0,0,26156784,26156784,26153440,64160,64160,64160,53014528,53014528,53007840,473astar
36048,524288,4194304,8388608,524288,4194304,8388608,32,32,32,32,32,32,8,8,8,8,8,8,l,l,l,l,l,l,d,d,d,d,d,d,a,a,a,a,a,a,7129127,2288,2288,2870873,1662144,1662143,2288,2288,2288,842409,842408,1407615,0.0003,1,1,0.2934,0.5068,0.8469,73216,73216,73216,26957088,26957056,26888288,0,0,0,26231520,26231520,26169504,73216,73216,73216,53188608,53188576,53057792,473astar
36132,524288,4194304,8388608,524288,4194304,8388608,64,64,64,64,64,64,8,8,8,8,8,8,l,l,l,l,l,l,d,d,d,d,d,d,a,a,a,a,a,a,7129127,1357,1357,2870873,835869,835865,1357,1357,1357,423866,423862,706409,0.0002,1,1,0.1476,0.5071,0.8451,86848,86848,86848,27127424,27127168,26989632,0,0,0,26368192,26368192,26244160,86848,86848,86848,53495616,53495360,53233792,473astar
36216,524288,4194304,8388608,524288,4194304,8388608,128,128,128,128,128,128,8,8,8,8,8,8,l,l,l,l,l,l,d,d,d,d,d,d,a,a,a,a,a,a,7129127,860,860,2870873,422429,422418,860,860,860,214339,214329,355499,0.0001,1,1,0.0747,0.5074,0.8416,110080,110080,110080,27435392,27434112,27159040,0,0,0,26635520,26635392,26387328,110080,110080,110080,54070912,54069504,53546368,473astar
36300,524288,4194304,8388608,524288,4194304,8388608,256,256,256,256,256,256,8,8,8,8,8,8,l,l,l,l,l,l,d,d,d,d,d,d,a,a,a,a,a,a,7129127,561,561,2870873,215532,215514,561,561,561,109410,109394,179862,0.0001,1,1,0.0381,0.5076,0.8346,143616,143616,143616,28008960,28004864,27454720,0,0,0,27167232,27166720,26670592,143616,143616,143616,55176192,55171584,54125312,473astar
36384,524288,4194304,8388608,524288,4194304,8388608,512,512,512,512,512,512,8,8,8,8,8,8,l,l,l,l,l,l,d,d,d,d,d,d,a,a,a,a,a,a,7129127,369,369,2870873,111990,111968,369,369,369,56865,56844,91942,0.0001,1,1,0.0198,0.5076,0.8211,188928,188928,188928,29114880,29104128,28004352,0,0,0,28224000,28223488,27232768,188928,188928,188928,57338880,57327616,55237120,473astar
36468,524288,4194304,8388608,524288,4194304,8388608,8,8,8,8,8,8,1,1,1,1,1,1,l,l,l,l,l,l,d,d,d,d,d,d,a,a,a,a,a,a,8021445,12495,12157,1978555,1215311,1214505,12495,12157,12137,614620,617538,639161,0.0016,0.9729,0.9984,0.3106,0.5081,0.5263,99960,97256,97096,4916960,4911920,4911320,0,0,0,4805528,4804120,4803568,99960,97256,97096,9722488,9716040,9714888,481wrf
36552,524288,4194304,8388608,524288,4194304,8388608,16,16,16,16,16,16,1,1,1,1,1,1,l,l,l,l,l,l,d,d,d,d,d,d,a,a,a,a,a,a,8021445,6708,6487,1978555,612848,612095,6708,6487,6475,310880,313142,325389,0.0008,0.9671,0.9982,0.1571,0.511,0.5316,107328,103792,103600,4974080,4964304,4962848,0,0,0,4831488,4829216,4828080,107328,103792,103600,9805568,9793520,9790928,481wrf
36636,524288,4194304,8388608,524288,4194304,8388608,32,32,32,32,32,32,1,1,1,1,1,1,l,l,l,l,l,l,d,d,d,d,d,d,a,a,a,a,a,a,8021445,3750,3541,1978555,307429,306797,3750,3541,3534,156166,157294,163299,0.0005,0.9443,0.998,0.0789,0.5116,0.5323,120000,113312,113088,4997312,4980896,4978176,0,0,0,4840416,4836608,4834624,120000,113312,113088,9837728,9817504,9812800,481wrf
36720,524288,4194304,8388608,524288,4194304,8388608,64,64,64,64,64,64,1,1,1,1,1,1,l,l,l,l,l,l,d,d,d,d,d,d,a,a,a,a,a,a,8021445,2090,1977,1978555,154559,153943,2090,1977,1971,78743,79153,81960,0.0003,0.9459,0.997,0.0398,0.5121,0.5324,133760,126528,126144,5039552,5006976,4996544,0,0,0,4852224,4845376,4839744,133760,126528,126144,9891776,9852352,9836288,481wrf
36804,524288,4194304,8388608,524288,4194304,8388608,128,128,128,128,128,128,1,1,1,1,1,1,l,l,l,l,l,l,d,d,d,d,d,d,a,a,a,a,a,a,8021445,1358,1148,1978555,78304,77691,1358,1148,1143,40210,40275,41173,0.0002,0.8454,0.9956,0.0203,0.5143,0.53,173824,146944,146304,5146880,5080576,5020672,0,0,0,4876032,4863872,4844672,173824,146944,146304,10022912,9944448,9865344,481wrf
36888,524288,4194304,8388608,524288,4194304,8388608,256,256,256,256,256,256,1,1,1,1,1,1,l,l,l,l,l,l,d,d,d,d,d,d,a,a,a,a,a,a,8021445,963,678,1978555,40524,39895,963,678,674,21300,21177,20712,0.0001,0.704,0.9941,0.0108,0.5226,0.5192,246528,173568,172544,5452800,5315328,5052928,0,0,0,4921344,4897792,4849920,246528,173568,172544,10374144,10213120,9902848,481wrf
36972,524288,4194304,8388608,524288,4194304,8388608,512,512,512,512,512,512,1,1,1,1,1,1,l,l,l,l,l,l,d,d,d,d,d,d,a,a,a,a,a,a,8021445,938,419,1978555,21281,20678,938,419,415,11524,11311,10450,0.0001,0.4467,0.9905,0.0058,0.5315,0.5054,480256,214528,212480,5900288,5634048,5103104,0,0,0,4995584,4953088,4858880,480256,214528,212480,10895872,10587136,9961984,481wrf
37056,524288,4194304,8388608,524288,4194304,8388608,8,8,8,8,8,8,2,2,2,2,2,2,l,l,l,l,l,l,d,d,d,d,d,d,a,a,a,a,a,a,8021445,12137,12137,1978555,1214922,1214363,12137,12137,12137,614275,616041,615803,0.0015,1,1,0.3105,0.5071,0.5071,97096,97096,97096,4914200,4911328,4911216,0,0,0,4805176,4803576,4803480,97096,97096,97096,9719376,9714904,9714696,481wrf
37140,524288,4194304,8388608,524288,4194304,8388608,16,16,16,16,16,16,2,2,2,2,2,2,l,l,l,l,l,l,d,d,d,d,d,d,a,a,a,a,a,a,8021445,6475,6475,1978555,612377,611928,6475,6475,6475,310478,311994,311698,0.0008,1,1,0.1569,0.5095,0.5094,103600,103600,103600,4967648,4962832,4962624,0,0,0,4830384,4828016,4827824,103600,103600,103600,9798032,9790848,9790448,481wrf
37224,524288,4194304,8388608,524288,4194304,8388608,32,32,32,32,32,32,2,2,2,2,2,2,l,l,l,l,l,l,d,d,d,d,d,d,a,a,a,a,a,a,8021445,3534,3534,1978555,306986,306642,3534,3534,3534,155805,156553,156437,0.0004,1,1,0.0787,0.51,0.5102,113088,113088,113088,4985760,4977984,4977760,0,0,0,4837792,4834560,4834368,113088,113088,113088,9823552,9812544,9812128,481wrf
37308,524288,4194304,8388608,524288,4194304,8388608,64,64,64,64,64,64,2,2,2,2,2,2,l,l,l,l,l,l,d,d,d,d,d,d,a,a,a,a,a,a,8021445,1971,1971,1978555,153953,153661,1971,1971,1971,78255,78526,78525,0.0002,1,1,0.0396,0.5101,0.511,126144,126144,126144,5008320,4994624,4994368,0,0,0,4844672,4839680,4839488,126144,126144,126144,9852992,9834304,9833856,481wrf
37392,524288,4194304,8388608,524288,4194304,8388608,128,128,128,128,128,128,2,2,2,2,2,2,l,l,l,l,l,l,d,d,d,d,d,d,a,a,a,a,a,a,8021445,1147,1143,1978555,77276,77043,1147,1143,1143,39373,39431,39458,0.0001,0.9965,1,0.0199,0.5103,0.5122,146816,146304,146304,5039744,5017088,5016704,0,0,0,4851584,4844416,4844160,146816,146304,146304,9891328,9861504,9860864,481wrf
37476,524288,4194304,8388608,524288,4194304,8388608,256,256,256,256,256,256,2,2,2,2,2,2,l,l,l,l,l,l,d,d,d,d,d,d,a,a,a,a,a,a,8021445,677,674,1978555,38873,38653,677,674,674,19879,19810,19848,0.0001,0.9956,1,0.01,0.5096,0.5135,173312,172544,172544,5089024,5045504,5044992,0,0,0,4862464,4849664,4849152,173312,172544,172544,9951488,9895168,9894144,481wrf
37560,524288,4194304,8388608,524288,4194304,8388608,512,512,512,512,512,512,2,2,2,2,2,2,l,l,l,l,l,l,d,d,d,d,d,d,a,a,a,a,a,a,8021445,418,415,1978555,19831,19419,418,415,415,10249,9977,10007,0.0001,0.9928,1,0.0052,0.5031,0.5153,214016,212480,212480,5247488,5084160,5083648,0,0,0,4905984,4858368,4856832,214016,212480,212480,10153472,9942528,9940480,481wrf
37644,524288,4194304,8388608,524288,4194304,8388608,8,8,8,8,8,8,4,4,4,4,4,4,l,l,l,l,l,l,d,d,d,d,d,d,a,a,a,a,a,a,8021445,12137,12137,1978555,1214780,1214344,12137,12137,12137,614193,613908,616105,0.0015,1,1,0.3104,0.5054,0.5074,97096,97096,97096,4913544,4911264,4911216,0,0,0,4804696,4803488,4803440,97096,97096,97096,9718240,9714752,9714656,481wrf
37728,524288,4194304,8388608,524288,4194304,8388608,16,16,16,16,16,16,4,4,4,4,4,4,l,l,l,l,l,l,d,d,d,d,d,d,a,a,a,a,a,a,8021445,6475,6475,1978555,612229,611911,6475,6475,6475,310380,310170,312243,0.0008,1,1,0.1569,0.5066,0.5103,103600,103600,103600,4966080,4962720,4962624,0,0,0,4829584,4827856,4827760,103600,103600,103600,9795664,9790576,9790384,481wrf
37812,524288,4194304,8388608,524288,4194304,8388608,32,32,32,32,32,32,4,4,4,4,4,4,l,l,l,l,l,l,d,d,d,d,d,d,a,a,a,a,a,a,8021445,3534,3534,1978555,306855,306631,3534,3534,3534,155715,155558,156756,0.0004,1,1,0.0787,0.5069,0.5112,113088,113088,113088,4982880,4977856,4977760,0,0,0,4836480,4834336,4834240,113088,113088,113088,9819360,9812192,9812000,481wrf
37896,524288,4194304,8388608,524288,4194304,8388608,64,64,64,64,64,64,4,4,4,4,4,4,l,l,l,l,l,l,d,d,d,d,d,d,a,a,a,a,a,a,8021445,1971,1971,1978555,153825,153654,1971,1971,1971,78164,78038,78687,0.0002,1,1,0.0395,0.5073,0.5121,126144,126144,126144,5002496,4994432,4994304,0,0,0,4842304,4839424,4839296,126144,126144,126144,9844800,9833856,9833600,481wrf
37980,524288,4194304,8388608,524288,4194304,8388608,128,128,128,128,128,128,4,4,4,4,4,4,l,l,l,l,l,l,d,d,d,d,d,d,a,a,a,a,a,a,8021445,1143,1143,1978555,77157,77033,1143,1143,1143,39286,39189,39538,0.0001,1,1,0.0199,0.5079,0.5133,146304,146304,146304,5028608,5016192,5016064,0,0,0,4847488,4844032,4843904,146304,146304,146304,9876096,9860224,9859968,481wrf
38064,524288,4194304,8388608,524288,4194304,8388608,256,256,256,256,256,256,4,4,4,4,4,4,l,l,l,l,l,l,d,d,d,d,d,d,a,a,a,a,a,a,8021445,674,674,1978555,38744,38642,674,674,674,19782,19701,19885,0.0001,1,1,0.01,0.5085,0.5146,172544,172544,172544,5064192,5043456,5043200,0,0,0,4854272,4848896,4848640,172544,172544,172544,9918464,9892352,9891840,481wrf
38148,524288,4194304,8388608,524288,4194304,8388608,512,512,512,512,512,512,4,4,4,4,4,4,l,l,l,l,l,l,d,d,d,d,d,d,a,a,a,a,a,a,8021445,415,415,1978555,19497,19408,415,415,415,9994,9922,10021,0.0001,1,1,0.0051,0.5089,0.5163,212480,212480,212480,5116928,5080064,5080064,0,0,0,4865536,4856832,4856832,212480,212480,212480,9982464,9936896,9936896,481wrf
38232,524288,4194304,8388608,524288,4194304,8388608,8,8,8,8,8,8,8,8,8,8,8,8,l,l,l,l,l,l,d,d,d,d,d,d,a,a,a,a,a,a,8021445,12137,12137,1978555,1214772,1214344,12137,12137,12137,614186,613908,613902,0.0015,1,1,0.3104,0.5054,0.5055,97096,97096,97096,4913488,4911264,4911216,0,0,0,4804688,4803488,4803440,97096,97096,97096,9718176,9714752,9714656,481wrf
38316,524288,4194304,8388608,524288,4194304,8388608,16,16,16,16,16,16,8,8,8,8,8,8,l,l,l,l,l,l,d,d,d,d,d,d,a,a,a,a,a,a,8021445,6475,6475,1978555,612219,611911,6475,6475,6475,310372,310170,310164,0.0008,1,1,0.1569,0.5066,0.5069,103600,103600,103600,4965952,4962720,4962624,0,0,0,4829552,4827856,4827760,103600,103600,103600,9795504,9790576,9790384,481wrf
38400,524288,4194304,8388608,524288,4194304,8388608,32,32,32,32,32,32,8,8,8,8,8,8,l,l,l,l,l,l,d,d,d,d,d,d,a,a,a,a,a,a,8021445,3534,3534,1978555,306845,306631,3534,3534,3534,155707,155558,155555,0.0004,1,1,0.0787,0.507,0.5073,113088,113088,113088,4982624,4977856,4977760,0,0,0,4836416,4834336,4834240,113088,113088,113088,9819040,9812192,9812000,481wrf
38484,524288,4194304,8388608,524288,4194304,8388608,64,64,64,64,64,64,8,8,8,8,8,8,l,l,l,l,l,l,d,d,d,d,d,d,a,a,a,a,a,a,8021445,1971,1971,1978555,153819,153654,1971,1971,1971,78159,78038,78036,0.0002,1,1,0.0395,0.5073,0.5079,126144,126144,126144,5002176,4994432,4994304,0,0,0,4842240,4839424,4839296,126144,126144,126144,9844416,9833856,9833600,481wrf
38568,524288,4194304,8388608,524288,4194304,8388608,128,128,128,128,128,128,8,8,8,8,8,8,l,l,l,l,l,l,d,d,d,d,d,d,a,a,a,a,a,a,8021445,1143,1143,1978555,77149,77033,1143,1143,1143,39279,39189,39188,0.0001,1,1,0.0199,0.508,0.5087,146304,146304,146304,5027712,5016192,5016064,0,0,0,4847360,4844032,4843904,146304,146304,146304,9875072,9860224,9859968,481wrf
38652,524288,4194304,8388608,524288,4194304,8388608,256,256,256,256,256,256,8,8,8,8,8,8,l,l,l,l,l,l,d,d,d,d,d,d,a,a,a,a,a,a,8021445,674,674,1978555,38738,38642,674,674,674,19776,19701,19700,0.0001,1,1,0.01,0.5086,0.5098,172544,172544,172544,5062656,5043456,5043200,0,0,0,4854272,4848896,4848640,172544,172544,172544,9916928,9892352,9891840,481wrf
38736,524288,4194304,8388608,524288,4194304,8388608,512,512,512,512,512,512,8,8,8,8,8,8,l,l,l,l,l,l,d,d,d,d,d,d,a,a,a,a,a,a,8021445,415,415,1978555,19492,19408,415,415,415,9989,9922,9922,0.0001,1,1,0.005,0.509,0.5112,212480,212480,212480,5114368,5080064,5080064,0,0,0,4865536,4856832,4856832,212480,212480,212480,9979904,9936896,9936896,481wrf
38820,524288,4194304,8388608,524288,4194304,8388608,8,8,8,8,8,8,1,1,1,1,1,1,l,l,l,l,l,l,d,d,d,d,d,d,a,a,a,a,a,a,7302028,8366,8328,2697972,32125,31148,8366,8328,8328,22823,21907,21907,0.0011,0.9955,1,0.0085,0.6819,0.7033,66928,66624,66624,182584,175256,175256,0,0,0,74416,73928,73928,66928,66624,66624,257000,249184,249184,482sphinx3
38904,524288,4194304,8388608,524288,4194304,8388608,16,16,16,16,16,16,1,1,1,1,1,1,l,l,l,l,l,l,d,d,d,d,d,d,a,a,a,a,a,a,7302028,4513,4493,2697972,21944,20901,4513,4493,4493,15442,14475,14475,0.0006,0.9956,1,0.0057,0.6596,0.6926,72208,71888,71888,247072,231600,231600,0,0,0,104032,102816,102816,72208,71888,71888,351104,334416,334416,482sphinx3
38988,524288,4194304,8388608,524288,4194304,8388608,32,32,32,32,32,32,1,1,1,1,1,1,l,l,l,l,l,l,d,d,d,d,d,d,a,a,a,a,a,a,7302028,2571,2558,2697972,11678,10966,2571,2558,2558,8230,7610,7610,0.0004,0.9949,1,0.0031,0.6517,0.694,82272,81856,81856,263360,243520,243520,0,0,0,110336,107392,107392,82272,81856,81856,373696,350912,350912,482sphinx3
39072,524288,4194304,8388608,524288,4194304,8388608,64,64,64,64,64,64,1,1,1,1,1,1,l,l,l,l,l,l,d,d,d,d,d,d,a,a,a,a,a,a,7302028,1510,1498,2697972,6353,5779,1510,1498,1498,4496,4033,4033,0.0002,0.9921,1,0.0017,0.6348,0.6979,96640,95872,95872,287744,258112,258112,0,0,0,118848,111744,111744,96640,95872,95872,406592,369856,369856,482sphinx3
39156,524288,4194304,8388608,524288,4194304,8388608,128,128,128,128,128,128,1,1,1,1,1,1,l,l,l,l,l,l,d,d,d,d,d,d,a,a,a,a,a,a,7302028,922,910,2697972,3700,3065,922,910,910,2630,2162,2162,0.0001,0.987,1,0.001,0.5843,0.7054,118016,116480,116480,336640,276736,276736,0,0,0,136960,115584,115584,118016,116480,116480,473600,392320,392320,482sphinx3
39240,524288,4194304,8388608,524288,4194304,8388608,256,256,256,256,256,256,1,1,1,1,1,1,l,l,l,l,l,l,d,d,d,d,d,d,a,a,a,a,a,a,7302028,586,570,2697972,2425,1658,586,570,570,1726,1191,1191,0.0001,0.9727,1,0.0006,0.4911,0.7183,150016,145920,145920,441856,304896,304896,0,0,0,178944,119552,119552,150016,145920,145920,620800,424448,424448,482sphinx3
39324,524288,4194304,8388608,524288,4194304,8388608,512,512,512,512,512,512,1,1,1,1,1,1,l,l,l,l,l,l,d,d,d,d,d,d,a,a,a,a,a,a,7302028,396,368,2697972,2040,921,396,368,368,1435,676,676,0.0001,0.9293,1,0.0005,0.3314,0.734,202752,188416,188416,734720,346112,346112,0,0,0,309760,125440,125440,202752,188416,188416,1044480,471552,471552,482sphinx3
39408,524288,4194304,8388608,524288,4194304,8388608,8,8,8,8,8,8,2,2,2,2,2,2,l,l,l,l,l,l,d,d,d,d,d,d,a,a,a,a,a,a,7302028,8318,8318,2697972,31149,31144,8318,8318,8318,21908,21906,21900,0.0011,1,1,0.0081,0.7033,0.7032,66544,66544,66544,175264,175224,175200,0,0,0,73928,73928,73928,66544,66544,66544,249192,249152,249128,482sphinx3
39492,524288,4194304,8388608,524288,4194304,8388608,16,16,16,16,16,16,2,2,2,2,2,2,l,l,l,l,l,l,d,d,d,d,d,d,a,a,a,a,a,a,7302028,4487,4487,2697972,20904,20895,4487,4487,4487,14478,14473,14465,0.0006,1,1,0.0054,0.6924,0.6923,71792,71792,71792,231648,231504,231440,0,0,0,102816,102816,102816,71792,71792,71792,334464,334320,334256,482sphinx3
39576,524288,4194304,8388608,524288,4194304,8388608,32,32,32,32,32,32,2,2,2,2,2,2,l,l,l,l,l,l,d,d,d,d,d,d,a,a,a,a,a,a,7302028,2555,2555,2697972,10967,10959,2555,2555,2555,7611,7605,7601,0.0003,1,1,0.0028,0.6934,0.6936,81760,81760,81760,243552,243296,243232,0,0,0,107392,107392,107392,81760,81760,81760,350944,350688,350624,482sphinx3
39660,524288,4194304,8388608,524288,4194304,8388608,64,64,64,64,64,64,2,2,2,2,2,2,l,l,l,l,l,l,d,d,d,d,d,d,a,a,a,a,a,a,7302028,1496,1496,2697972,5766,5755,1496,1496,1496,4020,4010,4006,0.0002,1,1,0.0015,0.6955,0.6961,95744,95744,95744,257280,256576,256384,0,0,0,111744,111744,111744,95744,95744,95744,369024,368320,368128,482sphinx3
39744,524288,4194304,8388608,524288,4194304,8388608,128,128,128,128,128,128,2,2,2,2,2,2,l,l,l,l,l,l,d,d,d,d,d,d,a,a,a,a,a,a,7302028,909,909,2697972,3052,3038,909,909,909,2149,2136,2130,0.0001,1,1,0.0008,0.6999,0.7011,116352,116352,116352,275072,273280,272640,0,0,0,115584,115584,115584,116352,116352,116352,390656,388864,388224,482sphinx3
39828,524288,4194304,8388608,524288,4194304,8388608,256,256,256,256,256,256,2,2,2,2,2,2,l,l,l,l,l,l,d,d,d,d,d,d,a,a,a,a,a,a,7302028,564,564,2697972,1630,1617,564,564,564,1163,1150,1146,0.0001,1,1,0.0004,0.7055,0.7087,144384,144384,144384,297728,294400,293376,0,0,0,119552,119552,119552,144384,144384,144384,417280,413952,412928,482sphinx3
39912,524288,4194304,8388608,524288,4194304,8388608,512,512,512,512,512,512,2,2,2,2,2,2,l,l,l,l,l,l,d,d,d,d,d,d,a,a,a,a,a,a,7302028,362,362,2697972,891,875,362,362,362,645,631,626,0,1,1,0.0002,0.7082,0.7154,185344,185344,185344,330240,322560,320512,0,0,0,125952,125440,125440,185344,185344,185344,456192,448000,445952,482sphinx3
39996,524288,4194304,8388608,524288,4194304,8388608,8,8,8,8,8,8,4,4,4,4,4,4,l,l,l,l,l,l,d,d,d,d,d,d,a,a,a,a,a,a,7302028,8318,8318,2697972,31141,31141,8318,8318,8318,21900,21900,21900,0.0011,1,1,0.0081,0.7033,0.7033,66544,66544,66544,175200,175200,175200,0,0,0,73928,73928,73928,66544,66544,66544,249128,249128,249128,482sphinx3
40080,524288,4194304,8388608,524288,4194304,8388608,16,16,16,16,16,16,4,4,4,4,4,4,l,l,l,l,l,l,d,d,d,d,d,d,a,a,a,a,a,a,7302028,4487,4487,2697972,20891,20891,4487,4487,4487,14465,14465,14465,0.0006,1,1,0.0054,0.6924,0.6924,71792,71792,71792,231440,231440,231440,0,0,0,102816,102816,102816,71792,71792,71792,334256,334256,334256,482sphinx3
40164,524288,4194304,8388608,524288,4194304,8388608,32,32,32,32,32,32,4,4,4,4,4,4,l,l,l,l,l,l,d,d,d,d,d,d,a,a,a,a,a,a,7302028,2555,2555,2697972,10957,10957,2555,2555,2555,7601,7601,7601,0.0003,1,1,0.0028,0.6937,0.6937,81760,81760,81760,243232,243232,243232,0,0,0,107392,107392,107392,81760,81760,81760,350624,350624,350624,482sphinx3
40248,524288,4194304,8388608,524288,4194304,8388608,64,64,64,64,64,64,4,4,4,4,4,4,l,l,l,l,l,l,d,d,d,d,d,d,a,a,a,a,a,a,7302028,1496,1496,2697972,5752,5752,1496,1496,1496,4006,4006,4006,0.0002,1,1,0.0015,0.6965,0.6965,95744,95744,95744,256384,256384,256384,0,0,0,111744,111744,111744,95744,95744,95744,368128,368128,368128,482sphinx3
40332,524288,4194304,8388608,524288,4194304,8388608,128,128,128,128,128,128,4,4,4,4,4,4,l,l,l,l,l,l,d,d,d,d,d,d,a,a,a,a,a,a,7302028,909,909,2697972,3033,3033,909,909,909,2130,2130,2130,0.0001,1,1,0.0008,0.7023,0.7023,116352,116352,116352,272640,272640,272640,0,0,0,115584,115584,115584,116352,116352,116352,388224,388224,388224,482sphinx3
40416,524288,4194304,8388608,524288,4194304,8388608,256,256,256,256,256,256,4,4,4,4,4,4,l,l,l,l,l,l,d,d,d,d,d,d,a,a,a,a,a,a,7302028,564,564,2697972,1613,1613,564,564,564,1146,1146,1146,0.0001,1,1,0.0004,0.7105,0.7105,144384,144384,144384,293376,293376,293376,0,0,0,119552,119552,119552,144384,144384,144384,412928,412928,412928,482sphinx3
40500,524288,4194304,8388608,524288,4194304,8388608,512,512,512,512,512,512,4,4,4,4,4,4,l,l,l,l,l,l,d,d,d,d,d,d,a,a,a,a,a,a,7302028,362,362,2697972,871,871,362,362,362,626,626,626,0,1,1,0.0002,0.7187,0.7187,185344,185344,185344,320512,320512,320512,0,0,0,125440,125440,125440,185344,185344,185344,445952,445952,445952,482sphinx3
40584,524288,4194304,8388608,524288,4194304,8388608,8,8,8,8,8,8,8,8,8,8,8,8,l,l,l,l,l,l,d,d,d,d,d,d,a,a,a,a,a,a,7302028,8318,8318,2697972,31141,31141,8318,8318,8318,21900,21900,21900,0.0011,1,1,0.0081,0.7033,0.7033,66544,66544,66544,175200,175200,175200,0,0,0,73928,73928,73928,66544,66544,66544,249128,249128,249128,482sphinx3
40668,524288,4194304,8388608,524288,4194304,8388608,16,16,16,16,16,16,8,8,8,8,8,8,l,l,l,l,l,l,d,d,d,d,d,d,a,a,a,a,a,a,7302028,4487,4487,2697972,20891,20891,4487,4487,4487,14465,14465,14465,0.0006,1,1,0.0054,0.6924,0.6924,71792,71792,71792,231440,231440,231440,0,0,0,102816,102816,102816,71792,71792,71792,334256,334256,334256,482sphinx3
40752,524288,4194304,8388608,524288,4194304,8388608,32,32,32,32,32,32,8,8,8,8,8,8,l,l,l,l,l,l,d,d,d,d,d,d,a,a,a,a,a,a,7302028,2555,2555,2697972,10957,10957,2555,2555,2555,7601,7601,7601,0.0003,1,1,0.0028,0.6937,0.6937,81760,81760,81760,243232,243232,243232,0,0,0,107392,107392,107392,81760,81760,81760,350624,350624,350624,482sphinx3
40836,524288,4194304,8388608,524288,4194304,8388608,64,64,64,64,64,64,8,8,8,8,8,8,l,l,l,l,l,l,d,d,d,d,d,d,a,a,a,a,a,a,7302028,1496,1496,2697972,5752,5752,1496,1496,1496,4006,4006,4006,0.0002,1,1,0.0015,0.6965,0.6965,95744,95744,95744,256384,256384,256384,0,0,0,111744,111744,111744,95744,95744,95744,368128,368128,368128,482sphinx3
40920,524288,4194304,8388608,524288,4194304,8388608,128,128,128,128,128,128,8,8,8,8,8,8,l,l,l,l,l,l,d,d,d,d,d,d,a,a,a,a,a,a,7302028,909,909,2697972,3033,3033,909,909,909,2130,2130,2130,0.0001,1,1,0.0008,0.7023,0.7023,116352,116352,116352,272640,272640,272640,0,0,0,115584,115584,115584,116352,116352,116352,388224,388224,388224,482sphinx3
41004,524288,4194304,8388608,524288,4194304,8388608,256,256,256,256,256,256,8,8,8,8,8,8,l,l,l,l,l,l,d,d,d,d,d,d,a,a,a,a,a,a,7302028,564,564,2697972,1613,1613,564,564,564,1146,1146,1146,0.0001,1,1,0.0004,0.7105,0.7105,144384,144384,144384,293376,293376,293376,0,0,0,119552,119552,119552,144384,144384,144384,412928,412928,412928,482sphinx3
41088,524288,4194304,8388608,524288,4194304,8388608,512,512,512,512,512,512,8,8,8,8,8,8,l,l,l,l,l,l,d,d,d,d,d,d,a,a,a,a,a,a,7302028,362,362,2697972,871,871,362,362,362,626,626,626,0,1,1,0.0002,0.7187,0.7187,185344,185344,185344,320512,320512,320512,0,0,0,125440,125440,125440,185344,185344,185344,445952,445952,445952,482sphinx3
